code/frame_tx/sim/Ethernet_frame.vcd
$date
   Fri Feb 27 10:40:05 2026
$end

$version
  2024.2.0
  $dumpfile ("Ethernet_frame.vcd") 
$end

$timescale
  1ps
$end

$scope module Ethernet_frame_gen_tb $end
$var reg 1 ! clk $end
$var reg 1 " reset $end
$var reg 1 # start $end
$var reg 11 $ payload_length [10:0] $end
$var reg 8 % tb_CRC32_data [7:0] $end
$var reg 1 & tb_CRC32_valid $end
$var reg 8 ' tb_tx_data [7:0] $end
$var reg 1 ( tb_tx_valid $end
$var reg 1 ) tb_frame_done $end
$scope module dut $end
$var wire 1 * clk $end
$var wire 1 + reset $end
$var wire 1 , start $end
$var wire 11 - payload_length [10:0] $end
$var reg 8 % CRC32_data [7:0] $end
$var reg 1 & CRC32_valid $end
$var reg 8 ' tx_data [7:0] $end
$var reg 1 ( tx_valid $end
$var reg 1 ) frame_done $end
$var reg 3 . cnt_preamble [2:0] $end
$var reg 3 / cnt_MAC_dest [2:0] $end
$var reg 3 0 cnt_MAC_source [2:0] $end
$var reg 1 1 cnt_ethernet_type $end
$var reg 11 2 cnt_payload [10:0] $end
$var reg 6 3 cnt_pad [5:0] $end
$var reg 2 4 cnt_fcs [1:0] $end
$var reg 4 5 cnt_ipg [3:0] $end
$var reg 11 6 MAX_payload [10:0] $end
$var reg 32 7 state $end
$var reg 32 8 next_state $end
$upscope $end
$scope task clk_gen $end
$upscope $end
$scope task apply_reset $end
$upscope $end
$upscope $end
$enddefinitions $end

#0
$dumpvars
0!
0"
0#
bx $
bx %
0&
b0 '
0(
0)
0*
0+
0,
bx -
bx .
bx /
bx 0
x1
bx 2
bx 3
bx 4
bx 5
bx 6
b0 7
b0 8
$end

#5000
1!
1"
1*
1+
b0 .
b0 /
b0 0
01
b0 2
b0 3
b0 4
b0 5

#10000
0!
0*

#15000
1!
0"
1*
0+

#20000
0!
0*

#25000
1!
1*

#30000
0!
0*

#35000
1!
1*

#40000
0!
0*

#45000
1!
1*

#50000
0!
0*

#55000
1!
1*

#60000
0!
0*

#65000
1!
1*

#70000
0!
0*

#75000
1!
1*

#80000
0!
0*

#85000
1!
1*

#90000
0!
0*

#95000
1!
b101 $
1*
b101 -

#100000
0!
0*

#105000
1!
1#
1*
1,
b1 8

#110000
0!
0*

#115000
1!
b1010101 '
1(
1*
b1 7

#120000
0!
0*

#125000
1!
1*
b1 .

#130000
0!
0*

#135000
1!
1*
b10 .

#140000
0!
0*

#145000
1!
1*
b11 .

#150000
0!
0*

#155000
1!
1*
b100 .

#160000
0!
0*

#165000
1!
1*
b101 .

#170000
0!
0*

#175000
1!
1*
b110 .
b10 8

#180000
0!
0*

#185000
1!
b10101011 '
1*
b111 .
b10 7
b11 8

#190000
0!
0*

#195000
1!
b110101 %
b110101 '
1*
b11 7

#200000
0!
0*

#205000
1!
1*
b1 /

#210000
0!
0*

#215000
1!
1*
b10 /

#220000
0!
0*

#225000
1!
1*
b11 /

#230000
0!
0*

#235000
1!
1*
b100 /

#240000
0!
0*

#245000
1!
1*
b101 /
b100 8

#250000
0!
0*

#255000
1!
b10000110 %
b10000110 '
1*
b110 /
b100 7

#260000
0!
0*

#265000
1!
1*
b1 0

#270000
0!
0*

#275000
1!
1*
b10 0

#280000
0!
0*

#285000
1!
1*
b11 0

#290000
0!
0*

#295000
1!
1*
b100 0

#300000
0!
0*

#305000
1!
1*
b101 0
b101 8

#310000
0!
0*

#315000
1!
b100111 %
b100111 '
1*
b110 0
b101 7

#320000
0!
0*

#325000
1!
1*
11
b110 8

#330000
0!
0*

#335000
1!
1*
01
b101 6
b110 7
b111 8

#340000
0!
0*

#345000
1!
b1000010 %
b1000010 '
1*
b111 7

#350000
0!
0*

#355000
1!
1*
b1 2

#360000
0!
0*

#365000
1!
1*
b10 2

#370000
0!
0*

#375000
1!
1*
b11 2
b1000 8

#380000
0!
0*

#385000
1!
b0 '
1*
b100 2
b1000 7

#390000
0!
0*

#395000
1!
1*
b1 3

#400000
0!
0*

#405000
1!
1*
b10 3

#410000
0!
0*

#415000
1!
1*
b11 3

#420000
0!
0*

#425000
1!
1*
b100 3

#430000
0!
0*

#435000
1!
1*
b101 3

#440000
0!
0*

#445000
1!
1*
b110 3

#450000
0!
0*

#455000
1!
1*
b111 3

#460000
0!
0*

#465000
1!
1*
b1000 3

#470000
0!
0*

#475000
1!
1*
b1001 3

#480000
0!
0*

#485000
1!
1*
b1010 3

#490000
0!
0*

#495000
1!
1*
b1011 3

#500000
0!
0*

#505000
1!
1*
b1100 3

#510000
0!
0*

#515000
1!
1*
b1101 3

#520000
0!
0*

#525000
1!
1*
b1110 3

#530000
0!
0*

#535000
1!
1*
b1111 3

#540000
0!
0*

#545000
1!
1*
b10000 3

#550000
0!
0*

#555000
1!
1*
b10001 3

#560000
0!
0*

#565000
1!
1*
b10010 3

#570000
0!
0*

#575000
1!
1*
b10011 3

#580000
0!
0*

#585000
1!
1*
b10100 3

#590000
0!
0*

#595000
1!
1*
b10101 3

#600000
0!
0*

#605000
1!
1*
b10110 3

#610000
0!
0*

#615000
1!
1*
b10111 3

#620000
0!
0*

#625000
1!
1*
b11000 3

#630000
0!
0*

#635000
1!
1*
b11001 3

#640000
0!
0*

#645000
1!
1*
b11010 3

#650000
0!
0*

#655000
1!
1*
b11011 3

#660000
0!
0*

#665000
1!
1*
b11100 3

#670000
0!
0*

#675000
1!
1*
b11101 3

#680000
0!
0*

#685000
1!
1*
b11110 3

#690000
0!
0*

#695000
1!
1*
b11111 3

#700000
0!
0*

#705000
1!
1*
b100000 3

#710000
0!
0*

#715000
1!
1*
b100001 3

#720000
0!
0*

#725000
1!
1*
b100010 3

#730000
0!
0*

#735000
1!
1*
b100011 3

#740000
0!
0*

#745000
1!
1*
b100100 3

#750000
0!
0*

#755000
1!
1*
b100101 3

#760000
0!
0*

#765000
1!
1*
b100110 3

#770000
0!
0*

#775000
1!
1*
b100111 3

#780000
0!
0*

#785000
1!
1*
b101000 3

#790000
0!
0*

#795000
1!
1*
b101001 3

#800000
0!
0*

#805000
1!
1*
b101010 3

#810000
0!
0*

#815000
1!
1*
b101011 3

#820000
0!
0*

#825000
1!
1*
b101100 3

#830000
0!
0*

#835000
1!
1*
b101101 3
b1001 8

#840000
0!
0*

#845000
1!
b1010000 '
1*
b101110 3
b1001 7

#850000
0!
0*

#855000
1!
1*
b1 4

#860000
0!
0*

#865000
1!
1*
b10 4

#870000
0!
0*

#875000
1!
1*
b11 4
b1010 8

#880000
0!
0*

#885000
1!
b0 '
1*
b0 4
b1010 7

#890000
0!
0*

#895000
1!
1*
b1 5

#900000
0!
0*

#905000
1!
1*
b10 5

#910000
0!
0*

#915000
1!
1*
b11 5

#920000
0!
0*

#925000
1!
1*
b100 5

#930000
0!
0*

#935000
1!
1*
b101 5

#940000
0!
0*

#945000
1!
1*
b110 5

#950000
0!
0*

#955000
1!
1*
b111 5

#960000
0!
0*

#965000
1!
1*
b1000 5

#970000
0!
0*

#975000
1!
1*
b1001 5

#980000
0!
0*

#985000
1!
1*
b1010 5

#990000
0!
0*

#995000
1!
1)
1*
b1011 5
b0 8

#1000000
0!
0*

#1005000
1!
0(
0)
1*
b1100 5
b0 7
b1 8

#1010000
0!
0*

#1015000
1!
b1010101 '
1(
1*
b0 .
b1 7

#1020000
0!
0*

#1025000
1!
1*
b1 .

#1030000
0!
0*

#1035000
1!
1*
b10 .

#1040000
0!
0*

#1045000
1!
1*
b11 .

#1050000
0!
0*

#1055000
1!
1*
b100 .

#1060000
0!
0*

#1065000
1!
1*
b101 .

#1070000
0!
0*

#1075000
1!
1*
b110 .
b10 8

#1080000
0!
0*

#1085000
1!
b10101011 '
1*
b111 .
b10 7
b11 8

#1090000
0!
0*

#1095000
1!
b110101 %
b110101 '
1*
b0 /
b11 7

#1100000
0!
0*

#1105000
1!
1*
b1 /

#1110000
0!
0*

#1115000
1!
1*
b10 /

#1120000
0!
0*

#1125000
1!
1*
b11 /

#1130000
0!
0*

#1135000
1!
1*
b100 /

#1140000
0!
0*

#1145000
1!
1*
b101 /
b100 8

#1150000
0!
0*

#1155000
1!
b10000110 %
b10000110 '
1*
b110 /
b0 0
b100 7

#1160000
0!
0*

#1165000
1!
1*
b1 0

#1170000
0!
0*

#1175000
1!
1*
b10 0

#1180000
0!
0*

#1185000
1!
1*
b11 0

#1190000
0!
0*

#1195000
1!
1*
b100 0

#1200000
0!
0*

#1205000
1!
1*
b101 0
b101 8

#1210000
0!
0*

#1215000
1!
b100111 %
b100111 '
1*
b110 0
b101 7

#1220000
0!
0*

#1225000
1!
1*
11
b110 8

#1230000
0!
0*

#1235000
1!
1*
01
b110 7
b111 8

#1240000
0!
0*

#1245000
1!
b1000010 %
b1000010 '
1*
b0 2
b111 7

#1250000
0!
0*

#1255000
1!
1*
b1 2

#1260000
0!
0*

#1265000
1!
1*
b10 2

#1270000
0!
0*

#1275000
1!
1*
b11 2
b1000 8

#1280000
0!
0*

#1285000
1!
b0 '
1*
b100 2
b0 3
b1000 7

#1290000
0!
0*

#1295000
1!
1*
b1 3

#1300000
0!
0*

#1305000
1!
1*
b10 3

#1310000
0!
0*

#1315000
1!
1*
b11 3

#1320000
0!
0*

#1325000
1!
1*
b100 3

#1330000
0!
0*

#1335000
1!
1*
b101 3

#1340000
0!
0*

#1345000
1!
1*
b110 3

#1350000
0!
0*

#1355000
1!
1*
b111 3

#1360000
0!
0*

#1365000
1!
1*
b1000 3

#1370000
0!
0*

#1375000
1!
1*
b1001 3

#1380000
0!
0*

#1385000
1!
1*
b1010 3

#1390000
0!
0*

#1395000
1!
1*
b1011 3

#1400000
0!
0*

#1405000
1!
1*
b1100 3

#1410000
0!
0*

#1415000
1!
1*
b1101 3

#1420000
0!
0*

#1425000
1!
1*
b1110 3

#1430000
0!
0*

#1435000
1!
1*
b1111 3

#1440000
0!
0*

#1445000
1!
1*
b10000 3

#1450000
0!
0*

#1455000
1!
1*
b10001 3

#1460000
0!
0*

#1465000
1!
1*
b10010 3

#1470000
0!
0*

#1475000
1!
1*
b10011 3

#1480000
0!
0*

#1485000
1!
1*
b10100 3

#1490000
0!
0*

#1495000
1!
1*
b10101 3

#1500000
0!
0*

#1505000
1!
1*
b10110 3

#1510000
0!
0*

#1515000
1!
1*
b10111 3

#1520000
0!
0*

#1525000
1!
1*
b11000 3

#1530000
0!
0*

#1535000
1!
1*
b11001 3

#1540000
0!
0*

#1545000
1!
1*
b11010 3

#1550000
0!
0*

#1555000
1!
1*
b11011 3

#1560000
0!
0*

#1565000
1!
1*
b11100 3

#1570000
0!
0*

#1575000
1!
1*
b11101 3

#1580000
0!
0*

#1585000
1!
1*
b11110 3

#1590000
0!
0*

#1595000
1!
1*
b11111 3

#1600000
0!
0*

#1605000
1!
1*
b100000 3

#1610000
0!
0*

#1615000
1!
1*
b100001 3

#1620000
0!
0*

#1625000
1!
1*
b100010 3

#1630000
0!
0*

#1635000
1!
1*
b100011 3

#1640000
0!
0*

#1645000
1!
1*
b100100 3

#1650000
0!
0*

#1655000
1!
1*
b100101 3

#1660000
0!
0*

#1665000
1!
1*
b100110 3

#1670000
0!
0*

#1675000
1!
1*
b100111 3

#1680000
0!
0*

#1685000
1!
1*
b101000 3

#1690000
0!
0*

#1695000
1!
1*
b101001 3

#1700000
0!
0*

#1705000
1!
1*
b101010 3

#1710000
0!
0*

#1715000
1!
1*
b101011 3

#1720000
0!
0*

#1725000
1!
1*
b101100 3

#1730000
0!
0*

#1735000
1!
1*
b101101 3
b1001 8

#1740000
0!
0*

#1745000
1!
b1010000 '
1*
b101110 3
b1001 7

#1750000
0!
0*

#1755000
1!
1*
b1 4

#1760000
0!
0*

#1765000
1!
1*
b10 4

#1770000
0!
0*

#1775000
1!
1*
b11 4
b1010 8

#1780000
0!
0*

#1785000
1!
b0 '
1*
b0 4
b0 5
b1010 7

#1790000
0!
0*

#1795000
1!
1*
b1 5

#1800000
0!
0*

#1805000
1!
1*
b10 5

#1810000
0!
0*

#1815000
1!
1*
b11 5

#1820000
0!
0*

#1825000
1!
1*
b100 5

#1830000
0!
0*

#1835000
1!
1*
b101 5

#1840000
0!
0*

#1845000
1!
1*
b110 5

#1850000
0!
0*

#1855000
1!
1*
b111 5

#1860000
0!
0*

#1865000
1!
1*
b1000 5

#1870000
0!
0*

#1875000
1!
1*
b1001 5

#1880000
0!
0*

#1885000
1!
1*
b1010 5

#1890000
0!
0*

#1895000
1!
1)
1*
b1011 5
b0 8

#1900000
0!
0*

#1905000
1!
0(
0)
1*
b1100 5
b0 7
b1 8

#1910000
0!
0*

#1915000
1!
b1010101 '
1(
1*
b0 .
b1 7

#1920000
0!
0*

#1925000
1!
1*
b1 .

#1930000
0!
0*

#1935000
1!
1*
b10 .

#1940000
0!
0*

#1945000
1!
1*
b11 .

#1950000
0!
0*

#1955000
1!
1*
b100 .

#1960000
0!
0*

#1965000
1!
1*
b101 .

#1970000
0!
0*

#1975000
1!
1*
b110 .
b10 8

#1980000
0!
0*

#1985000
1!
b10101011 '
1*
b111 .
b10 7
b11 8

#1990000
0!
0*

#1995000
1!
b110101 %
b110101 '
1*
b0 /
b11 7

#2000000
0!
0*

#2005000
1!
1*
b1 /

#2010000
0!
0*

#2015000
1!
1*
b10 /

#2020000
0!
0*

#2025000
1!
1*
b11 /

#2030000
0!
0*

#2035000
1!
1*
b100 /

#2040000
0!
0*

#2045000
1!
1*
b101 /
b100 8

#2050000
0!
0*

#2055000
1!
b10000110 %
b10000110 '
1*
b110 /
b0 0
b100 7

#2060000
0!
0*

#2065000
1!
1*
b1 0

#2070000
0!
0*

#2075000
1!
1*
b10 0

#2080000
0!
0*

#2085000
1!
1*
b11 0

#2090000
0!
0*

#2095000
1!
1*
b100 0

#2100000
0!
0*

#2105000
1!
1*
b101 0
b101 8

#2110000
0!
0*

#2115000
1!
b100111 %
b100111 '
1*
b110 0
b101 7

#2120000
0!
0*

#2125000
1!
1*
11
b110 8

#2130000
0!
0*

#2135000
1!
1*
01
b110 7
b111 8

#2140000
0!
0*

#2145000
1!
b1000010 %
b1000010 '
1*
b0 2
b111 7

#2150000
0!
0*

#2155000
1!
1*
b1 2

#2160000
0!
0*

#2165000
1!
1*
b10 2

#2170000
0!
0*

#2175000
1!
1*
b11 2
b1000 8

#2180000
0!
0*

#2185000
1!
b0 '
1*
b100 2
b0 3
b1000 7

#2190000
0!
0*

#2195000
1!
1*
b1 3

#2200000
0!
0*

#2205000
1!
1*
b10 3

#2210000
0!
0*

#2215000
1!
1*
b11 3

#2220000
0!
0*

#2225000
1!
1*
b100 3

#2230000
0!
0*

#2235000
1!
1*
b101 3

#2240000
0!
0*

#2245000
1!
1*
b110 3

#2250000
0!
0*

#2255000
1!
1*
b111 3

#2260000
0!
0*

#2265000
1!
1*
b1000 3

#2270000
0!
0*

#2275000
1!
1*
b1001 3

#2280000
0!
0*

#2285000
1!
1*
b1010 3

#2290000
0!
0*

#2295000
1!
1*
b1011 3

#2300000
0!
0*

#2305000
1!
1*
b1100 3

#2310000
0!
0*

#2315000
1!
1*
b1101 3

#2320000
0!
0*

#2325000
1!
1*
b1110 3

#2330000
0!
0*

#2335000
1!
1*
b1111 3

#2340000
0!
0*

#2345000
1!
1*
b10000 3

#2350000
0!
0*

#2355000
1!
1*
b10001 3

#2360000
0!
0*

#2365000
1!
1*
b10010 3

#2370000
0!
0*

#2375000
1!
1*
b10011 3

#2380000
0!
0*

#2385000
1!
1*
b10100 3

#2390000
0!
0*

#2395000
1!
1*
b10101 3

#2400000
0!
0*

#2405000
1!
1*
b10110 3

#2410000
0!
0*

#2415000
1!
1*
b10111 3

#2420000
0!
0*

#2425000
1!
1*
b11000 3

#2430000
0!
0*

#2435000
1!
1*
b11001 3

#2440000
0!
0*

#2445000
1!
1*
b11010 3

#2450000
0!
0*

#2455000
1!
1*
b11011 3

#2460000
0!
0*

#2465000
1!
1*
b11100 3

#2470000
0!
0*

#2475000
1!
1*
b11101 3

#2480000
0!
0*

#2485000
1!
1*
b11110 3

#2490000
0!
0*

#2495000
1!
1*
b11111 3

#2500000
0!
0*

#2505000
1!
1*
b100000 3

#2510000
0!
0*

#2515000
1!
1*
b100001 3

#2520000
0!
0*

#2525000
1!
1*
b100010 3

#2530000
0!
0*

#2535000
1!
1*
b100011 3

#2540000
0!
0*

#2545000
1!
1*
b100100 3

#2550000
0!
0*

#2555000
1!
1*
b100101 3

#2560000
0!
0*

#2565000
1!
1*
b100110 3

#2570000
0!
0*

#2575000
1!
1*
b100111 3

#2580000
0!
0*

#2585000
1!
1*
b101000 3

#2590000
0!
0*

#2595000
1!
1*
b101001 3

#2600000
0!
0*

#2605000
1!
1*
b101010 3

#2610000
0!
0*

#2615000
1!
1*
b101011 3

#2620000
0!
0*

#2625000
1!
1*
b101100 3

#2630000
0!
0*

#2635000
1!
1*
b101101 3
b1001 8

#2640000
0!
0*

#2645000
1!
b1010000 '
1*
b101110 3
b1001 7

#2650000
0!
0*

#2655000
1!
1*
b1 4

#2660000
0!
0*

#2665000
1!
1*
b10 4

#2670000
0!
0*

#2675000
1!
1*
b11 4
b1010 8

#2680000
0!
0*

#2685000
1!
b0 '
1*
b0 4
b0 5
b1010 7

#2690000
0!
0*

#2695000
1!
1*
b1 5

#2700000
0!
0*

#2705000
1!
1*
b10 5

#2710000
0!
0*

#2715000
1!
1*
b11 5

#2720000
0!
0*

#2725000
1!
1*
b100 5

#2730000
0!
0*

#2735000
1!
1*
b101 5

#2740000
0!
0*

#2745000
1!
1*
b110 5

#2750000
0!
0*

#2755000
1!
1*
b111 5

#2760000
0!
0*

#2765000
1!
1*
b1000 5

#2770000
0!
0*

#2775000
1!
1*
b1001 5

#2780000
0!
0*

#2785000
1!
1*
b1010 5

#2790000
0!
0*

#2795000
1!
1)
1*
b1011 5
b0 8

#2800000
0!
0*

#2805000
1!
0(
0)
1*
b1100 5
b0 7
b1 8

#2810000
0!
0*

#2815000
1!
b1010101 '
1(
1*
b0 .
b1 7

#2820000
0!
0*

#2825000
1!
1*
b1 .

#2830000
0!
0*

#2835000
1!
1*
b10 .

#2840000
0!
0*

#2845000
1!
1*
b11 .

#2850000
0!
0*

#2855000
1!
1*
b100 .

#2860000
0!
0*

#2865000
1!
1*
b101 .

#2870000
0!
0*

#2875000
1!
1*
b110 .
b10 8

#2880000
0!
0*

#2885000
1!
b10101011 '
1*
b111 .
b10 7
b11 8

#2890000
0!
0*

#2895000
1!
b110101 %
b110101 '
1*
b0 /
b11 7

#2900000
0!
0*

#2905000
1!
1*
b1 /

#2910000
0!
0*

#2915000
1!
1*
b10 /

#2920000
0!
0*

#2925000
1!
1*
b11 /

#2930000
0!
0*

#2935000
1!
1*
b100 /

#2940000
0!
0*

#2945000
1!
1*
b101 /
b100 8

#2950000
0!
0*

#2955000
1!
b10000110 %
b10000110 '
1*
b110 /
b0 0
b100 7

#2960000
0!
0*

#2965000
1!
1*
b1 0

#2970000
0!
0*

#2975000
1!
1*
b10 0

#2980000
0!
0*

#2985000
1!
1*
b11 0

#2990000
0!
0*

#2995000
1!
1*
b100 0

#3000000
0!
0*

#3005000
1!
1*
b101 0
b101 8

#3010000
0!
0*

#3015000
1!
b100111 %
b100111 '
1*
b110 0
b101 7

#3020000
0!
0*

#3025000
1!
1*
11
b110 8

#3030000
0!
0*

#3035000
1!
1*
01
b110 7
b111 8

#3040000
0!
0*

#3045000
1!
b1000010 %
b1000010 '
1*
b0 2
b111 7

#3050000
0!
0*

#3055000
1!
1*
b1 2

#3060000
0!
0*

#3065000
1!
1*
b10 2

#3070000
0!
0*

#3075000
1!
1*
b11 2
b1000 8

#3080000
0!
0*

#3085000
1!
b0 '
1*
b100 2
b0 3
b1000 7

#3090000
0!
0*

#3095000
1!
1*
b1 3

#3100000
0!
0*

#3105000
1!
1*
b10 3

#3110000
0!
0*

#3115000
1!
1*
b11 3

#3120000
0!
0*

#3125000
1!
1*
b100 3

#3130000
0!
0*

#3135000
1!
1*
b101 3

#3140000
0!
0*

#3145000
1!
1*
b110 3

#3150000
0!
0*

#3155000
1!
1*
b111 3

#3160000
0!
0*

#3165000
1!
1*
b1000 3

#3170000
0!
0*

#3175000
1!
1*
b1001 3

#3180000
0!
0*

#3185000
1!
1*
b1010 3

#3190000
0!
0*

#3195000
1!
1*
b1011 3

#3200000
0!
0*

#3205000
1!
1*
b1100 3

#3210000
0!
0*

#3215000
1!
1*
b1101 3

#3220000
0!
0*

#3225000
1!
1*
b1110 3

#3230000
0!
0*

#3235000
1!
1*
b1111 3

#3240000
0!
0*

#3245000
1!
1*
b10000 3

#3250000
0!
0*

#3255000
1!
1*
b10001 3

#3260000
0!
0*

#3265000
1!
1*
b10010 3

#3270000
0!
0*

#3275000
1!
1*
b10011 3

#3280000
0!
0*

#3285000
1!
1*
b10100 3

#3290000
0!
0*

#3295000
1!
1*
b10101 3

#3300000
0!
0*

#3305000
1!
1*
b10110 3

#3310000
0!
0*

#3315000
1!
1*
b10111 3

#3320000
0!
0*

#3325000
1!
1*
b11000 3

#3330000
0!
0*

#3335000
1!
1*
b11001 3

#3340000
0!
0*

#3345000
1!
1*
b11010 3

#3350000
0!
0*

#3355000
1!
1*
b11011 3

#3360000
0!
0*

#3365000
1!
1*
b11100 3

#3370000
0!
0*

#3375000
1!
1*
b11101 3

#3380000
0!
0*

#3385000
1!
1*
b11110 3

#3390000
0!
0*

#3395000
1!
1*
b11111 3

#3400000
0!
0*

#3405000
1!
1*
b100000 3

#3410000
0!
0*

#3415000
1!
1*
b100001 3

#3420000
0!
0*

#3425000
1!
1*
b100010 3

#3430000
0!
0*

#3435000
1!
1*
b100011 3

#3440000
0!
0*

#3445000
1!
1*
b100100 3

#3450000
0!
0*

#3455000
1!
1*
b100101 3

#3460000
0!
0*

#3465000
1!
1*
b100110 3

#3470000
0!
0*

#3475000
1!
1*
b100111 3

#3480000
0!
0*

#3485000
1!
1*
b101000 3

#3490000
0!
0*

#3495000
1!
1*
b101001 3

#3500000
0!
0*

#3505000
1!
1*
b101010 3

#3510000
0!
0*

#3515000
1!
1*
b101011 3

#3520000
0!
0*

#3525000
1!
1*
b101100 3

#3530000
0!
0*

#3535000
1!
1*
b101101 3
b1001 8

#3540000
0!
0*

#3545000
1!
b1010000 '
1*
b101110 3
b1001 7

#3550000
0!
0*

#3555000
1!
1*
b1 4

#3560000
0!
0*

#3565000
1!
1*
b10 4

#3570000
0!
0*

#3575000
1!
1*
b11 4
b1010 8

#3580000
0!
0*

#3585000
1!
b0 '
1*
b0 4
b0 5
b1010 7

#3590000
0!
0*

#3595000
1!
1*
b1 5

#3600000
0!
0*

#3605000
1!
1*
b10 5

#3610000
0!
0*

#3615000
1!
1*
b11 5

#3620000
0!
0*

#3625000
1!
1*
b100 5

#3630000
0!
0*

#3635000
1!
1*
b101 5

#3640000
0!
0*

#3645000
1!
1*
b110 5

#3650000
0!
0*

#3655000
1!
1*
b111 5

#3660000
0!
0*

#3665000
1!
1*
b1000 5

#3670000
0!
0*

#3675000
1!
1*
b1001 5

#3680000
0!
0*

#3685000
1!
1*
b1010 5

#3690000
0!
0*

#3695000
1!
1)
1*
b1011 5
b0 8

#3700000
0!
0*

#3705000
1!
0(
0)
1*
b1100 5
b0 7
b1 8

#3710000
0!
0*

#3715000
1!
b1010101 '
1(
1*
b0 .
b1 7

#3720000
0!
0*

#3725000
1!
1*
b1 .

#3730000
0!
0*

#3735000
1!
1*
b10 .

#3740000
0!
0*

#3745000
1!
1*
b11 .

#3750000
0!
0*

#3755000
1!
1*
b100 .

#3760000
0!
0*

#3765000
1!
1*
b101 .

#3770000
0!
0*

#3775000
1!
1*
b110 .
b10 8

#3780000
0!
0*

#3785000
1!
b10101011 '
1*
b111 .
b10 7
b11 8

#3790000
0!
0*

#3795000
1!
b110101 %
b110101 '
1*
b0 /
b11 7

#3800000
0!
0*

#3805000
1!
1*
b1 /

#3810000
0!
0*

#3815000
1!
1*
b10 /

#3820000
0!
0*

#3825000
1!
1*
b11 /

#3830000
0!
0*

#3835000
1!
1*
b100 /

#3840000
0!
0*

#3845000
1!
1*
b101 /
b100 8

#3850000
0!
0*

#3855000
1!
b10000110 %
b10000110 '
1*
b110 /
b0 0
b100 7

#3860000
0!
0*

#3865000
1!
1*
b1 0

#3870000
0!
0*

#3875000
1!
1*
b10 0

#3880000
0!
0*

#3885000
1!
1*
b11 0

#3890000
0!
0*

#3895000
1!
1*
b100 0

#3900000
0!
0*

#3905000
1!
1*
b101 0
b101 8

#3910000
0!
0*

#3915000
1!
b100111 %
b100111 '
1*
b110 0
b101 7

#3920000
0!
0*

#3925000
1!
1*
11
b110 8

#3930000
0!
0*

#3935000
1!
1*
01
b110 7
b111 8

#3940000
0!
0*

#3945000
1!
b1000010 %
b1000010 '
1*
b0 2
b111 7

#3950000
0!
0*

#3955000
1!
1*
b1 2

#3960000
0!
0*

#3965000
1!
1*
b10 2

#3970000
0!
0*

#3975000
1!
1*
b11 2
b1000 8

#3980000
0!
0*

#3985000
1!
b0 '
1*
b100 2
b0 3
b1000 7

#3990000
0!
0*

#3995000
1!
1*
b1 3

#4000000
0!
0*

#4005000
1!
1*
b10 3

#4010000
0!
0*

#4015000
1!
1*
b11 3

#4020000
0!
0*

#4025000
1!
1*
b100 3

#4030000
0!
0*

#4035000
1!
1*
b101 3

#4040000
0!
0*

#4045000
1!
1*
b110 3

#4050000
0!
0*

#4055000
1!
1*
b111 3

#4060000
0!
0*

#4065000
1!
1*
b1000 3

#4070000
0!
0*

#4075000
1!
1*
b1001 3

#4080000
0!
0*

#4085000
1!
1*
b1010 3

#4090000
0!
0*

#4095000
1!
1*
b1011 3

#4100000
0!
0*

#4105000
1!
1*
b1100 3

#4110000
0!
0*

#4115000
1!
1*
b1101 3

#4120000
0!
0*

#4125000
1!
1*
b1110 3

#4130000
0!
0*

#4135000
1!
1*
b1111 3

#4140000
0!
0*

#4145000
1!
1*
b10000 3

#4150000
0!
0*

#4155000
1!
1*
b10001 3

#4160000
0!
0*

#4165000
1!
1*
b10010 3

#4170000
0!
0*

#4175000
1!
1*
b10011 3

#4180000
0!
0*

#4185000
1!
1*
b10100 3

#4190000
0!
0*

#4195000
1!
1*
b10101 3

#4200000
0!
0*

#4205000
1!
1*
b10110 3

#4210000
0!
0*

#4215000
1!
1*
b10111 3

#4220000
0!
0*

#4225000
1!
1*
b11000 3

#4230000
0!
0*

#4235000
1!
1*
b11001 3

#4240000
0!
0*

#4245000
1!
1*
b11010 3

#4250000
0!
0*

#4255000
1!
1*
b11011 3

#4260000
0!
0*

#4265000
1!
1*
b11100 3

#4270000
0!
0*

#4275000
1!
1*
b11101 3

#4280000
0!
0*

#4285000
1!
1*
b11110 3

#4290000
0!
0*

#4295000
1!
1*
b11111 3

#4300000
0!
0*

#4305000
1!
1*
b100000 3

#4310000
0!
0*

#4315000
1!
1*
b100001 3

#4320000
0!
0*

#4325000
1!
1*
b100010 3

#4330000
0!
0*

#4335000
1!
1*
b100011 3

#4340000
0!
0*

#4345000
1!
1*
b100100 3

#4350000
0!
0*

#4355000
1!
1*
b100101 3

#4360000
0!
0*

#4365000
1!
1*
b100110 3

#4370000
0!
0*

#4375000
1!
1*
b100111 3

#4380000
0!
0*

#4385000
1!
1*
b101000 3

#4390000
0!
0*

#4395000
1!
1*
b101001 3

#4400000
0!
0*

#4405000
1!
1*
b101010 3

#4410000
0!
0*

#4415000
1!
1*
b101011 3

#4420000
0!
0*

#4425000
1!
1*
b101100 3

#4430000
0!
0*

#4435000
1!
1*
b101101 3
b1001 8

#4440000
0!
0*

#4445000
1!
b1010000 '
1*
b101110 3
b1001 7

#4450000
0!
0*

#4455000
1!
1*
b1 4

#4460000
0!
0*

#4465000
1!
1*
b10 4

#4470000
0!
0*

#4475000
1!
1*
b11 4
b1010 8

#4480000
0!
0*

#4485000
1!
b0 '
1*
b0 4
b0 5
b1010 7

#4490000
0!
0*

#4495000
1!
1*
b1 5

#4500000
0!
0*

#4505000
1!
1*
b10 5

#4510000
0!
0*

#4515000
1!
1*
b11 5

#4520000
0!
0*

#4525000
1!
1*
b100 5

#4530000
0!
0*

#4535000
1!
1*
b101 5

#4540000
0!
0*

#4545000
1!
1*
b110 5

#4550000
0!
0*

#4555000
1!
1*
b111 5

#4560000
0!
0*

#4565000
1!
1*
b1000 5

#4570000
0!
0*

#4575000
1!
1*
b1001 5

#4580000
0!
0*

#4585000
1!
1*
b1010 5

#4590000
0!
0*

#4595000
1!
1)
1*
b1011 5
b0 8

#4600000
0!
0*

#4605000
1!
0(
0)
1*
b1100 5
b0 7
b1 8

#4610000
0!
0*

#4615000
1!
b1010101 '
1(
1*
b0 .
b1 7

#4620000
0!
0*

#4625000
1!
1*
b1 .

#4630000
0!
0*

#4635000
1!
1*
b10 .

#4640000
0!
0*

#4645000
1!
1*
b11 .

#4650000
0!
0*

#4655000
1!
1*
b100 .

#4660000
0!
0*

#4665000
1!
1*
b101 .

#4670000
0!
0*

#4675000
1!
1*
b110 .
b10 8

#4680000
0!
0*

#4685000
1!
b10101011 '
1*
b111 .
b10 7
b11 8

#4690000
0!
0*

#4695000
1!
b110101 %
b110101 '
1*
b0 /
b11 7

#4700000
0!
0*

#4705000
1!
1*
b1 /

#4710000
0!
0*

#4715000
1!
1*
b10 /

#4720000
0!
0*

#4725000
1!
1*
b11 /

#4730000
0!
0*

#4735000
1!
1*
b100 /

#4740000
0!
0*

#4745000
1!
1*
b101 /
b100 8

#4750000
0!
0*

#4755000
1!
b10000110 %
b10000110 '
1*
b110 /
b0 0
b100 7

#4760000
0!
0*

#4765000
1!
1*
b1 0

#4770000
0!
0*

#4775000
1!
1*
b10 0

#4780000
0!
0*

#4785000
1!
1*
b11 0

#4790000
0!
0*

