code/frame_tx/sim/Ethernet_frame.vcd
$date
   Fri Mar  6 13:13:07 2026
$end

$version
  2024.2.0
  $dumpfile ("Ethernet_frame.vcd") 
$end

$timescale
  1ps
$end

$scope module Ethernet_frame_gen_tb $end
$var reg 1 ! clk $end
$var reg 1 " reset $end
$var reg 1 # start $end
$var reg 48 $ MAC_dest [47:0] $end
$var reg 48 % MAC_source [47:0] $end
$var reg 16 & ethernet_type [15:0] $end
$var reg 12000 ' payload [11999:0] $end
$var reg 11 ( payload_length [10:0] $end
$var reg 8 ) tb_tx_data [7:0] $end
$var reg 1 * tb_tx_valid $end
$var reg 1 + tb_frame_done $end
$var wire 1 , tb_CRC32_data $end
$var wire 1 - tb_CRC32_valid $end
$scope module dut $end
$var wire 1 . clk $end
$var wire 1 / reset $end
$var wire 1 0 start $end
$var wire 48 1 MAC_dest_addr [47:0] $end
$var wire 48 2 MAC_source_addr [47:0] $end
$var wire 16 3 ethernet_type [15:0] $end
$var wire 12000 4 payload [11999:0] $end
$var wire 11 5 payload_length [10:0] $end
$var reg 8 6 CRC32_data [7:0] $end
$var reg 1 7 CRC32_valid $end
$var reg 8 ) tx_data [7:0] $end
$var reg 1 * tx_valid $end
$var reg 1 + frame_done $end
$var reg 3 8 cnt_preamble [2:0] $end
$var reg 3 9 cnt_MAC_dest [2:0] $end
$var reg 3 : cnt_MAC_source [2:0] $end
$var reg 1 ; cnt_ethernet_type $end
$var reg 11 < cnt_payload [10:0] $end
$var reg 6 = cnt_pad [5:0] $end
$var reg 2 > cnt_fcs [1:0] $end
$var reg 4 ? cnt_ipg [3:0] $end
$var reg 11 @ MAX_payload [10:0] $end
$var reg 32 A CRC32_crc [31:0] $end
$var reg 32 B state $end
$var reg 32 C next_state $end
$scope module CRC32_tx $end
$var wire 1 . clk $end
$var wire 1 / reset $end
$var wire 8 6 data_in [7:0] $end
$var wire 1 7 valid $end
$var wire 32 D crc_out [31:0] $end
$var reg 32 E crc [31:0] $end
$var reg 32 F crc_prev [31:0] $end
$var reg 32 G crc_next [31:0] $end
$var reg 4 H debug [3:0] $end
$scope begin Block41_3 $end
$var reg 32 I i [31:0] $end
$scope begin Block43_4 $end
$var reg 32 J j [31:0] $end
$upscope $end
$upscope $end
$upscope $end
$upscope $end
$scope task clk_gen $end
$upscope $end
$scope task apply_reset $end
$upscope $end
$upscope $end
$enddefinitions $end

#0
$dumpvars
0!
0"
0#
bx $
bx %
bx &
bx '
bx (
bx )
x*
x+
x,
x-
0.
0/
00
bx 1
bx 2
bx 3
bx 4
bx 5
bx 6
x7
bx 8
bx 9
bx :
x;
bx <
bx =
bx >
bx ?
bx @
bx A
b0 B
b0 C
bx D
bx E
bx F
bx G
bx H
b1000 I
b100000 J
$end

#5000
1!
1"
1.
1/
b0 8
b0 9
b0 :
0;
b0 <
b0 =
b0 >
b0 ?
b11111111111111111111111111111111 A
b11111111111111111111111111111111 D
b11111111111111111111111111111111 E
bx F
bx G
b1000 I
b100000 J

#10000
0!
0.

#15000
1!
0"
b0 )
0+
0-
1.
0/
07

#20000
0!
0.

#25000
1!
1.

#30000
0!
0.

#35000
1!
1.

#40000
0!
0.

#45000
1!
1.

#50000
0!
0.

#55000
1!
1.

#60000
0!
0.

#65000
1!
1.

#70000
0!
0.

#75000
1!
1.

#80000
0!
0.

#85000
1!
1.

#90000
0!
0.

#95000
1!
b1101010011010100110101001101010011010100110101 $
b100001101000011010000110100001101000011010000110 %
b10011100100111 &
bx0100001001000010010000100100001001000010 '
b101 (
1.
b1101010011010100110101001101010011010100110101 1
b100001101000011010000110100001101000011010000110 2
b10011100100111 3
bx0100001001000010010000100100001001000010 4
b101 5

#100000
0!
0.

#105000
1!
1#
1.
10
b1 C

#110000
0!
0.

#115000
1!
b1010101 )
1*
1.
b1 B

#120000
0!
0.

#125000
1!
1.
b1 8

#130000
0!
0.

#135000
1!
1.
b10 8

#140000
0!
0.

#145000
1!
1.
b11 8

#150000
0!
0.

#155000
1!
1.
b100 8

#160000
0!
0.

#165000
1!
1.
b101 8

#170000
0!
0.

#175000
1!
1.
b110 8
b10 C

#180000
0!
0.

#185000
1!
b10101011 )
1.
b111 8
b10 B
b11 C

#190000
0!
0.

#195000
1!
b110101 )
1,
1-
1.
b110101 6
17
b11 B
b10001101111111111011100101001111 F
b10001101111111111011100101001111 G
b1000 I
b100000 J

#200000
0!
0.

#205000
1!
1.
b1 9
b10001101111111111011100101001111 A
b10001101111111111011100101001111 D
b10001101111111111011100101001111 E
b1100100100011110010111111000110 F
b1100100100011110010111111000110 G
b1000 I
b100000 J

#210000
0!
0.

#215000
1!
1.
b10 9
b1100100100011110010111111000110 A
b1100100100011110010111111000110 D
b1100100100011110010111111000110 E
b11110011011110010111000010110000 F
b11110011011110010111000010110000 G
b1000 I
b100000 J

#220000
0!
0.

#225000
1!
1.
b11 9
b11110011011110010111000010110000 A
b11110011011110010111000010110000 D
b11110011011110010111000010110000 E
b111110011111000110110100101011 F
b111110011111000110110100101011 G
b1000 I
b100000 J

#230000
0!
0.

#235000
1!
1.
b100 9
b111110011111000110110100101011 A
b111110011111000110110100101011 D
b111110011111000110110100101011 E
b1010111001001101110000001100001 F
b1010111001001101110000001100001 G
b1000 I
b100000 J

#240000
0!
0.

#245000
1!
1.
b101 9
b1010111001001101110000001100001 A
b100 C
b1010111001001101110000001100001 D
b1010111001001101110000001100001 E
b10000011110001111001110011111001 F
b10000011110001111001110011111001 G
b1000 I
b100000 J

#250000
0!
0.

#255000
1!
b10000110 )
0,
1.
b10000110 6
b110 9
b10000011110001111001110011111001 A
b100 B
b100 C
b10000011110001111001110011111001 D
b10000011110001111001110011111001 E
b11010000010110011001001001101011 F
b11010000010110011001001001101011 G
b1000 I
b100000 J

#260000
0!
0.

#265000
1!
1.
b1 :
b11010000010110011001001001101011 A
b11010000010110011001001001101011 D
b11010000010110011001001001101011 E
b111011100000111000110110110101 F
b111011100000111000110110110101 G
b1000 I
b100000 J

#270000
0!
0.

#275000
1!
1.
b10 :
b111011100000111000110110110101 A
b111011100000111000110110110101 D
b111011100000111000110110110101 E
b1111011111101011111010101101 F
b1111011111101011111010101101 G
b1000 I
b100000 J

#280000
0!
0.

#285000
1!
1.
b11 :
b1111011111101011111010101101 A
b1111011111101011111010101101 D
b1111011111101011111010101101 E
b110101011110111011110111100001 F
b110101011110111011110111100001 G
b1000 I
b100000 J

#290000
0!
0.

#295000
1!
1.
b100 :
b110101011110111011110111100001 A
b110101011110111011110111100001 D
b110101011110111011110111100001 E
b11001011110000000100101010100111 F
b11001011110000000100101010100111 G
b1000 I
b100000 J

#300000
0!
0.

#305000
1!
1.
b101 :
b11001011110000000100101010100111 A
b101 C
b11001011110000000100101010100111 D
b11001011110000000100101010100111 E
b11000101000000010101000110100100 F
b11000101000000010101000110100100 G
b1000 I
b100000 J

#310000
0!
0.

#315000
1!
b100111 )
1,
1.
b100111 6
b110 :
b11000101000000010101000110100100 A
b101 B
b101 C
b11000101000000010101000110100100 D
b11000101000000010101000110100100 E
b11001101011110101011100100010111 F
b11001101011110101011100100010111 G
b1000 I
b100000 J

#320000
0!
0.

#325000
1!
1.
1;
b11001101011110101011100100010111 A
b111 C
b11001101011110101011100100010111 D
b11001101011110101011100100010111 E
b10010000100110101110011110101111 F
b10010000100110101110011110101111 G
b1000 I
b100000 J

#330000
0!
0.

#335000
1!
b1000010 )
0,
1.
b1000010 6
0;
b10010000100110101110011110101111 A
b111 B
b111 C
b10010000100110101110011110101111 D
b10010000100110101110011110101111 E
b10000010111111101101111110000111 F
b10000010111111101101111110000111 G
b1000 I
b100000 J

#340000
0!
0.

#345000
1!
1.
b1 <
b10000010111111101101111110000111 A
b10000010111111101101111110000111 D
b10000010111111101101111110000111 E
b10100011010101010001011110011001 F
b10100011010101010001011110011001 G
b1000 I
b100000 J

#350000
0!
0.

#355000
1!
1.
b10 <
b10100011010101010001011110011001 A
b10100011010101010001011110011001 D
b10100011010101010001011110011001 E
b10010100011111111010001011001110 F
b10010100011111111010001011001110 G
b1000 I
b100000 J

#360000
0!
0.

#365000
1!
1.
b11 <
b10010100011111111010001011001110 A
b10010100011111111010001011001110 D
b10010100011111111010001011001110 E
b1110100101111111100100001011011 F
b1110100101111111100100001011011 G
b1000 I
b100000 J

#370000
0!
0.

#375000
1!
1.
b100 <
b1110100101111111100100001011011 A
b1000 C
b1110100101111111100100001011011 D
b1110100101111111100100001011011 E
b1110001011111000111101100100010 F
b1110001011111000111101100100010 G
b1000 I
b100000 J

#380000
0!
0.

#385000
1!
b0 )
0,
1.
b0 6
b101 <
b1110001011111000111101100100010 A
b1000 B
b1000 C
b1110001011111000111101100100010 D
b1110001011111000111101100100010 E
b10011000000011100010001001010000 F
b10011000000011100010001001010000 G
b1000 I
b100000 J

#390000
0!
0.

#395000
1!
1.
b1 =
b10011000000011100010001001010000 A
b10011000000011100010001001010000 D
b10011000000011100010001001010000 E
b1101001101111000011000100110 F
b1101001101111000011000100110 G
b1000 I
b100000 J

#400000
0!
0.

#405000
1!
1.
b10 =
b1101001101111000011000100110 A
b1101001101111000011000100110 D
b1101001101111000011000100110 E
b110010010111010000011010011 F
b110010010111010000011010011 G
b1000 I
b100000 J

#410000
0!
0.

#415000
1!
1.
b11 =
b110010010111010000011010011 A
b110010010111010000011010011 D
b110010010111010000011010011 E
b1010001001001101001111010110010 F
b1010001001001101001111010110010 G
b1000 I
b100000 J

#420000
0!
0.

#425000
1!
1.
b100 =
b1010001001001101001111010110010 A
b1010001001001101001111010110010 D
b1010001001001101001111010110010 E
b1011010110010000000010010110000 F
b1011010110010000000010010110000 G
b1000 I
b100000 J

#430000
0!
0.

#435000
1!
1.
b101 =
b1011010110010000000010010110000 A
b1011010110010000000010010110000 D
b1011010110010000000010010110000 E
b10011111000110011100110111010001 F
b10011111000110011100110111010001 G
b1000 I
b100000 J

#440000
0!
0.

#445000
1!
1.
b110 =
b10011111000110011100110111010001 A
b10011111000110011100110111010001 D
b10011111000110011100110111010001 E
b100100111110101011100100011 F
b100100111110101011100100011 G
b1000 I
b100000 J

#450000
0!
0.

#455000
1!
1.
b111 =
b100100111110101011100100011 A
b100100111110101011100100011 D
b100100111110101011100100011 E
b10001100010100110101010111011100 F
b10001100010100110101010111011100 G
b1000 I
b100000 J

#460000
0!
0.

#465000
1!
1.
b1000 =
b10001100010100110101010111011100 A
b10001100010100110101010111011100 D
b10001100010100110101010111011100 E
b1111010101011010011110001010 F
b1111010101011010011110001010 G
b1000 I
b100000 J

#470000
0!
0.

#475000
1!
1.
b1001 =
b1111010101011010011110001010 A
b1111010101011010011110001010 D
b1111010101011010011110001010 E
b1101101111010000011011110111101 F
b1101101111010000011011110111101 G
b1000 I
b100000 J

#480000
0!
0.

#485000
1!
1.
b1010 =
b1101101111010000011011110111101 A
b1101101111010000011011110111101 D
b1101101111010000011011110111101 E
b1110101010111111111110101000100 F
b1110101010111111111110101000100 G
b1000 I
b100000 J

#490000
0!
0.

#495000
1!
1.
b1011 =
b1110101010111111111110101000100 A
b1110101010111111111110101000100 D
b1110101010111111111110101000100 E
b10101000100011000011001010001100 F
b10101000100011000011001010001100 G
b1000 I
b100000 J

#500000
0!
0.

#505000
1!
1.
b1100 =
b10101000100011000011001010001100 A
b10101000100011000011001010001100 D
b10101000100011000011001010001100 E
b1011011000101010011011110110110 F
b1011011000101010011011110110110 G
b1000 I
b100000 J

#510000
0!
0.

#515000
1!
1.
b1101 =
b1011011000101010011011110110110 A
b1011011000101010011011110110110 D
b1011011000101010011011110110110 E
b1000110111010111101011001100110 F
b1000110111010111101011001100110 G
b1000 I
b100000 J

#520000
0!
0.

#525000
1!
1.
b1110 =
b1000110111010111101011001100110 A
b1000110111010111101011001100110 D
b1000110111010111101011001100110 E
b11000101110101100101101111000101 F
b11000101110101100101101111000101 G
b1000 I
b100000 J

#530000
0!
0.

#535000
1!
1.
b1111 =
b11000101110101100101101111000101 A
b11000101110101100101101111000101 D
b11000101110101100101101111000101 E
b10011100000101000011111011110010 F
b10011100000101000011111011110010 G
b1000 I
b100000 J

#540000
0!
0.

#545000
1!
1.
b10000 =
b10011100000101000011111011110010 A
b10011100000101000011111011110010 D
b10011100000101000011111011110010 E
b100001011110101001011111010 F
b100001011110101001011111010 G
b1000 I
b100000 J

#550000
0!
0.

#555000
1!
1.
b10001 =
b100001011110101001011111010 A
b100001011110101001011111010 D
b100001011110101001011111010 E
b111100010101101000110011011100 F
b111100010101101000110011011100 G
b1000 I
b100000 J

#560000
0!
0.

#565000
1!
1.
b10010 =
b111100010101101000110011011100 A
b111100010101101000110011011100 D
b111100010101101000110011011100 E
b10110111101100100010101011110100 F
b10110111101100100010101011110100 G
b1000 I
b100000 J

#570000
0!
0.

#575000
1!
1.
b10011 =
b10110111101100100010101011110100 A
b10110111101100100010101011110100 D
b10110111101100100010101011110100 E
b10001010100110010100101111011 F
b10001010100110010100101111011 G
b1000 I
b100000 J

#580000
0!
0.

#585000
1!
1.
b10100 =
b10001010100110010100101111011 A
b10001010100110010100101111011 D
b10001010100110010100101111011 E
b11011111110011011110111000111 F
b11011111110011011110111000111 G
b1000 I
b100000 J

#590000
0!
0.

#595000
1!
1.
b10101 =
b11011111110011011110111000111 A
b11011111110011011110111000111 D
b11011111110011011110111000111 E
b10011110111001111101011100010001 F
b10011110111001111101011100010001 G
b1000 I
b100000 J

#600000
0!
0.

#605000
1!
1.
b10110 =
b10011110111001111101011100010001 A
b10011110111001111101011100010001 D
b10011110111001111101011100010001 E
b11111110010001001000101010010100 F
b11111110010001001000101010010100 G
b1000 I
b100000 J

#610000
0!
0.

#615000
1!
1.
b10111 =
b11111110010001001000101010010100 A
b11111110010001001000101010010100 D
b11111110010001001000101010010100 E
b11110001101111001100100100000011 F
b11110001101111001100100100000011 G
b1000 I
b100000 J

#620000
0!
0.

#625000
1!
1.
b11000 =
b11110001101111001100100100000011 A
b11110001101111001100100100000011 D
b11110001101111001100100100000011 E
b110001101100001110001110111110 F
b110001101100001110001110111110 G
b1000 I
b100000 J

#630000
0!
0.

#635000
1!
1.
b11001 =
b110001101100001110001110111110 A
b110001101100001110001110111110 D
b110001101100001110001110111110 E
b1100000000100001100111000100111 F
b1100000000100001100111000100111 G
b1000 I
b100000 J

#640000
0!
0.

#645000
1!
1.
b11010 =
b1100000000100001100111000100111 A
b1100000000100001100111000100111 D
b1100000000100001100111000100111 E
b10111100011010111110000110010111 F
b10111100011010111110000110010111 G
b1000 I
b100000 J

#650000
0!
0.

#655000
1!
1.
b11011 =
b10111100011010111110000110010111 A
b10111100011010111110000110010111 D
b10111100011010111110000110010111 E
b11100011110100111000000100011010 F
b11100011110100111000000100011010 G
b1000 I
b100000 J

#660000
0!
0.

#665000
1!
1.
b11100 =
b11100011110100111000000100011010 A
b11100011110100111000000100011010 D
b11100011110100111000000100011010 E
b11011011010110001101010100000 F
b11011011010110001101010100000 G
b1000 I
b100000 J

#670000
0!
0.

#675000
1!
1.
b11101 =
b11011011010110001101010100000 A
b11011011010110001101010100000 D
b11011011010110001101010100000 E
b1100010000001011000000010001 F
b1100010000001011000000010001 G
b1000 I
b100000 J

#680000
0!
0.

#685000
1!
1.
b11110 =
b1100010000001011000000010001 A
b1100010000001011000000010001 D
b1100010000001011000000010001 E
b1110101101111001000101001100100 F
b1110101101111001000101001100100 G
b1000 I
b100000 J

#690000
0!
0.

#695000
1!
1.
b11111 =
b1110101101111001000101001100100 A
b1110101101111001000101001100100 D
b1110101101111001000101001100100 E
b1001011111110110001001010001100 F
b1001011111110110001001010001100 G
b1000 I
b100000 J

#700000
0!
0.

#705000
1!
1.
b100000 =
b1001011111110110001001010001100 A
b1001011111110110001001010001100 D
b1001011111110110001001010001100 E
b11100100110111110011011100010110 F
b11100100110111110011011100010110 G
b1000 I
b100000 J

#710000
0!
0.

#715000
1!
1.
b100001 =
b11100100110111110011011100010110 A
b11100100110111110011011100010110 D
b11100100110111110011011100010110 E
b1001100110100100011010100101 F
b1001100110100100011010100101 G
b1000 I
b100000 J

#720000
0!
0.

#725000
1!
1.
b100010 =
b1001100110100100011010100101 A
b1001100110100100011010100101 D
b1001100110100100011010100101 E
b10111000100011110101010100001111 F
b10111000100011110101010100001111 G
b1000 I
b100000 J

#730000
0!
0.

#735000
1!
1.
b100011 =
b10111000100011110101010100001111 A
b10111000100011110101010100001111 D
b10111000100011110101010100001111 E
b10100011000110110111111000110 F
b10100011000110110111111000110 G
b1000 I
b100000 J

#740000
0!
0.

#745000
1!
1.
b100100 =
b10100011000110110111111000110 A
b10100011000110110111111000110 D
b10100011000110110111111000110 E
b111100011110100110101110101100 F
b111100011110100110101110101100 G
b1000 I
b100000 J

#750000
0!
0.

#755000
1!
1.
b100101 =
b111100011110100110101110101100 A
b111100011110100110101110101100 D
b111100011110100110101110101100 E
b10011011010101010101101011110100 F
b10011011010101010101101011110100 G
b1000 I
b100000 J

#760000
0!
0.

#765000
1!
1.
b100110 =
b10011011010101010101101011110100 A
b10011011010101010101101011110100 D
b10011011010101010101101011110100 E
b1011011000011000000010011111111 F
b1011011000011000000010011111111 G
b1000 I
b100000 J

#770000
0!
0.

#775000
1!
1.
b100111 =
b1011011000011000000010011111111 A
b1011011000011000000010011111111 D
b1011011000011000000010011111111 E
b1011111110110001001111101100110 F
b1011111110110001001111101100110 G
b1000 I
b100000 J

#780000
0!
0.

#785000
1!
1.
b101000 =
b1011111110110001001111101100110 A
b1011111110110001001111101100110 D
b1011111110110001001111101100110 E
b10011000010001110111000010111010 F
b10011000010001110111000010111010 G
b1000 I
b100000 J

#790000
0!
0.

#795000
1!
1.
b101001 =
b10011000010001110111000010111010 A
b10011000010001110111000010111010 D
b10011000010001110111000010111010 E
b1000100011001010110110000100110 F
b1000100011001010110110000100110 G
b1000 I
b100000 J

#800000
0!
0.

#805000
1!
1.
b101010 =
b1000100011001010110110000100110 A
b1000100011001010110110000100110 D
b1000100011001010110110000100110 E
b1000010111011100010000010101011 F
b1000010111011100010000010101011 G
b1000 I
b100000 J

#810000
0!
0.

#815000
1!
1.
b101011 =
b1000010111011100010000010101011 A
b1000010111011100010000010101011 D
b1000010111011100010000010101011 E
b11010011001001001110000000011001 F
b11010011001001001110000000011001 G
b1000 I
b100000 J

#820000
0!
0.

#825000
1!
1.
b101100 =
b11010011001001001110000000011001 A
b11010011001001001110000000011001 D
b11010011001001001110000000011001 E
b111000001110000111010000110000 F
b111000001110000111010000110000 G
b1000 I
b100000 J

#830000
0!
0.

#835000
1!
1.
b101101 =
b111000001110000111010000110000 A
b1001 C
b111000001110000111010000110000 D
b111000001110000111010000110000 E
b11001010010011101011000000101000 F
b11001010010011101011000000101000 G
b1000 I
b100000 J

#840000
0!
0.

#845000
1!
b11001010 )
0-
1.
07
b101110 =
b11001010010011101011000000101000 A
b1001 B
b11001010010011101011000000101000 D
b11001010010011101011000000101000 E
b111100101100000110111001001111 F
b111100101100000110111001001111 G
b1000 I
b100000 J

#850000
0!
0.

#855000
1!
b1001110 )
1.
b1 >

#860000
0!
0.

#865000
1!
b10110000 )
1.
b10 >

#870000
0!
0.

#875000
1!
b101000 )
1.
b11 >
b1010 C

#880000
0!
0.

#885000
1!
b0 )
0*
1.
b0 >
b1010 B
b1010 C

#890000
0!
0.

#895000
1!
1.
b1 ?

#900000
0!
0.

#905000
1!
1.
b10 ?

#910000
0!
0.

#915000
1!
1.
b11 ?

#920000
0!
0.

#925000
1!
1.
b100 ?

#930000
0!
0.

#935000
1!
1.
b101 ?

#940000
0!
0.

#945000
1!
1.
b110 ?

#950000
0!
0.

#955000
1!
1.
b111 ?

#960000
0!
0.

#965000
1!
1.
b1000 ?

#970000
0!
0.

#975000
1!
1.
b1001 ?

#980000
0!
0.

#985000
1!
1.
b1010 ?

#990000
0!
0.

#995000
1!
1+
1.
b1011 ?
b0 C

#1000000
0!
0.

#1005000
1!
1.
b1100 ?
b0 B
b1 C

#1010000
0!
0.

#1015000
1!
b1010101 )
1*
0+
1.
b0 8
b1 B

#1020000
0!
0.

#1025000
1!
1.
b1 8

#1030000
0!
0.

#1035000
1!
1.
b10 8

#1040000
0!
0.

#1045000
1!
1.
b11 8

#1050000
0!
0.

#1055000
1!
1.
b100 8

#1060000
0!
0.

#1065000
1!
1.
b101 8

#1070000
0!
0.

#1075000
1!
1.
b110 8
b10 C

#1080000
0!
0.

#1085000
1!
b10101011 )
1.
b111 8
b10 B
b11 C

#1090000
0!
0.

#1095000
1!
b110101 )
1,
1-
1.
b110101 6
17
b0 9
b11 B
b11111111010001110110100010110100 F
b11111111010001110110100010110100 G
b1000 I
b100000 J

#1100000
0!
0.

#1105000
1!
1.
b1 9
b11111111010001110110100010110100 A
b11111111010001110110100010110100 D
b11111111010001110110100010110100 E
b110101011010001111001001001111 F
b110101011010001111001001001111 G
b1000 I
b100000 J

#1110000
0!
0.

#1115000
1!
1.
b10 9
b110101011010001111001001001111 A
b110101011010001111001001001111 D
b110101011010001111001001001111 E
b1101000111100100100111100000000 F
b1101000111100100100111100000000 G
b1000 I
b100000 J

#1120000
0!
0.

#1125000
1!
1.
b11 9
b1101000111100100100111100000000 A
b1101000111100100100111100000000 D
b1101000111100100100111100000000 E
b10111011000101010010110111010100 F
b10111011000101010010110111010100 G
b1000 I
b100000 J

#1130000
0!
0.

#1135000
1!
1.
b100 9
b10111011000101010010110111010100 A
b10111011000101010010110111010100 D
b10111011000101010010110111010100 E
b1000000101011111001010011100100 F
b1000000101011111001010011100100 G
b1000 I
b100000 J

#1140000
0!
0.

#1145000
1!
1.
b101 9
b1000000101011111001010011100100 A
b100 C
b1000000101011111001010011100100 D
b1000000101011111001010011100100 E
b1011000111001011001001010001100 F
b1011000111001011001001010001100 G
b1000 I
b100000 J

#1150000
0!
0.

#1155000
1!
b10000110 )
0,
1.
b10000110 6
b110 9
b0 :
b1011000111001011001001010001100 A
b100 B
b100 C
b1011000111001011001001010001100 D
b1011000111001011001001010001100 E
b11001000100001110110011111100011 F
b11001000100001110110011111100011 G
b1000 I
b100000 J

#1160000
0!
0.

#1165000
1!
1.
b1 :
b11001000100001110110011111100011 A
b11001000100001110110011111100011 D
b11001000100001110110011111100011 E
b10001111011011110011001101111101 F
b10001111011011110011001101111101 G
b1000 I
b100000 J

#1170000
0!
0.

#1175000
1!
1.
b10 :
b10001111011011110011001101111101 A
b10001111011011110011001101111101 D
b10001111011011110011001101111101 E
b1001101111110101000110100001111 F
b1001101111110101000110100001111 G
b1000 I
b100000 J

#1180000
0!
0.

#1185000
1!
1.
b11 :
b1001101111110101000110100001111 A
b1001101111110101000110100001111 D
b1001101111110101000110100001111 E
b10001100010011000101010011111000 F
b10001100010011000101010011111000 G
b1000 I
b100000 J

#1190000
0!
0.

#1195000
1!
1.
b100 :
b10001100010011000101010011111000 A
b10001100010011000101010011111000 D
b10001100010011000101010011111000 E
b1100011110111100010111011010110 F
b1100011110111100010111011010110 G
b1000 I
b100000 J

#1200000
0!
0.

#1205000
1!
1.
b101 :
b1100011110111100010111011010110 A
b101 C
b1100011110111100010111011010110 D
b1100011110111100010111011010110 E
b1100010000101001101100010010 F
b1100010000101001101100010010 G
b1000 I
b100000 J

#1210000
0!
0.

#1215000
1!
b100111 )
1,
1.
b100111 6
b110 :
b1100010000101001101100010010 A
b101 B
b101 C
b1100010000101001101100010010 D
b1100010000101001101100010010 E
b11110001111100110110111110000001 F
b11110001111100110110111110000001 G
b1000 I
b100000 J

#1220000
0!
0.

#1225000
1!
1.
1;
b11110001111100110110111110000001 A
b111 C
b11110001111100110110111110000001 D
b11110001111100110110111110000001 E
b11111000011100101000011101011011 F
b11111000011100101000011101011011 G
b1000 I
b100000 J

#1230000
0!
0.

#1235000
1!
b1000010 )
0,
1.
b1000010 6
0;
b0 <
b11111000011100101000011101011011 A
b111 B
b111 C
b11111000011100101000011101011011 D
b11111000011100101000011101011011 E
b11100000001100110000000010101000 F
b11100000001100110000000010101000 G
b1000 I
b100000 J

#1240000
0!
0.

#1245000
1!
1.
b1 <
b11100000001100110000000010101000 A
b11100000001100110000000010101000 D
b11100000001100110000000010101000 E
b11001011101011011100010101100000 F
b11001011101011011100010101100000 G
b1000 I
b100000 J

#1250000
0!
0.

#1255000
1!
1.
b10 <
b11001011101011011100010101100000 A
b11001011101011011100010101100000 D
b11001011101011011100010101100000 E
b11100110000000000111000011100001 F
b11100110000000000111000011100001 G
b1000 I
b100000 J

#1260000
0!
0.

#1265000
1!
1.
b11 <
b11100110000000000111000011100001 A
b11100110000000000111000011100001 D
b11100110000000000111000011100001 E
b11100010010110111100000111010010 F
b11100010010110111100000111010010 G
b1000 I
b100000 J

#1270000
0!
0.

#1275000
1!
1.
b100 <
b11100010010110111100000111010010 A
b1000 C
b11100010010110111100000111010010 D
b11100010010110111100000111010010 E
b10101010111011101000010000001110 F
b10101010111011101000010000001110 G
b1000 I
b100000 J

#1280000
0!
0.

#1285000
1!
b0 )
0,
1.
b0 6
b101 <
b0 =
b10101010111011101000010000001110 A
b1000 B
b1000 C
b10101010111011101000010000001110 D
b10101010111011101000010000001110 E
b110000001000011000111011011000 F
b110000001000011000111011011000 G
b1000 I
b100000 J

#1290000
0!
0.

#1295000
1!
1.
b1 =
b110000001000011000111011011000 A
b110000001000011000111011011000 D
b110000001000011000111011011000 E
b11110101101111001011010110010000 F
b11110101101111001011010110010000 G
b1000 I
b100000 J

#1300000
0!
0.

#1305000
1!
1.
b10 =
b11110101101111001011010110010000 A
b11110101101111001011010110010000 D
b11110101101111001011010110010000 E
b100010110010000000011001100010 F
b100010110010000000011001100010 G
b1000 I
b100000 J

#1310000
0!
0.

#1315000
1!
1.
b11 =
b100010110010000000011001100010 A
b100010110010000000011001100010 D
b100010110010000000011001100010 E
b1011001101001111110111110001110 F
b1011001101001111110111110001110 G
b1000 I
b100000 J

#1320000
0!
0.

#1325000
1!
1.
b100 =
b1011001101001111110111110001110 A
b1011001101001111110111110001110 D
b1011001101001111110111110001110 E
b11111101101100011101010100001000 F
b11111101101100011101010100001000 G
b1000 I
b100000 J

#1330000
0!
0.

#1335000
1!
1.
b101 =
b11111101101100011101010100001000 A
b11111101101100011101010100001000 D
b11111101101100011101010100001000 E
b1001101000000111001111011010 F
b1001101000000111001111011010 G
b1000 I
b100000 J

#1340000
0!
0.

#1345000
1!
1.
b110 =
b1001101000000111001111011010 A
b1001101000000111001111011010 D
b1001101000000111001111011010 E
b10000010101110100010101000001111 F
b10000010101110100010101000001111 G
b1000 I
b100000 J

#1350000
0!
0.

#1355000
1!
1.
b111 =
b10000010101110100010101000001111 A
b10000010101110100010101000001111 D
b10000010101110100010101000001111 E
b11011010101001001101010010000000 F
b11011010101001001101010010000000 G
b1000 I
b100000 J

#1360000
0!
0.

#1365000
1!
1.
b1000 =
b11011010101001001101010010000000 A
b11011010101001001101010010000000 D
b11011010101001001101010010000000 E
b10011010110001010001110100111111 F
b10011010110001010001110100111111 G
b1000 I
b100000 J

#1370000
0!
0.

#1375000
1!
1.
b1001 =
b10011010110001010001110100111111 A
b10011010110001010001110100111111 D
b10011010110001010001110100111111 E
b11001111100010101101001001001000 F
b11001111100010101101001001001000 G
b1000 I
b100000 J

#1380000
0!
0.

#1385000
1!
1.
b1010 =
b11001111100010101101001001001000 A
b11001111100010101101001001001000 D
b11001111100010101101001001001000 E
b11101111000101110110010100100100 F
b11101111000101110110010100100100 G
b1000 I
b100000 J

#1390000
0!
0.

#1395000
1!
1.
b1011 =
b11101111000101110110010100100100 A
b11101111000101110110010100100100 D
b11101111000101110110010100100100 E
b11101010100000111011111111000100 F
b11101010100000111011111111000100 G
b1000 I
b100000 J

#1400000
0!
0.

#1405000
1!
1.
b1100 =
b11101010100000111011111111000100 A
b11101010100000111011111111000100 D
b11101010100000111011111111000100 E
b1101001100111000011010010101111 F
b1101001100111000011010010101111 G
b1000 I
b100000 J

#1410000
0!
0.

#1415000
1!
1.
b1101 =
b1101001100111000011010010101111 A
b1101001100111000011010010101111 D
b1101001100111000011010010101111 E
b10010010110001001100110011000 F
b10010010110001001100110011000 G
b1000 I
b100000 J

#1420000
0!
0.

#1425000
1!
1.
b1110 =
b10010010110001001100110011000 A
b10010010110001001100110011000 D
b10010010110001001100110011000 E
b11101000010100111100000011110 F
b11101000010100111100000011110 G
b1000 I
b100000 J

#1430000
0!
0.

#1435000
1!
1.
b1111 =
b11101000010100111100000011110 A
b11101000010100111100000011110 D
b11101000010100111100000011110 E
b1110111101001000100001110100011 F
b1110111101001000100001110100011 G
b1000 I
b100000 J

#1440000
0!
0.

#1445000
1!
1.
b10000 =
b1110111101001000100001110100011 A
b1110111101001000100001110100011 D
b1110111101001000100001110100011 E
b1011010101100001110111011100010 F
b1011010101100001110111011100010 G
b1000 I
b100000 J

#1450000
0!
0.

#1455000
1!
1.
b10001 =
b1011010101100001110111011100010 A
b1011010101100001110111011100010 D
b1011010101100001110111011100010 E
b11100111111100111001111111010001 F
b11100111111100111001111111010001 G
b1000 I
b100000 J

#1460000
0!
0.

#1465000
1!
1.
b10010 =
b11100111111100111001111111010001 A
b11100111111100111001111111010001 D
b11100111111100111001111111010001 E
b101000011100011010011101111100 F
b101000011100011010011101111100 G
b1000 I
b100000 J

#1470000
0!
0.

#1475000
1!
1.
b10011 =
b101000011100011010011101111100 A
b101000011100011010011101111100 D
b101000011100011010011101111100 E
b11001111100011000010011101011000 F
b11001111100011000010011101011000 G
b1000 I
b100000 J

#1480000
0!
0.

#1485000
1!
1.
b10100 =
b11001111100011000010011101011000 A
b11001111100011000010011101011000 D
b11001111100011000010011101011000 E
b11101001111000100111010100100100 F
b11101001111000100111010100100100 G
b1000 I
b100000 J

#1490000
0!
0.

