code/frame_tx/sim/Ethernet_frame.vcd
$date
   Tue Mar 24 11:04:01 2026
$end

$version
  2024.2.0
  $dumpfile ("Ethernet_frame.vcd") 
$end

$timescale
  1ps
$end

$scope module Ethernet_frame_gen_tb $end
$var reg 1 ! clk $end
$var reg 1 " reset $end
$var reg 1 # start $end
$var reg 48 $ MAC_dest [47:0] $end
$var reg 48 % MAC_source [47:0] $end
$var reg 16 & ethernet_type [15:0] $end
$var reg 12000 ' payload [11999:0] $end
$var reg 11 ( payload_length [10:0] $end
$var reg 8 ) tb_tx_data [7:0] $end
$var reg 1 * tb_tx_valid $end
$var reg 1 + tb_frame_done $end
$scope module dut $end
$var wire 1 , clk $end
$var wire 1 - reset $end
$var wire 1 . start $end
$var wire 48 / MAC_dest_addr [47:0] $end
$var wire 48 0 MAC_source_addr [47:0] $end
$var wire 16 1 ethernet_type [15:0] $end
$var wire 12000 2 payload [11999:0] $end
$var wire 11 3 payload_length [10:0] $end
$var reg 8 ) tx_data [7:0] $end
$var reg 1 * tx_valid $end
$var reg 1 + frame_done $end
$var reg 3 4 cnt_preamble [2:0] $end
$var reg 3 5 cnt_MAC_dest [2:0] $end
$var reg 3 6 cnt_MAC_source [2:0] $end
$var reg 1 7 cnt_ethernet_type $end
$var reg 11 8 cnt_payload [10:0] $end
$var reg 6 9 cnt_pad [5:0] $end
$var reg 2 : cnt_fcs [1:0] $end
$var reg 4 ; cnt_ipg [3:0] $end
$var reg 11 < MAX_payload [10:0] $end
$var reg 32 = CRC32_crc [31:0] $end
$var reg 8 > CRC32_data [7:0] $end
$var reg 1 ? CRC32_valid $end
$var reg 32 @ state $end
$var reg 32 A next_state $end
$scope module CRC32_tx $end
$var wire 1 , clk $end
$var wire 1 - reset $end
$var wire 8 B data_in [7:0] $end
$var wire 1 C valid $end
$var wire 32 D crc_out [31:0] $end
$var reg 32 E crc [31:0] $end
$var reg 32 F crc_prev [31:0] $end
$var reg 32 G crc_next [31:0] $end
$var reg 4 H debug [3:0] $end
$scope begin Block41_3 $end
$var reg 32 I i [31:0] $end
$scope begin Block43_4 $end
$var reg 32 J j [31:0] $end
$upscope $end
$upscope $end
$upscope $end
$upscope $end
$scope task clk_gen $end
$upscope $end
$scope task apply_reset $end
$upscope $end
$upscope $end
$enddefinitions $end

#0
$dumpvars
0!
0"
0#
bx $
bx %
bx &
bx '
bx (
b0 )
x*
0+
0,
0-
0.
bx /
bx 0
bx 1
bx 2
bx 3
bx 4
bx 5
bx 6
x7
bx 8
bx 9
bx :
bx ;
bx <
bx =
bx >
0?
b0 @
b0 A
bx B
0C
bx D
bx E
bx F
bx G
bx H
b1000 I
b100000 J
$end

#5000
1!
1"
1,
1-
b0 4
b0 5
b0 6
07
b0 8
b0 9
b0 :
b0 ;
b11111111111111111111111111111111 =
b11111111111111111111111111111111 D
b11111111111111111111111111111111 E
bx F
bx G
b1000 I
b100000 J

#10000
0!
0,

#15000
1!
0"
1,
0-

#20000
0!
0,

#25000
1!
1,

#30000
0!
0,

#35000
1!
1,

#40000
0!
0,

#45000
1!
1,

#50000
0!
0,

#55000
1!
1,

#60000
0!
0,

#65000
1!
1,

#70000
0!
0,

#75000
1!
1,

#80000
0!
0,

#85000
1!
1,

#90000
0!
0,

#95000
1!
b1101010011011000110111001110000011100101000000 $
b10100000101000101010010010100110101010001010101 %
b101011001010111 &
bx0110000001100001011000100110001101100100 '
b101 (
1,
b1101010011011000110111001110000011100101000000 /
b10100000101000101010010010100110101010001010101 0
b101011001010111 1
bx0110000001100001011000100110001101100100 2
b101 3

#100000
0!
0,

#105000
1!
1#
1,
1.
b1 A

#110000
0!
0,

#115000
1!
b1010101 )
1*
1,
b1 @

#120000
0!
0,

#125000
1!
1,
b1 4

#130000
0!
0,

#135000
1!
1,
b10 4

#140000
0!
0,

#145000
1!
1,
b11 4

#150000
0!
0,

#155000
1!
1,
b100 4

#160000
0!
0,

#165000
1!
1,
b101 4

#170000
0!
0,

#175000
1!
1,
b110 4
b10 A

#180000
0!
0,

#185000
1!
b10101011 )
1,
b111 4
b10 @
b11 A

#190000
0!
0,

#195000
1!
b110101 )
1,
b110101 >
1?
b11 @
b110101 B
1C
b10001101111111111011100101001111 F
b10001101111111111011100101001111 G
b1000 I
b100000 J

#200000
0!
0,

#205000
1!
b110110 )
1,
b1 5
b10001101111111111011100101001111 =
b110110 >
b110110 B
b10001101111111111011100101001111 D
b10001101111111111011100101001111 E
b1101001110011000000100100011111 F
b1101001110011000000100100011111 G
b1000 I
b100000 J

#210000
0!
0,

#215000
1!
b110111 )
1,
b10 5
b1101001110011000000100100011111 =
b110111 >
b110111 B
b1101001110011000000100100011111 D
b1101001110011000000100100011111 E
b10001000000100000001010000001101 F
b10001000000100000001010000001101 G
b1000 I
b100000 J

#220000
0!
0,

#225000
1!
b111000 )
1,
b11 5
b10001000000100000001010000001101 =
b111000 >
b111000 B
b10001000000100000001010000001101 D
b10001000000100000001010000001101 E
b10101101001010101000000001111110 F
b10101101001010101000000001111110 G
b1000 I
b100000 J

#230000
0!
0,

#235000
1!
b111001 )
1,
b100 5
b10101101001010101000000001111110 =
b111001 >
b111001 B
b10101101001010101000000001111110 D
b10101101001010101000000001111110 E
b11100100110010011001101000010 F
b11100100110010011001101000010 G
b1000 I
b100000 J

#240000
0!
0,

#245000
1!
b1000000 )
1,
b101 5
b11100100110010011001101000010 =
b1000000 >
b100 A
b1000000 B
b11100100110010011001101000010 D
b11100100110010011001101000010 E
b11010100101010000111001001100011 F
b11010100101010000111001001100011 G
b1000 I
b100000 J

#250000
0!
0,

#255000
1!
b1010000 )
1,
b110 5
b11010100101010000111001001100011 =
b1010000 >
b100 @
b100 A
b1010000 B
b11010100101010000111001001100011 D
b11010100101010000111001001100011 E
b11010010011110101111010100110010 F
b11010010011110101111010100110010 G
b1000 I
b100000 J

#260000
0!
0,

#265000
1!
b1010001 )
1,
b1 6
b11010010011110101111010100110010 =
b1010001 >
b1010001 B
b11010010011110101111010100110010 D
b11010010011110101111010100110010 E
b11110101110101111010000110111 F
b11110101110101111010000110111 G
b1000 I
b100000 J

#270000
0!
0,

#275000
1!
b1010010 )
1,
b10 6
b11110101110101111010000110111 =
b1010010 >
b1010010 B
b11110101110101111010000110111 D
b11110101110101111010000110111 E
b10111011011111101101110000010011 F
b10111011011111101101110000010011 G
b1000 I
b100000 J

#280000
0!
0,

#285000
1!
b1010011 )
1,
b11 6
b10111011011111101101110000010011 =
b1010011 >
b1010011 B
b10111011011111101101110000010011 D
b10111011011111101101110000010011 E
b10011101011111011101100011000001 F
b10011101011111011101100011000001 G
b1000 I
b100000 J

#290000
0!
0,

#295000
1!
b1010100 )
1,
b100 6
b10011101011111011101100011000001 =
b1010100 >
b1010100 B
b10011101011111011101100011000001 D
b10011101011111011101100011000001 E
b10100110111010000110010110 F
b10100110111010000110010110 G
b1000 I
b100000 J

#300000
0!
0,

#305000
1!
b1010101 )
1,
b101 6
b10100110111010000110010110 =
b1010101 >
b101 A
b1010101 B
b10100110111010000110010110 D
b10100110111010000110010110 E
b11111101011100010110110100000010 F
b11111101011100010110110100000010 G
b1000 I
b100000 J

#310000
0!
0,

#315000
1!
b1010110 )
1,
b110 6
b11111101011100010110110100000010 =
b1010110 >
b101 @
b101 A
b1010110 B
b11111101011100010110110100000010 D
b11111101011100010110110100000010 E
b10101011000010011001111101101111 F
b10101011000010011001111101101111 G
b1000 I
b100000 J

#320000
0!
0,

#325000
1!
b1010111 )
1,
17
b10101011000010011001111101101111 =
b1010111 >
b111 A
b1010111 B
b10101011000010011001111101101111 D
b10101011000010011001111101101111 E
b10110101001010110000100101101101 F
b10110101001010110000100101101101 G
b1000 I
b100000 J

#330000
0!
0,

#335000
1!
b1100000 )
1,
07
b10110101001010110000100101101101 =
b1100000 >
b111 @
b111 A
b1100000 B
b10110101001010110000100101101101 D
b10110101001010110000100101101101 E
b101101010101110100110110000010 F
b101101010101110100110110000010 G
b1000 I
b100000 J

#340000
0!
0,

#345000
1!
b1100001 )
1,
b1 8
b101101010101110100110110000010 =
b1100001 >
b1100001 B
b101101010101110100110110000010 D
b101101010101110100110110000010 E
b1010110110001110110100100010011 F
b1010110110001110110100100010011 G
b1000 I
b100000 J

#350000
0!
0,

#355000
1!
b1100010 )
1,
b10 8
b1010110110001110110100100010011 =
b1100010 >
b1100010 B
b1010110110001110110100100010011 D
b1010110110001110110100100010011 E
b10111110000100001001100 F
b10111110000100001001100 G
b1000 I
b100000 J

#360000
0!
0,

#365000
1!
b1100011 )
1,
b11 8
b10111110000100001001100 =
b1100011 >
b1100011 B
b10111110000100001001100 D
b10111110000100001001100 E
b11111110111011101010110001001110 F
b11111110111011101010110001001110 G
b1000 I
b100000 J

#370000
0!
0,

#375000
1!
b1100100 )
1,
b100 8
b11111110111011101010110001001110 =
b1100100 >
b1001 A
b1100100 B
b11111110111011101010110001001110 D
b11111110111011101010110001001110 E
b11100100001110111010001101001000 F
b11100100001110111010001101001000 G
b1000 I
b100000 J

#380000
0!
0,

#385000
1!
b11100100 )
1,
b101 8
b11100100001110111010001101001000 =
bx >
0?
b1001 @
b1001 A
bx B
0C
b11100100001110111010001101001000 D
b11100100001110111010001101001000 E
bx F
bx G
b1000 I
b100000 J

#390000
0!
0,

#395000
1!
b111011 )
1,
b1 :

#400000
0!
0,

#405000
1!
b10100011 )
1,
b10 :

#410000
0!
0,

#415000
1!
b1001000 )
1,
b11 :
b1010 A

#420000
0!
0,

#425000
1!
b0 )
0*
1,
b0 :
b1010 @
b1010 A

#430000
0!
0,

#435000
1!
1,
b1 ;

#440000
0!
0,

#445000
1!
1,
b10 ;

#450000
0!
0,

#455000
1!
1,
b11 ;

#460000
0!
0,

#465000
1!
1,
b100 ;

#470000
0!
0,

#475000
1!
1,
b101 ;

#480000
0!
0,

#485000
1!
1,
b110 ;

#490000
0!
0,

#495000
1!
1,
b111 ;

#500000
0!
0,

#505000
1!
1,
b1000 ;

#510000
0!
0,

#515000
1!
1,
b1001 ;

#520000
0!
0,

#525000
1!
1,
b1010 ;

#530000
0!
0,

#535000
1!
1+
1,
b1011 ;
b0 A

#540000
0!
0,

#545000
1!
0+
1,
b1100 ;
b0 @
b1 A

#550000
0!
0,

#555000
1!
b1010101 )
1*
1,
b0 4
b1 @

#560000
0!
0,

#565000
1!
1,
b1 4

#570000
0!
0,

#575000
1!
1,
b10 4

#580000
0!
0,

#585000
1!
1,
b11 4

#590000
0!
0,

#595000
1!
1,
b100 4

#600000
0!
0,

#605000
1!
1,
b101 4

#610000
0!
0,

#615000
1!
1,
b110 4
b10 A

#620000
0!
0,

#625000
1!
b10101011 )
1,
b111 4
b10 @
b11 A

#630000
0!
0,

#635000
1!
b110101 )
1,
b0 5
b110101 >
1?
b11 @
b110101 B
1C
b101110111110010001111001011110 F
b101110111110010001111001011110 G
b1000 I
b100000 J

#640000
0!
0,

#645000
1!
b110110 )
1,
b1 5
b101110111110010001111001011110 =
b110110 >
b110110 B
b101110111110010001111001011110 D
b101110111110010001111001011110 E
b10010011000001110110100011001000 F
b10010011000001110110100011001000 G
b1000 I
b100000 J

#650000
0!
0,

#655000
1!
b110111 )
1,
b10 5
b10010011000001110110100011001000 =
b110111 >
b110111 B
b10010011000001110110100011001000 D
b10010011000001110110100011001000 E
b11100101010000111110100011010010 F
b11100101010000111110100011010010 G
b1000 I
b100000 J

#660000
0!
0,

#665000
1!
b111000 )
1,
b11 5
b11100101010000111110100011010010 =
b111000 >
b111000 B
b11100101010000111110100011010010 D
b11100101010000111110100011010010 E
b1100011101111100001111100111010 F
b1100011101111100001111100111010 G
b1000 I
b100000 J

#670000
0!
0,

#675000
1!
b111001 )
1,
b100 5
b1100011101111100001111100111010 =
b111001 >
b111001 B
b1100011101111100001111100111010 D
b1100011101111100001111100111010 E
b11101001000000100100011111010001 F
b11101001000000100100011111010001 G
b1000 I
b100000 J

#680000
0!
0,

#685000
1!
b1000000 )
1,
b101 5
b11101001000000100100011111010001 =
b1000000 >
b100 A
b1000000 B
b11101001000000100100011111010001 D
b11101001000000100100011111010001 E
b11010001101000010111011100000001 F
b11010001101000010111011100000001 G
b1000 I
b100000 J

#690000
0!
0,

#695000
1!
b1010000 )
1,
b110 5
b0 6
b11010001101000010111011100000001 =
b1010000 >
b100 @
b100 A
b1010000 B
b11010001101000010111011100000001 D
b11010001101000010111011100000001 E
b11001100101110101111110001011001 F
b11001100101110101111110001011001 G
b1000 I
b100000 J

#700000
0!
0,

#705000
1!
b1010001 )
1,
b1 6
b11001100101110101111110001011001 =
b1010001 >
b1010001 B
b11001100101110101111110001011001 D
b11001100101110101111110001011001 E
b10101110001011001110010001001101 F
b10101110001011001110010001001101 G
b1000 I
b100000 J

#710000
0!
0,

#715000
1!
b1010010 )
1,
b10 6
b10101110001011001110010001001101 =
b1010010 >
b1010010 B
b10101110001011001110010001001101 D
b10101110001011001110010001001101 E
b10010000010100000010101101101101 F
b10010000010100000010101101101101 G
b1000 I
b100000 J

#720000
0!
0,

#725000
1!
b1010011 )
1,
b11 6
b10010000010100000010101101101101 =
b1010011 >
b1010011 B
b10010000010100000010101101101101 D
b10010000010100000010101101101101 E
b111000101101101101000000 F
b111000101101101101000000 G
b1000 I
b100000 J

#730000
0!
0,

#735000
1!
b1010100 )
1,
b100 6
b111000101101101101000000 =
b1010100 >
b1010100 B
b111000101101101101000000 D
b111000101101101101000000 E
b10001001010010001001110111011011 F
b10001001010010001001110111011011 G
b1000 I
b100000 J

#740000
0!
0,

#745000
1!
b1010101 )
1,
b101 6
b10001001010010001001110111011011 =
b1010101 >
b101 A
b1010101 B
b10001001010010001001110111011011 D
b10001001010010001001110111011011 E
b1101100000010100000101110001101 F
b1101100000010100000101110001101 G
b1000 I
b100000 J

#750000
0!
0,

#755000
1!
b1010110 )
1,
b110 6
b1101100000010100000101110001101 =
b1010110 >
b101 @
b101 A
b1010110 B
b1101100000010100000101110001101 D
b1101100000010100000101110001101 E
b11110001101100110011011001000110 F
b11110001101100110011011001000110 G
b1000 I
b100000 J

#760000
0!
0,

#765000
1!
b1010111 )
1,
17
b11110001101100110011011001000110 =
b1010111 >
b111 A
b1010111 B
b11110001101100110011011001000110 D
b11110001101100110011011001000110 E
b1011000100111110101110110111100 F
b1011000100111110101110110111100 G
b1000 I
b100000 J

#770000
0!
0,

#775000
1!
b1100000 )
1,
07
b0 8
b1011000100111110101110110111100 =
b1100000 >
b111 @
b111 A
b1100000 B
b1011000100111110101110110111100 D
b1011000100111110101110110111100 E
b1101101011001110011110000101000 F
b1101101011001110011110000101000 G
b1000 I
b100000 J

#780000
0!
0,

#785000
1!
b1100001 )
1,
b1 8
b1101101011001110011110000101000 =
b1100001 >
b1100001 B
b1101101011001110011110000101000 D
b1101101011001110011110000101000 E
b1010010001100001011001101100100 F
b1010010001100001011001101100100 G
b1000 I
b100000 J

#790000
0!
0,

#795000
1!
b1100010 )
1,
b10 8
b1010010001100001011001101100100 =
b1100010 >
b1100010 B
b1010010001100001011001101100100 D
b1010010001100001011001101100100 E
b11100100100000010000100110010000 F
b11100100100000010000100110010000 G
b1000 I
b100000 J

#800000
0!
0,

#805000
1!
b1100011 )
1,
b11 8
b11100100100000010000100110010000 =
b1100011 >
b1100011 B
b11100100100000010000100110010000 D
b11100100100000010000100110010000 E
b11110110010000100010000011101011 F
b11110110010000100010000011101011 G
b1000 I
b100000 J

#810000
0!
0,

#815000
1!
b1100100 )
1,
b100 8
b11110110010000100010000011101011 =
b1100100 >
b1001 A
b1100100 B
b11110110010000100010000011101011 D
b11110110010000100010000011101011 E
b1101110101111111110101111110000 F
b1101110101111111110101111110000 G
b1000 I
b100000 J

#820000
0!
0,

#825000
1!
b1101110 )
1,
b101 8
b1101110101111111110101111110000 =
bx >
0?
b1001 @
b1001 A
bx B
0C
b1101110101111111110101111110000 D
b1101110101111111110101111110000 E
bx F
bx G
b1000 I
b100000 J

#830000
0!
0,

#835000
1!
b10111111 )
1,
b1 :

#840000
0!
0,

#845000
1!
b11101011 )
1,
b10 :

#850000
0!
0,

#855000
1!
b11110000 )
1,
b11 :
b1010 A

#860000
0!
0,

#865000
1!
b0 )
0*
1,
b0 :
b0 ;
b1010 @
b1010 A

#870000
0!
0,

#875000
1!
1,
b1 ;

#880000
0!
0,

#885000
1!
1,
b10 ;

#890000
0!
0,

#895000
1!
1,
b11 ;

#900000
0!
0,

#905000
1!
1,
b100 ;

#910000
0!
0,

#915000
1!
1,
b101 ;

#920000
0!
0,

#925000
1!
1,
b110 ;

#930000
0!
0,

#935000
1!
1,
b111 ;

#940000
0!
0,

#945000
1!
1,
b1000 ;

#950000
0!
0,

#955000
1!
1,
b1001 ;

#960000
0!
0,

#965000
1!
1,
b1010 ;

#970000
0!
0,

#975000
1!
1+
1,
b1011 ;
b0 A

#980000
0!
0,

#985000
1!
0+
1,
b1100 ;
b0 @
b1 A

#990000
0!
0,

#995000
1!
b1010101 )
1*
1,
b0 4
b1 @

#1000000
0!
0,

#1005000
1!
1,
b1 4

#1010000
0!
0,

#1015000
1!
1,
b10 4

#1020000
0!
0,

#1025000
1!
1,
b11 4

#1030000
0!
0,

#1035000
1!
1,
b100 4

#1040000
0!
0,

#1045000
1!
1,
b101 4

#1050000
0!
0,

#1055000
1!
1,
b110 4
b10 A

#1060000
0!
0,

#1065000
1!
b10101011 )
1,
b111 4
b10 @
b11 A

#1070000
0!
0,

#1075000
1!
b110101 )
1,
b0 5
b110101 >
1?
b11 @
b110101 B
1C
b11101100001101111001000001100110 F
b11101100001101111001000001100110 G
b1000 I
b100000 J

#1080000
0!
0,

#1085000
1!
b110110 )
1,
b1 5
b11101100001101111001000001100110 =
b110110 >
b110110 B
b11101100001101111001000001100110 D
b11101100001101111001000001100110 E
b1001100000011111101100111111 F
b1001100000011111101100111111 G
b1000 I
b100000 J

#1090000
0!
0,

#1095000
1!
b110111 )
1,
b10 5
b1001100000011111101100111111 =
b110111 >
b110111 B
b1001100000011111101100111111 D
b1001100000011111101100111111 E
b1101001010001111111001010011010 F
b1101001010001111111001010011010 G
b1000 I
b100000 J

#1100000
0!
0,

#1105000
1!
b111000 )
1,
b11 5
b1101001010001111111001010011010 =
b111000 >
b111000 B
b1101001010001111111001010011010 D
b1101001010001111111001010011010 E
b111011101001000010110010110000 F
b111011101001000010110010110000 G
b1000 I
b100000 J

#1110000
0!
0,

#1115000
1!
b111001 )
1,
b100 5
b111011101001000010110010110000 =
b111001 >
b111001 B
b111011101001000010110010110000 D
b111011101001000010110010110000 E
b10101101101011101000101101101110 F
b10101101101011101000101101101110 G
b1000 I
b100000 J

#1120000
0!
0,

#1125000
1!
b1000000 )
1,
b101 5
b10101101101011101000101101101110 =
b1000000 >
b100 A
b1000000 B
b10101101101011101000101101101110 D
b10101101101011101000101101101110 E
b1011010111011111100111010101010 F
b1011010111011111100111010101010 G
b1000 I
b100000 J

#1130000
0!
0,

#1135000
1!
b1010000 )
1,
b110 5
b0 6
b1011010111011111100111010101010 =
b1010000 >
b100 @
b100 A
b1010000 B
b1011010111011111100111010101010 D
b1011010111011111100111010101010 E
b11000000010001000111110011010110 F
b11000000010001000111110011010110 G
b1000 I
b100000 J

#1140000
0!
0,

#1145000
1!
b1010001 )
1,
b1 6
b11000000010001000111110011010110 =
b1010001 >
b1010001 B
b11000000010001000111110011010110 D
b11000000010001000111110011010110 E
b1100101101000001111000000101001 F
b1100101101000001111000000101001 G
b1000 I
b100000 J

#1150000
0!
0,

#1155000
1!
b1010010 )
1,
b10 6
b1100101101000001111000000101001 =
b1010010 >
b1010010 B
b1100101101000001111000000101001 D
b1100101101000001111000000101001 E
b1101010100001010001010010010101 F
b1101010100001010001010010010101 G
b1000 I
b100000 J

#1160000
0!
0,

#1165000
1!
b1010011 )
1,
b11 6
b1101010100001010001010010010101 =
b1010011 >
b1010011 B
b1101010100001010001010010010101 D
b1101010100001010001010010010101 E
b1110011111011110000100010011111 F
b1110011111011110000100010011111 G
b1000 I
b100000 J

#1170000
0!
0,

#1175000
1!
b1010100 )
1,
b100 6
b1110011111011110000100010011111 =
b1010100 >
b1010100 B
b1110011111011110000100010011111 D
b1110011111011110000100010011111 E
b1101001011011000111100111100101 F
b1101001011011000111100111100101 G
b1000 I
b100000 J

#1180000
0!
0,

#1185000
1!
b1010101 )
1,
b101 6
b1101001011011000111100111100101 =
b1010101 >
b101 A
b1010101 B
b1101001011011000111100111100101 D
b1101001011011000111100111100101 E
b10001101010001110001001111110100 F
b10001101010001110001001111110100 G
b1000 I
b100000 J

#1190000
0!
0,

#1195000
1!
b1010110 )
1,
b110 6
b10001101010001110001001111110100 =
b1010110 >
b101 @
b101 A
b1010110 B
b10001101010001110001001111110100 D
b10001101010001110001001111110100 E
b1111101110000110111010010001000 F
b1111101110000110111010010001000 G
b1000 I
b100000 J

#1200000
0!
0,

#1205000
1!
b1010111 )
1,
17
b1111101110000110111010010001000 =
b1010111 >
b111 A
b1010111 B
b1111101110000110111010010001000 D
b1111101110000110111010010001000 E
b1110100110111011110100000110110 F
b1110100110111011110100000110110 G
b1000 I
b100000 J

#1210000
0!
0,

#1215000
1!
b1100000 )
1,
07
b0 8
b1110100110111011110100000110110 =
b1100000 >
b111 @
b111 A
b1100000 B
b1110100110111011110100000110110 D
b1110100110111011110100000110110 E
b10000010111111011001101110101100 F
b10000010111111011001101110101100 G
b1000 I
b100000 J

#1220000
0!
0,

#1225000
1!
b1100001 )
1,
b1 8
b10000010111111011001101110101100 =
b1100001 >
b1100001 B
b10000010111111011001101110101100 D
b10000010111111011001101110101100 E
b110101011100011010110010100000 F
b110101011100011010110010100000 G
b1000 I
b100000 J

#1230000
0!
0,

#1235000
1!
b1100010 )
1,
b10 8
b110101011100011010110010100000 =
b1100010 >
b1100010 B
b110101011100011010110010100000 D
b110101011100011010110010100000 E
b10111011111000101101100000010 F
b10111011111000101101100000010 G
b1000 I
b100000 J

#1240000
0!
0,

#1245000
1!
b1100011 )
1,
b11 8
b10111011111000101101100000010 =
b1100011 >
b1100011 B
b10111011111000101101100000010 D
b10111011111000101101100000010 E
b10001111111010110110100100111011 F
b10001111111010110110100100111011 G
b1000 I
b100000 J

#1250000
0!
0,

#1255000
1!
b1100100 )
1,
b100 8
b10001111111010110110100100111011 =
b1100100 >
b1001 A
b1100100 B
b10001111111010110110100100111011 D
b10001111111010110110100100111011 E
b101100010111101011000011000 F
b101100010111101011000011000 G
b1000 I
b100000 J

#1260000
0!
0,

#1265000
1!
b101 )
1,
b101 8
b101100010111101011000011000 =
bx >
0?
b1001 @
b1001 A
bx B
0C
b101100010111101011000011000 D
b101100010111101011000011000 E
bx F
bx G
b1000 I
b100000 J

#1270000
0!
0,

#1275000
1!
b10001011 )
1,
b1 :

#1280000
0!
0,

#1285000
1!
b11010110 )
1,
b10 :

#1290000
0!
0,

#1295000
1!
b11000 )
1,
b11 :
b1010 A

#1300000
0!
0,

#1305000
1!
b0 )
0*
1,
b0 :
b0 ;
b1010 @
b1010 A

#1310000
0!
0,

#1315000
1!
1,
b1 ;

#1320000
0!
0,

#1325000
1!
1,
b10 ;

#1330000
0!
0,

#1335000
1!
1,
b11 ;

#1340000
0!
0,

#1345000
1!
1,
b100 ;

#1350000
0!
0,

#1355000
1!
1,
b101 ;

#1360000
0!
0,

#1365000
1!
1,
b110 ;

#1370000
0!
0,

#1375000
1!
1,
b111 ;

#1380000
0!
0,

#1385000
1!
1,
b1000 ;

#1390000
0!
0,

#1395000
1!
1,
b1001 ;

#1400000
0!
0,

#1405000
1!
1,
b1010 ;

#1410000
0!
0,

#1415000
1!
1+
1,
b1011 ;
b0 A

#1420000
0!
0,

#1425000
1!
0+
1,
b1100 ;
b0 @
b1 A

#1430000
0!
0,

#1435000
1!
b1010101 )
1*
1,
b0 4
b1 @

#1440000
0!
0,

#1445000
1!
1,
b1 4

#1450000
0!
0,

#1455000
1!
1,
b10 4

#1460000
0!
0,

#1465000
1!
1,
b11 4

#1470000
0!
0,

#1475000
1!
1,
b100 4

#1480000
0!
0,

#1485000
1!
1,
b101 4

#1490000
0!
0,

#1495000
1!
1,
b110 4
b10 A

#1500000
0!
0,

#1505000
1!
b10101011 )
1,
b111 4
b10 @
b11 A

#1510000
0!
0,

#1515000
1!
b110101 )
1,
b0 5
b110101 >
1?
b11 @
b110101 B
1C
b1011111111001000111010110010000 F
b1011111111001000111010110010000 G
b1000 I
b100000 J

#1520000
0!
0,

#1525000
1!
b110110 )
1,
b1 5
b1011111111001000111010110010000 =
b110110 >
b110110 B
b1011111111001000111010110010000 D
b1011111111001000111010110010000 E
b1101010000110011010011010011000 F
b1101010000110011010011010011000 G
b1000 I
b100000 J

#1530000
0!
0,

#1535000
1!
b110111 )
1,
b10 5
b1101010000110011010011010011000 =
b110111 >
b110111 B
b1101010000110011010011010011000 D
b1101010000110011010011010011000 E
b1010000111111001011010111010100 F
b1010000111111001011010111010100 G
b1000 I
b100000 J

#1540000
0!
0,

#1545000
1!
b111000 )
1,
b11 5
b1010000111111001011010111010100 =
b111000 >
b111000 B
b1010000111111001011010111010100 D
b1010000111111001011010111010100 E
b1110110000110001111111100101111 F
b1110110000110001111111100101111 G
b1000 I
b100000 J

#1550000
0!
0,

#1555000
1!
b111001 )
1,
b100 5
b1110110000110001111111100101111 =
b111001 >
b111001 B
b1110110000110001111111100101111 D
b1110110000110001111111100101111 E
b10100001101101110001011001010 F
b10100001101101110001011001010 G
b1000 I
b100000 J

#1560000
0!
0,

#1565000
1!
b1000000 )
1,
b101 5
b10100001101101110001011001010 =
b1000000 >
b100 A
b1000000 B
b10100001101101110001011001010 D
b10100001101101110001011001010 E
b1011101011100010001011111011011 F
b1011101011100010001011111011011 G
b1000 I
b100000 J

#1570000
0!
0,

#1575000
1!
b1010000 )
1,
b110 5
b0 6
b1011101011100010001011111011011 =
b1010000 >
b100 @
b100 A
b1010000 B
b1011101011100010001011111011011 D
b1011101011100010001011111011011 E
b1000000110110100101110111010011 F
b1000000110110100101110111010011 G
b1000 I
b100000 J

#1580000
0!
0,

#1585000
1!
b1010001 )
1,
b1 6
b1000000110110100101110111010011 =
b1010001 >
b1010001 B
b1000000110110100101110111010011 D
b1000000110110100101110111010011 E
b10010010100011010001010111000111 F
b10010010100011010001010111000111 G
b1000 I
b100000 J

#1590000
0!
0,

#1595000
1!
b1010010 )
1,
b10 6
b10010010100011010001010111000111 =
b1010010 >
b1010010 B
b10010010100011010001010111000111 D
b10010010100011010001010111000111 E
b11010000100111110101011110011001 F
b11010000100111110101011110011001 G
b1000 I
b100000 J

#1600000
0!
0,

#1605000
1!
b1010011 )
1,
b11 6
b11010000100111110101011110011001 =
b1010011 >
b1010011 B
b11010000100111110101011110011001 D
b11010000100111110101011110011001 E
b11111011000110000101111100110111 F
b11111011000110000101111100110111 G
b1000 I
b100000 J

#1610000
0!
0,

#1615000
1!
b1010100 )
1,
b100 6
b11111011000110000101111100110111 =
b1010100 >
b1010100 B
b11111011000110000101111100110111 D
b11111011000110000101111100110111 E
b11010001001111111101110010110011 F
b11010001001111111101110010110011 G
b1000 I
b100000 J

#1620000
0!
0,

#1625000
1!
b1010101 )
1,
b101 6
b11010001001111111101110010110011 =
b1010101 >
b101 A
b1010101 B
b11010001001111111101110010110011 D
b11010001001111111101110010110011 E
b1000101110101000010010100110010 F
b1000101110101000010010100110010 G
b1000 I
b100000 J

#1630000
0!
0,

#1635000
1!
b1010110 )
1,
b110 6
b1000101110101000010010100110010 =
b1010110 >
b101 @
b101 A
b1010110 B
b1000101110101000010010100110010 D
b1000101110101000010010100110010 E
b10010101011101111100111110101001 F
b10010101011101111100111110101001 G
b1000 I
b100000 J

#1640000
0!
0,

#1645000
1!
b1010111 )
1,
17
b10010101011101111100111110101001 =
b1010111 >
b111 A
b1010111 B
b10010101011101111100111110101001 D
b10010101011101111100111110101001 E
b100011110001110000001011110111 F
b100011110001110000001011110111 G
b1000 I
b100000 J

#1650000
0!
0,

#1655000
1!
b1100000 )
1,
07
b0 8
b100011110001110000001011110111 =
b1100000 >
b111 @
b111 A
b1100000 B
b100011110001110000001011110111 D
b100011110001110000001011110111 E
b11111110110001111010000110101110 F
b11111110110001111010000110101110 G
b1000 I
b100000 J

#1660000
0!
0,

#1665000
1!
b1100001 )
1,
b1 8
b11111110110001111010000110101110 =
b1100001 >
b1100001 B
b11111110110001111010000110101110 D
b11111110110001111010000110101110 E
b11011010111100110010100000100011 F
b11011010111100110010100000100011 G
b1000 I
b100000 J

#1670000
0!
0,

#1675000
1!
b1100010 )
1,
b10 8
b11011010111100110010100000100011 =
b1100010 >
b1100010 B
b11011010111100110010100000100011 D
b11011010111100110010100000100011 E
b1101000000111100100001111000110 F
b1101000000111100100001111000110 G
b1000 I
b100000 J

#1680000
0!
0,

#1685000
1!
b1100011 )
1,
b11 8
b1101000000111100100001111000110 =
b1100011 >
b1100011 B
b1101000000111100100001111000110 D
b1101000000111100100001111000110 E
b110101000010000000110101100001 F
b110101000010000000110101100001 G
b1000 I
b100000 J

#1690000
0!
0,

#1695000
1!
b1100100 )
1,
b100 8
b110101000010000000110101100001 =
b1100100 >
b1001 A
b1100100 B
b110101000010000000110101100001 D
b110101000010000000110101100001 E
b1110100010110111101011110110000 F
b1110100010110111101011110110000 G
b1000 I
b100000 J

#1700000
0!
0,

#1705000
1!
b1110100 )
1,
b101 8
b1110100010110111101011110110000 =
bx >
0?
b1001 @
b1001 A
bx B
0C
b1110100010110111101011110110000 D
b1110100010110111101011110110000 E
bx F
bx G
b1000 I
b100000 J

#1710000
0!
0,

#1715000
1!
b1011011 )
1,
b1 :

#1720000
0!
0,

#1725000
1!
b11010111 )
1,
b10 :

#1730000
0!
0,

#1735000
1!
b10110000 )
1,
b11 :
b1010 A

