code/frame_tx/sim/Ethernet_frame.vcd
$date
   Tue Mar 10 11:21:52 2026
$end

$version
  2024.2.0
  $dumpfile ("Ethernet_frame.vcd") 
$end

$timescale
  1ps
$end

$scope module Ethernet_frame_gen_tb $end
$var reg 1 ! clk $end
$var reg 1 " reset $end
$var reg 1 # start $end
$var reg 48 $ MAC_dest [47:0] $end
$var reg 48 % MAC_source [47:0] $end
$var reg 16 & ethernet_type [15:0] $end
$var reg 12000 ' payload [11999:0] $end
$var reg 11 ( payload_length [10:0] $end
$var reg 8 ) tb_tx_data [7:0] $end
$var reg 1 * tb_tx_valid $end
$var reg 1 + tb_frame_done $end
$scope module dut $end
$var wire 1 , clk $end
$var wire 1 - reset $end
$var wire 1 . start $end
$var wire 48 / MAC_dest_addr [47:0] $end
$var wire 48 0 MAC_source_addr [47:0] $end
$var wire 16 1 ethernet_type [15:0] $end
$var wire 12000 2 payload [11999:0] $end
$var wire 11 3 payload_length [10:0] $end
$var reg 8 ) tx_data [7:0] $end
$var reg 1 * tx_valid $end
$var reg 1 + frame_done $end
$var reg 3 4 cnt_preamble [2:0] $end
$var reg 3 5 cnt_MAC_dest [2:0] $end
$var reg 3 6 cnt_MAC_source [2:0] $end
$var reg 1 7 cnt_ethernet_type $end
$var reg 11 8 cnt_payload [10:0] $end
$var reg 6 9 cnt_pad [5:0] $end
$var reg 2 : cnt_fcs [1:0] $end
$var reg 4 ; cnt_ipg [3:0] $end
$var reg 11 < MAX_payload [10:0] $end
$var reg 32 = CRC32_crc [31:0] $end
$var reg 8 > CRC32_data [7:0] $end
$var reg 1 ? CRC32_valid $end
$var reg 32 @ state $end
$var reg 32 A next_state $end
$scope module CRC32_tx $end
$var wire 1 , clk $end
$var wire 1 - reset $end
$var wire 8 B data_in [7:0] $end
$var wire 1 C valid $end
$var wire 32 D crc_out [31:0] $end
$var reg 32 E crc [31:0] $end
$var reg 32 F crc_prev [31:0] $end
$var reg 32 G crc_next [31:0] $end
$var reg 4 H debug [3:0] $end
$scope begin Block41_3 $end
$var reg 32 I i [31:0] $end
$scope begin Block43_4 $end
$var reg 32 J j [31:0] $end
$upscope $end
$upscope $end
$upscope $end
$upscope $end
$scope task clk_gen $end
$upscope $end
$scope task apply_reset $end
$upscope $end
$upscope $end
$enddefinitions $end

#0
$dumpvars
0!
0"
0#
bx $
bx %
bx &
bx '
bx (
bx )
x*
x+
0,
0-
0.
bx /
bx 0
bx 1
bx 2
bx 3
bx 4
bx 5
bx 6
x7
bx 8
bx 9
bx :
bx ;
bx <
bx =
bx >
x?
b0 @
b0 A
bx B
xC
bx D
bx E
bx F
bx G
bx H
b1000 I
b100000 J
$end

#5000
1!
1"
1,
1-
b0 4
b0 5
b0 6
07
b0 8
b0 9
b0 :
b0 ;
b11111111111111111111111111111111 =
b11111111111111111111111111111111 D
b11111111111111111111111111111111 E
bx F
bx G
b1000 I
b100000 J

#10000
0!
0,

#15000
1!
0"
b0 )
0+
1,
0-
0?
0C

#20000
0!
0,

#25000
1!
1,

#30000
0!
0,

#35000
1!
1,

#40000
0!
0,

#45000
1!
1,

#50000
0!
0,

#55000
1!
1,

#60000
0!
0,

#65000
1!
1,

#70000
0!
0,

#75000
1!
1,

#80000
0!
0,

#85000
1!
1,

#90000
0!
0,

#95000
1!
b1101010011010100110101001101010011010100110101 $
b100001101000011010000110100001101000011010000110 %
b10011100100111 &
bx0100001001000010010000100100001001000010 '
b101 (
1,
b1101010011010100110101001101010011010100110101 /
b100001101000011010000110100001101000011010000110 0
b10011100100111 1
bx0100001001000010010000100100001001000010 2
b101 3

#100000
0!
0,

#105000
1!
1#
1,
1.
b1 A

#110000
0!
0,

#115000
1!
b1010101 )
1*
1,
b1 @

#120000
0!
0,

#125000
1!
1,
b1 4

#130000
0!
0,

#135000
1!
1,
b10 4

#140000
0!
0,

#145000
1!
1,
b11 4

#150000
0!
0,

#155000
1!
1,
b100 4

#160000
0!
0,

#165000
1!
1,
b101 4

#170000
0!
0,

#175000
1!
1,
b110 4
b10 A

#180000
0!
0,

#185000
1!
b10101011 )
1,
b111 4
b10 @
b11 A

#190000
0!
0,

#195000
1!
b110101 )
1,
b110101 >
1?
b11 @
b110101 B
1C
b10001101111111111011100101001111 F
b10001101111111111011100101001111 G
b1000 I
b100000 J

#200000
0!
0,

#205000
1!
1,
b1 5
b10001101111111111011100101001111 =
b10001101111111111011100101001111 D
b10001101111111111011100101001111 E
b1100100100011110010111111000110 F
b1100100100011110010111111000110 G
b1000 I
b100000 J

#210000
0!
0,

#215000
1!
1,
b10 5
b1100100100011110010111111000110 =
b1100100100011110010111111000110 D
b1100100100011110010111111000110 E
b11110011011110010111000010110000 F
b11110011011110010111000010110000 G
b1000 I
b100000 J

#220000
0!
0,

#225000
1!
1,
b11 5
b11110011011110010111000010110000 =
b11110011011110010111000010110000 D
b11110011011110010111000010110000 E
b111110011111000110110100101011 F
b111110011111000110110100101011 G
b1000 I
b100000 J

#230000
0!
0,

#235000
1!
1,
b100 5
b111110011111000110110100101011 =
b111110011111000110110100101011 D
b111110011111000110110100101011 E
b1010111001001101110000001100001 F
b1010111001001101110000001100001 G
b1000 I
b100000 J

#240000
0!
0,

#245000
1!
1,
b101 5
b1010111001001101110000001100001 =
b100 A
b1010111001001101110000001100001 D
b1010111001001101110000001100001 E
b10000011110001111001110011111001 F
b10000011110001111001110011111001 G
b1000 I
b100000 J

#250000
0!
0,

#255000
1!
b10000110 )
1,
b110 5
b10000011110001111001110011111001 =
b10000110 >
b100 @
b100 A
b10000110 B
b10000011110001111001110011111001 D
b10000011110001111001110011111001 E
b11010000010110011001001001101011 F
b11010000010110011001001001101011 G
b1000 I
b100000 J

#260000
0!
0,

#265000
1!
1,
b1 6
b11010000010110011001001001101011 =
b11010000010110011001001001101011 D
b11010000010110011001001001101011 E
b111011100000111000110110110101 F
b111011100000111000110110110101 G
b1000 I
b100000 J

#270000
0!
0,

#275000
1!
1,
b10 6
b111011100000111000110110110101 =
b111011100000111000110110110101 D
b111011100000111000110110110101 E
b1111011111101011111010101101 F
b1111011111101011111010101101 G
b1000 I
b100000 J

#280000
0!
0,

#285000
1!
1,
b11 6
b1111011111101011111010101101 =
b1111011111101011111010101101 D
b1111011111101011111010101101 E
b110101011110111011110111100001 F
b110101011110111011110111100001 G
b1000 I
b100000 J

#290000
0!
0,

#295000
1!
1,
b100 6
b110101011110111011110111100001 =
b110101011110111011110111100001 D
b110101011110111011110111100001 E
b11001011110000000100101010100111 F
b11001011110000000100101010100111 G
b1000 I
b100000 J

#300000
0!
0,

#305000
1!
1,
b101 6
b11001011110000000100101010100111 =
b101 A
b11001011110000000100101010100111 D
b11001011110000000100101010100111 E
b11000101000000010101000110100100 F
b11000101000000010101000110100100 G
b1000 I
b100000 J

#310000
0!
0,

#315000
1!
b100111 )
1,
b110 6
b11000101000000010101000110100100 =
b100111 >
b101 @
b101 A
b100111 B
b11000101000000010101000110100100 D
b11000101000000010101000110100100 E
b11001101011110101011100100010111 F
b11001101011110101011100100010111 G
b1000 I
b100000 J

#320000
0!
0,

#325000
1!
1,
17
b11001101011110101011100100010111 =
b111 A
b11001101011110101011100100010111 D
b11001101011110101011100100010111 E
b10010000100110101110011110101111 F
b10010000100110101110011110101111 G
b1000 I
b100000 J

#330000
0!
0,

#335000
1!
b1000010 )
1,
07
b10010000100110101110011110101111 =
b1000010 >
b111 @
b111 A
b1000010 B
b10010000100110101110011110101111 D
b10010000100110101110011110101111 E
b10000010111111101101111110000111 F
b10000010111111101101111110000111 G
b1000 I
b100000 J

#340000
0!
0,

#345000
1!
1,
b1 8
b10000010111111101101111110000111 =
b10000010111111101101111110000111 D
b10000010111111101101111110000111 E
b10100011010101010001011110011001 F
b10100011010101010001011110011001 G
b1000 I
b100000 J

#350000
0!
0,

#355000
1!
1,
b10 8
b10100011010101010001011110011001 =
b10100011010101010001011110011001 D
b10100011010101010001011110011001 E
b10010100011111111010001011001110 F
b10010100011111111010001011001110 G
b1000 I
b100000 J

#360000
0!
0,

#365000
1!
1,
b11 8
b10010100011111111010001011001110 =
b10010100011111111010001011001110 D
b10010100011111111010001011001110 E
b1110100101111111100100001011011 F
b1110100101111111100100001011011 G
b1000 I
b100000 J

#370000
0!
0,

#375000
1!
1,
b100 8
b1110100101111111100100001011011 =
b1001 A
b1110100101111111100100001011011 D
b1110100101111111100100001011011 E
b1110001011111000111101100100010 F
b1110001011111000111101100100010 G
b1000 I
b100000 J

#380000
0!
0,

#385000
1!
b1110001 )
1,
b101 8
b1110001011111000111101100100010 =
bx >
0?
b1001 @
b1001 A
bx B
0C
b1110001011111000111101100100010 D
b1110001011111000111101100100010 E
bx F
bx G
b1000 I
b100000 J

#390000
0!
0,

#395000
1!
b1111100 )
1,
b1 :

#400000
0!
0,

#405000
1!
b1111011 )
1,
b10 :

#410000
0!
0,

#415000
1!
b100010 )
1,
b11 :
b1010 A

#420000
0!
0,

#425000
1!
b0 )
0*
1,
b0 :
b1010 @
b1010 A

#430000
0!
0,

#435000
1!
1,
b1 ;

#440000
0!
0,

#445000
1!
1,
b10 ;

#450000
0!
0,

#455000
1!
1,
b11 ;

#460000
0!
0,

#465000
1!
1,
b100 ;

#470000
0!
0,

#475000
1!
1,
b101 ;

#480000
0!
0,

#485000
1!
1,
b110 ;

#490000
0!
0,

#495000
1!
1,
b111 ;

#500000
0!
0,

#505000
1!
1,
b1000 ;

#510000
0!
0,

#515000
1!
1,
b1001 ;

#520000
0!
0,

#525000
1!
1,
b1010 ;

#530000
0!
0,

#535000
1!
1+
1,
b1011 ;
b0 A

#540000
0!
0,

#545000
1!
1,
b1100 ;
b0 @
b1 A

#550000
0!
0,

#555000
1!
b1010101 )
1*
0+
1,
b0 4
b1 @

#560000
0!
0,

#565000
1!
1,
b1 4

#570000
0!
0,

#575000
1!
1,
b10 4

#580000
0!
0,

#585000
1!
1,
b11 4

#590000
0!
0,

#595000
1!
1,
b100 4

#600000
0!
0,

#605000
1!
1,
b101 4

#610000
0!
0,

#615000
1!
1,
b110 4
b10 A

#620000
0!
0,

#625000
1!
b10101011 )
1,
b111 4
b10 @
b11 A

#630000
0!
0,

#635000
1!
b110101 )
1,
b0 5
b110101 >
1?
b11 @
b110101 B
1C
b1011011111110010010010010101011 F
b1011011111110010010010010101011 G
b1000 I
b100000 J

#640000
0!
0,

#645000
1!
1,
b1 5
b1011011111110010010010010101011 =
b1011011111110010010010010101011 D
b1011011111110010010010010101011 E
b1101001000011111100110110011101 F
b1101001000011111100110110011101 G
b1000 I
b100000 J

#650000
0!
0,

#655000
1!
1,
b10 5
b1101001000011111100110110011101 =
b1101001000011111100110110011101 D
b1101001000011111100110110011101 E
b1000010010101101010110101100011 F
b1000010010101101010110101100011 G
b1000 I
b100000 J

#660000
0!
0,

#665000
1!
1,
b11 5
b1000010010101101010110101100011 =
b1000010010101101010110101100011 D
b1000010010101101010110101100011 E
b10101000010111100010111011100010 F
b10101000010111100010111011100010 G
b1000 I
b100000 J

#670000
0!
0,

#675000
1!
1,
b100 5
b10101000010111100010111011100010 =
b10101000010111100010111011100010 D
b10101000010111100010111011100010 E
b1001010111111100101111101001101 F
b1001010111111100101111101001101 G
b1000 I
b100000 J

#680000
0!
0,

#685000
1!
1,
b101 5
b1001010111111100101111101001101 =
b100 A
b1001010111111100101111101001101 D
b1001010111111100101111101001101 E
b100110101001001110110101011010 F
b100110101001001110110101011010 G
b1000 I
b100000 J

#690000
0!
0,

#695000
1!
b10000110 )
1,
b110 5
b0 6
b100110101001001110110101011010 =
b10000110 >
b100 @
b100 A
b10000110 B
b100110101001001110110101011010 D
b100110101001001110110101011010 E
b1010101110000100000110000001110 F
b1010101110000100000110000001110 G
b1000 I
b100000 J

#700000
0!
0,

#705000
1!
1,
b1 6
b1010101110000100000110000001110 =
b1010101110000100000110000001110 D
b1010101110000100000110000001110 E
b11011110110101000110001100110000 F
b11011110110101000110001100110000 G
b1000 I
b100000 J

#710000
0!
0,

#715000
1!
1,
b10 6
b11011110110101000110001100110000 =
b11011110110101000110001100110000 D
b11011110110101000110001100110000 E
b10001010111111000111011010111111 F
b10001010111111000111011010111111 G
b1000 I
b100000 J

#720000
0!
0,

#725000
1!
1,
b11 6
b10001010111111000111011010111111 =
b10001010111111000111011010111111 D
b10001010111111000111011010111111 E
b11001001011110100010010001100100 F
b11001001011110100010010001100100 G
b1000 I
b100000 J

#730000
0!
0,

#735000
1!
1,
b100 6
b11001001011110100010010001100100 =
b11001001011110100010010001100100 D
b11001001011110100010010001100100 E
b1110110111011011010100111001010 F
b1110110111011011010100111001010 G
b1000 I
b100000 J

#740000
0!
0,

#745000
1!
1,
b101 6
b1110110111011011010100111001010 =
b101 A
b1110110111011011010100111001010 D
b1110110111011011010100111001010 E
b1100100000100010011011100001001 F
b1100100000100010011011100001001 G
b1000 I
b100000 J

#750000
0!
0,

#755000
1!
b100111 )
1,
b110 6
b1100100000100010011011100001001 =
b100111 >
b101 @
b101 A
b100111 B
b1100100000100010011011100001001 D
b1100100000100010011011100001001 E
b101000111100100101111110101110 F
b101000111100100101111110101110 G
b1000 I
b100000 J

#760000
0!
0,

#765000
1!
1,
17
b101000111100100101111110101110 =
b111 A
b101000111100100101111110101110 D
b101000111100100101111110101110 E
b11001010000100000001001110111101 F
b11001010000100000001001110111101 G
b1000 I
b100000 J

#770000
0!
0,

#775000
1!
b1000010 )
1,
07
b0 8
b11001010000100000001001110111101 =
b1000010 >
b111 @
b111 A
b1000010 B
b11001010000100000001001110111101 D
b11001010000100000001001110111101 E
b1011111000101111011000001010110 F
b1011111000101111011000001010110 G
b1000 I
b100000 J

#780000
0!
0,

#785000
1!
1,
b1 8
b1011111000101111011000001010110 =
b1011111000101111011000001010110 D
b1011111000101111011000001010110 E
b1101010011011000000101110100011 F
b1101010011011000000101110100011 G
b1000 I
b100000 J

#790000
0!
0,

#795000
1!
1,
b10 8
b1101010011011000000101110100011 =
b1101010011011000000101110100011 D
b1101010011011000000101110100011 E
b11010010001000001111100001011000 F
b11010010001000001111100001011000 G
b1000 I
b100000 J

#800000
0!
0,

#805000
1!
1,
b11 8
b11010010001000001111100001011000 =
b11010010001000001111100001011000 D
b11010010001000001111100001011000 E
b101111001010110001110011110 F
b101111001010110001110011110 G
b1000 I
b100000 J

#810000
0!
0,

#815000
1!
1,
b100 8
b101111001010110001110011110 =
b1001 A
b101111001010110001110011110 D
b101111001010110001110011110 E
b11001111101000101011111001110010 F
b11001111101000101011111001110010 G
b1000 I
b100000 J

#820000
0!
0,

#825000
1!
b11001111 )
1,
b101 8
b11001111101000101011111001110010 =
bx >
0?
b1001 @
b1001 A
bx B
0C
b11001111101000101011111001110010 D
b11001111101000101011111001110010 E
bx F
bx G
b1000 I
b100000 J

#830000
0!
0,

#835000
1!
b10100010 )
1,
b1 :

#840000
0!
0,

#845000
1!
b10111110 )
1,
b10 :

#850000
0!
0,

#855000
1!
b1110010 )
1,
b11 :
b1010 A

#860000
0!
0,

#865000
1!
b0 )
0*
1,
b0 :
b0 ;
b1010 @
b1010 A

#870000
0!
0,

#875000
1!
1,
b1 ;

#880000
0!
0,

#885000
1!
1,
b10 ;

#890000
0!
0,

#895000
1!
1,
b11 ;

#900000
0!
0,

#905000
1!
1,
b100 ;

#910000
0!
0,

#915000
1!
1,
b101 ;

#920000
0!
0,

#925000
1!
1,
b110 ;

#930000
0!
0,

#935000
1!
1,
b111 ;

#940000
0!
0,

#945000
1!
1,
b1000 ;

#950000
0!
0,

#955000
1!
1,
b1001 ;

#960000
0!
0,

#965000
1!
1,
b1010 ;

#970000
0!
0,

#975000
1!
1+
1,
b1011 ;
b0 A

#980000
0!
0,

#985000
1!
1,
b1100 ;
b0 @
b1 A

#990000
0!
0,

#995000
1!
b1010101 )
1*
0+
1,
b0 4
b1 @

#1000000
0!
0,

#1005000
1!
1,
b1 4

#1010000
0!
0,

#1015000
1!
1,
b10 4

#1020000
0!
0,

#1025000
1!
1,
b11 4

#1030000
0!
0,

#1035000
1!
1,
b100 4

#1040000
0!
0,

#1045000
1!
1,
b101 4

#1050000
0!
0,

#1055000
1!
1,
b110 4
b10 A

#1060000
0!
0,

#1065000
1!
b10101011 )
1,
b111 4
b10 @
b11 A

#1070000
0!
0,

#1075000
1!
b110101 )
1,
b0 5
b110101 >
1?
b11 @
b110101 B
1C
b100100011000101100111011111 F
b100100011000101100111011111 G
b1000 I
b100000 J

#1080000
0!
0,

#1085000
1!
1,
b1 5
b100100011000101100111011111 =
b100100011000101100111011111 D
b100100011000101100111011111 E
b1011100101010101010111100100111 F
b1011100101010101010111100100111 G
b1000 I
b100000 J

#1090000
0!
0,

#1095000
1!
1,
b10 5
b1011100101010101010111100100111 =
b1011100101010101010111100100111 D
b1011100101010101010111100100111 E
b100100110000110001000110011000 F
b100100110000110001000110011000 G
b1000 I
b100000 J

#1100000
0!
0,

#1105000
1!
1,
b11 5
b100100110000110001000110011000 =
b100100110000110001000110011000 D
b100100110000110001000110011000 E
b10001011110000010101111011000111 F
b10001011110000010101111011000111 G
b1000 I
b100000 J

#1110000
0!
0,

#1115000
1!
1,
b100 5
b10001011110000010101111011000111 =
b10001011110000010101111011000111 D
b10001011110000010101111011000111 E
b1000000111011101110101001110100 F
b1000000111011101110101001110100 G
b1000 I
b100000 J

#1120000
0!
0,

#1125000
1!
1,
b101 5
b1000000111011101110101001110100 =
b100 A
b1000000111011101110101001110100 D
b1000000111011101110101001110100 E
b11001100110110000001010001100 F
b11001100110110000001010001100 G
b1000 I
b100000 J

#1130000
0!
0,

#1135000
1!
b10000110 )
1,
b110 5
b0 6
b11001100110110000001010001100 =
b10000110 >
b100 @
b100 A
b10000110 B
b11001100110110000001010001100 D
b11001100110110000001010001100 E
b10000110010100000000101000100011 F
b10000110010100000000101000100011 G
b1000 I
b100000 J

#1140000
0!
0,

#1145000
1!
1,
b1 6
b10000110010100000000101000100011 =
b10000110010100000000101000100011 D
b10000110010100000000101000100011 E
b1010000000010100010001100000000 F
b1010000000010100010001100000000 G
b1000 I
b100000 J

#1150000
0!
0,

#1155000
1!
1,
b10 6
b1010000000010100010001100000000 =
b1010000000010100010001100000000 D
b1010000000010100010001100000000 E
b1001111100000011001011011 F
b1001111100000011001011011 G
b1000 I
b100000 J

#1160000
0!
0,

#1165000
1!
1,
b11 6
b1001111100000011001011011 =
b1001111100000011001011011 D
b1001111100000011001011011 E
b1001001010011011110101111101011 F
b1001001010011011110101111101011 G
b1000 I
b100000 J

#1170000
0!
0,

#1175000
1!
1,
b100 6
b1001001010011011110101111101011 =
b1001001010011011110101111101011 D
b1001001010011011110101111101011 E
b101000001011101100011000100100 F
b101000001011101100011000100100 G
b1000 I
b100000 J

#1180000
0!
0,

#1185000
1!
1,
b101 6
b101000001011101100011000100100 =
b101 A
b101000001011101100011000100100 D
b101000001011101100011000100100 E
b11100011011001111101001000000100 F
b11100011011001111101001000000100 G
b1000 I
b100000 J

#1190000
0!
0,

#1195000
1!
b100111 )
1,
b110 6
b11100011011001111101001000000100 =
b100111 >
b101 @
b101 A
b100111 B
b11100011011001111101001000000100 D
b11100011011001111101001000000100 E
b101001010111001110001001000101 F
b101001010111001110001001000101 G
b1000 I
b100000 J

#1200000
0!
0,

#1205000
1!
1,
17
b101001010111001110001001000101 =
b111 A
b101001010111001110001001000101 D
b101001010111001110001001000101 E
b1100000011011001110010100001010 F
b1100000011011001110010100001010 G
b1000 I
b100000 J

#1210000
0!
0,

#1215000
1!
b1000010 )
1,
07
b0 8
b1100000011011001110010100001010 =
b1000010 >
b111 @
b111 A
b1000010 B
b1100000011011001110010100001010 D
b1100000011011001110010100001010 E
b11111101010001001000011110001110 F
b11111101010001001000011110001110 G
b1000 I
b100000 J

#1220000
0!
0,

#1225000
1!
1,
b1 8
b11111101010001001000011110001110 =
b11111101010001001000011110001110 D
b11111101010001001000011110001110 E
b11000001111101101011111011000011 F
b11000001111101101011111011000011 G
b1000 I
b100000 J

#1230000
0!
0,

#1235000
1!
1,
b10 8
b11000001111101101011111011000011 =
b11000001111101101011111011000011 D
b11000001111101101011111011000011 E
b10010010111100010000010100110111 F
b10010010111100010000010100110111 G
b1000 I
b100000 J

#1240000
0!
0,

#1245000
1!
1,
b11 8
b10010010111100010000010100110111 =
b10010010111100010000010100110111 D
b10010010111100010000010100110111 E
b11100000100111100111110011101001 F
b11100000100111100111110011101001 G
b1000 I
b100000 J

#1250000
0!
0,

#1255000
1!
1,
b100 8
b11100000100111100111110011101001 =
b1001 A
b11100000100111100111110011101001 D
b11100000100111100111110011101001 E
b1100110110100011000010001100000 F
b1100110110100011000010001100000 G
b1000 I
b100000 J

#1260000
0!
0,

#1265000
1!
b1100110 )
1,
b101 8
b1100110110100011000010001100000 =
bx >
0?
b1001 @
b1001 A
bx B
0C
b1100110110100011000010001100000 D
b1100110110100011000010001100000 E
bx F
bx G
b1000 I
b100000 J

#1270000
0!
0,

#1275000
1!
b11010001 )
1,
b1 :

#1280000
0!
0,

#1285000
1!
b10000100 )
1,
b10 :

#1290000
0!
0,

#1295000
1!
b1100000 )
1,
b11 :
b1010 A

#1300000
0!
0,

#1305000
1!
b0 )
0*
1,
b0 :
b0 ;
b1010 @
b1010 A

#1310000
0!
0,

#1315000
1!
1,
b1 ;

#1320000
0!
0,

#1325000
1!
1,
b10 ;

#1330000
0!
0,

#1335000
1!
1,
b11 ;

#1340000
0!
0,

#1345000
1!
1,
b100 ;

#1350000
0!
0,

#1355000
1!
1,
b101 ;

#1360000
0!
0,

#1365000
1!
1,
b110 ;

#1370000
0!
0,

#1375000
1!
1,
b111 ;

#1380000
0!
0,

#1385000
1!
1,
b1000 ;

#1390000
0!
0,

#1395000
1!
1,
b1001 ;

#1400000
0!
0,

#1405000
1!
1,
b1010 ;

#1410000
0!
0,

#1415000
1!
1+
1,
b1011 ;
b0 A

#1420000
0!
0,

#1425000
1!
1,
b1100 ;
b0 @
b1 A

#1430000
0!
0,

#1435000
1!
b1010101 )
1*
0+
1,
b0 4
b1 @

#1440000
0!
0,

#1445000
1!
1,
b1 4

#1450000
0!
0,

#1455000
1!
1,
b10 4

#1460000
0!
0,

#1465000
1!
1,
b11 4

#1470000
0!
0,

#1475000
1!
1,
b100 4

#1480000
0!
0,

#1485000
1!
1,
b101 4

#1490000
0!
0,

#1495000
1!
1,
b110 4
b10 A

#1500000
0!
0,

#1505000
1!
b10101011 )
1,
b111 4
b10 @
b11 A

#1510000
0!
0,

#1515000
1!
b110101 )
1,
b0 5
b110101 >
1?
b11 @
b110101 B
1C
b10100100010100001110110111011110 F
b10100100010100001110110111011110 G
b1000 I
b100000 J

#1520000
0!
0,

#1525000
1!
1,
b1 5
b10100100010100001110110111011110 =
b10100100010100001110110111011110 D
b10100100010100001110110111011110 E
b1110001001100011111100000101001 F
b1110001001100011111100000101001 G
b1000 I
b100000 J

#1530000
0!
0,

#1535000
1!
1,
b10 5
b1110001001100011111100000101001 =
b1110001001100011111100000101001 D
b1110001001100011111100000101001 E
b10110011110100010111110101011 F
b10110011110100010111110101011 G
b1000 I
b100000 J

#1540000
0!
0,

#1545000
1!
1,
b11 5
b10110011110100010111110101011 =
b10110011110100010111110101011 D
b10110011110100010111110101011 E
b11101111010011110011101100111001 F
b11101111010011110011101100111001 G
b1000 I
b100000 J

#1550000
0!
0,

#1555000
1!
1,
b100 5
b11101111010011110011101100111001 =
b11101111010011110011101100111001 D
b11101111010011110011101100111001 E
b1110001001010101010010000111111 F
b1110001001010101010010000111111 G
b1000 I
b100000 J

#1560000
0!
0,

#1565000
1!
1,
b101 5
b1110001001010101010010000111111 =
b100 A
b1110001001010101010010000111111 D
b1110001001010101010010000111111 E
b1101001001100011100110101011 F
b1101001001100011100110101011 G
b1000 I
b100000 J

#1570000
0!
0,

#1575000
1!
b10000110 )
1,
b110 5
b0 6
b1101001001100011100110101011 =
b10000110 >
b100 @
b100 A
b10000110 B
b1101001001100011100110101011 D
b1101001001100011100110101011 E
b1100100011111101000000010001111 F
b1100100011111101000000010001111 G
b1000 I
b100000 J

#1580000
0!
0,

#1585000
1!
1,
b1 6
b1100100011111101000000010001111 =
b1100100011111101000000010001111 D
b1100100011111101000000010001111 E
b10110010101010111001001000010111 F
b10110010101010111001001000010111 G
b1000 I
b100000 J

#1590000
0!
0,

#1595000
1!
1,
b10 6
b10110010101010111001001000010111 =
b10110010101010111001001000010111 D
b10110010101010111001001000010111 E
b1101100101001000000110001001100 F
b1101100101001000000110001001100 G
b1000 I
b100000 J

#1600000
0!
0,

#1605000
1!
1,
b11 6
b1101100101001000000110001001100 =
b1101100101001000000110001001100 D
b1101100101001000000110001001100 E
b1001110001011111011110010101111 F
b1001110001011111011110010101111 G
b1000 I
b100000 J

#1610000
0!
0,

#1615000
1!
1,
b100 6
b1001110001011111011110010101111 =
b1001110001011111011110010101111 D
b1001110001011111011110010101111 E
b1010100001111101101001000100001 F
b1010100001111101101001000100001 G
b1000 I
b100000 J

#1620000
0!
0,

#1625000
1!
1,
b101 6
b1010100001111101101001000100001 =
b101 A
b1010100001111101101001000100001 D
b1010100001111101101001000100001 E
b100110110010110101000110000111 F
b100110110010110101000110000111 G
b1000 I
b100000 J

#1630000
0!
0,

#1635000
1!
b100111 )
1,
b110 6
b100110110010110101000110000111 =
b100111 >
b101 @
b101 A
b100111 B
b100110110010110101000110000111 D
b100110110010110101000110000111 E
b11001111100100001001101010110111 F
b11001111100100001001101010110111 G
b1000 I
b100000 J

#1640000
0!
0,

#1645000
1!
1,
17
b11001111100100001001101010110111 =
b111 A
b11001111100100001001101010110111 D
b11001111100100001001101010110111 E
b1110011001110110111110011000001 F
b1110011001110110111110011000001 G
b1000 I
b100000 J

#1650000
0!
0,

#1655000
1!
b1000010 )
1,
07
b0 8
b1110011001110110111110011000001 =
b1000010 >
b111 @
b111 A
b1000010 B
b1110011001110110111110011000001 D
b1110011001110110111110011000001 E
b11101011100011111011000100100111 F
b11101011100011111011000100100111 G
b1000 I
b100000 J

#1660000
0!
0,

#1665000
1!
1,
b1 8
b11101011100011111011000100100111 =
b11101011100011111011000100100111 D
b11101011100011111011000100100111 E
b1011100010101111000000100000001 F
b1011100010101111000000100000001 G
b1000 I
b100000 J

#1670000
0!
0,

#1675000
1!
1,
b10 8
b1011100010101111000000100000001 =
b1011100010101111000000100000001 D
b1011100010101111000000100000001 E
b100111000111100111101001111010 F
b100111000111100111101001111010 G
b1000 I
b100000 J

#1680000
0!
0,

#1685000
1!
1,
b11 8
b100111000111100111101001111010 =
b100111000111100111101001111010 D
b100111000111100111101001111010 E
b10100101000110101101011111111100 F
b10100101000110101101011111111100 G
b1000 I
b100000 J

#1690000
0!
0,

#1695000
1!
1,
b100 8
b10100101000110101101011111111100 =
b1001 A
b10100101000110101101011111111100 D
b10100101000110101101011111111100 E
b11000001001110011000101001111100 F
b11000001001110011000101001111100 G
b1000 I
b100000 J

#1700000
0!
0,

#1705000
1!
b11000001 )
1,
b101 8
b11000001001110011000101001111100 =
bx >
0?
b1001 @
b1001 A
bx B
0C
b11000001001110011000101001111100 D
b11000001001110011000101001111100 E
bx F
bx G
b1000 I
b100000 J

#1710000
0!
0,

#1715000
1!
b111001 )
1,
b1 :

#1720000
0!
0,

#1725000
1!
b10001010 )
1,
b10 :

#1730000
0!
0,

#1735000
1!
b1111100 )
1,
b11 :
b1010 A

#1740000
0!
0,

#1745000
1!
b0 )
0*
1,
b0 :
b0 ;
b1010 @
b1010 A

#1750000
0!
0,

#1755000
1!
1,
b1 ;

#1760000
0!
0,

#1765000
1!
1,
b10 ;

#1770000
0!
0,

#1775000
1!
1,
b11 ;

#1780000
0!
0,

#1785000
1!
1,
b100 ;

#1790000
0!
0,

#1795000
1!
1,
b101 ;

#1800000
0!
0,

#1805000
1!
1,
b110 ;

#1810000
0!
0,

#1815000
1!
1,
b111 ;

#1820000
0!
0,

#1825000
1!
1,
b1000 ;

#1830000
0!
0,

#1835000
1!
1,
b1001 ;

#1840000
0!
0,

#1845000
1!
1,
b1010 ;

#1850000
0!
0,

#1855000
1!
1+
1,
b1011 ;
b0 A

#1860000
0!
0,

#1865000
1!
1,
b1100 ;
b0 @
b1 A

#1870000
0!
0,

#1875000
1!
b1010101 )
1*
0+
1,
b0 4
b1 @

#1880000
0!
0,

#1885000
1!
1,
b1 4

#1890000
0!
0,

#1895000
1!
1,
b10 4

#1900000
0!
0,

#1905000
1!
1,
b11 4

#1910000
0!
0,

#1915000
1!
1,
b100 4

#1920000
0!
0,

#1925000
1!
1,
b101 4

#1930000
0!
0,

#1935000
1!
1,
b110 4
b10 A

#1940000
0!
0,

#1945000
1!
b10101011 )
1,
b111 4
b10 @
b11 A

#1950000
0!
0,

#1955000
1!
b110101 )
1,
b0 5
b110101 >
1?
b11 @
b110101 B
1C
b10100011001101101111011111010101 F
b10100011001101101111011111010101 G
b1000 I
b100000 J

#1960000
0!
0,

#1965000
1!
1,
b1 5
b10100011001101101111011111010101 =
b10100011001101101111011111010101 D
b10100011001101101111011111010101 E
b1001011011001010001100101100 F
b1001011011001010001100101100 G
b1000 I
b100000 J

#1970000
0!
0,

#1975000
1!
1,
b10 5
b1001011011001010001100101100 =
b1001011011001010001100101100 D
b1001011011001010001100101100 E
b10001101100111011101101011110100 F
b10001101100111011101101011110100 G
b1000 I
b100000 J

#1980000
0!
0,

#1985000
1!
1,
b11 5
b10001101100111011101101011110100 =
b10001101100111011101101011110100 D
b10001101100111011101101011110100 E
b110111011001001010011000110 F
b110111011001001010011000110 G
b1000 I
b100000 J

#1990000
0!
0,

#1995000
1!
1,
b100 5
b110111011001001010011000110 =
b110111011001001010011000110 D
b110111011001001010011000110 E
b110101111001011000110101001001 F
b110101111001011000110101001001 G
b1000 I
b100000 J

