code/sim/CRC_Gen.vcd
$date
   Mon Feb 23 21:39:21 2026
$end

$version
  2024.2.0
  $dumpfile ("CRC_Gen.vcd") 
$end

$timescale
  1ps
$end

$scope module CRC32_tb $end
$var reg 1 ! clk $end
$var reg 1 " rst $end
$var reg 1 # crc_en $end
$var reg 8 $ data [7:0] $end
$var reg 32 % crc [31:0] $end
$scope module DUT $end
$var wire 1 & clk $end
$var wire 1 ' reset $end
$var wire 8 ( data_in [7:0] $end
$var wire 1 ) valid $end
$var wire 32 * crc_out [31:0] $end
$var reg 32 + crc [31:0] $end
$var reg 32 , crc_prev [31:0] $end
$var reg 32 - crc_next [31:0] $end
$scope begin Block35_3 $end
$var reg 32 . i [31:0] $end
$scope begin Block37_4 $end
$var reg 32 / j [31:0] $end
$upscope $end
$upscope $end
$upscope $end
$scope task clk_gen $end
$upscope $end
$scope task apply_reset $end
$upscope $end
$upscope $end
$enddefinitions $end

#0
$dumpvars
0!
0"
0#
b0 $
bx %
0&
0'
b0 (
0)
bx *
bx +
bx ,
bx -
b1000 .
b11111 /
$end

#5000
1!
1"
b11111111111111111111111111111111 %
1&
1'
b11111111111111111111111111111111 *
b0 +
b0 ,
b0 -
b1000 .
b11111 /

#10000
0!
0&

#15000
1!
0"
1&
0'

#20000
0!
0&

#25000
1!
1&

#30000
0!
0&

#35000
1!
1&

#40000
0!
0&

#45000
1!
1&

#50000
0!
0&

#55000
1!
1&

#60000
0!
0&

#65000
1!
1&

#70000
0!
0&

#75000
1!
1&

#80000
0!
0&

#85000
1!
1&

#90000
0!
0&

#95000
1!
1#
b11111111 $
1&
b11111111 (
1)
b111100101101000110011001101101 ,
b111100101101000110011001101101 -
b1000 .
b11111 /

#100000
0!
0&

#105000
1!
b0 $
b11000011010010111001100110010010 %
1&
b0 (
b11000011010010111001100110010010 *
b111100101101000110011001101101 +
b110100011001100110110100000000 ,
b110100011001100110110100000000 -
b1000 .
b11111 /

#110000
0!
0&

#115000
1!
b11001011100110011001001011111111 %
1&
b11001011100110011001001011111111 *
b110100011001100110110100000000 +
b1100110011011010000000000000000 ,
b1100110011011010000000000000000 -
b1000 .
b11111 /

#120000
0!
0&

#125000
1!
b10011001100100101111111111111111 %
1&
b10011001100100101111111111111111 *
b1100110011011010000000000000000 +
b1101101000000000000000000000000 ,
b1101101000000000000000000000000 -
b1000 .
b11111 /

#130000
0!
0&

#135000
1!
b11110 $
b10010010111111111111111111111111 %
1&
b11110 (
b10010010111111111111111111111111 *
b1101101000000000000000000000000 +
b11110 ,
b11110 -
b1000 .
b11111 /

#140000
0!
0&

#145000
1!
b11110000 $
b11111111111111111111111111100001 %
1&
b11110000 (
b11111111111111111111111111100001 *
b11110 +
b111100101101000111100001100010 ,
b111100101101000111100001100010 -
b1000 .
b11111 /

#150000
0!
0&

#155000
1!
b11110 $
b11000011010010111000011110011101 %
1&
b11110 (
b11000011010010111000011110011101 *
b111100101101000111100001100010 +
b110100011110000110001000011110 ,
b110100011110000110001000011110 -
b1000 .
b11111 /

#160000
0!
0&

#165000
1!
b11000111 $
b11001011100001111001110111100001 %
1&
b11000111 (
b11001011100001111001110111100001 *
b110100011110000110001000011110 +
b1000100110101100111100001010101 ,
b1000100110101100111100001010101 -
b1000 .
b11111 /

#170000
0!
0&

#175000
1!
b1001111 $
b10111011001010011000011110101010 %
1&
b1001111 (
b10111011001010011000011110101010 *
b1000100110101100111100001010101 +
b1101010110011000011001111011101 ,
b1101010110011000011001111011101 -
b1000 .
b11111 /

#180000
0!
0&

#185000
1!
b10000010 $
b10010101001100111100110000100010 %
1&
b10000010 (
b10010101001100111100110000100010 *
b1101010110011000011001111011101 +
b1001100001100111101110110000010 ,
b1001100001100111101110110000010 -
b1000 .
b11111 /

#190000
0!
0&

#195000
1!
b1111000 $
b10110011110011000010001001111101 %
1&
b1111000 (
b10110011110011000010001001111101 *
b1001100001100111101110110000010 +
b1111011010011110010011101010 ,
b1111011010011110010011101010 -
b1000 .
b11111 /

#200000
0!
0&

#205000
1!
b11000101 $
b11110000100101100001101100010101 %
1&
b11000101 (
b11110000100101100001101100010101 *
b1111011010011110010011101010 +
b1010101010100001000110001010111 ,
b1010101010100001000110001010111 -
b1000 .
b11111 /

#210000
0!
0&

#215000
1!
b10000010 $
b10101010101011110111001110101000 %
1&
b10000010 (
b10101010101011110111001110101000 *
b1010101010100001000110001010111 +
b1010000100011000101011110000010 ,
b1010000100011000101011110000010 -
b1000 .
b11111 /

#220000
0!
0&

#225000
1!
b11100000 $
b10101111011100111010100001111101 %
1&
b11100000 (
b10101111011100111010100001111101 *
b1010000100011000101011110000010 +
b110000111000111110010001110010 ,
b110000111000111110010001110010 -
b1000 .
b11111 /

#230000
0!
0&

#235000
1!
b10001100 $
b11001111000111000001101110001101 %
1&
b10001100 (
b11001111000111000001101110001101 *
b110000111000111110010001110010 +
b1100011111001000111001010001100 ,
b1100011111001000111001010001100 -
b1000 .
b11111 /

#240000
0!
0&

#245000
1!
b1110000 $
b10011100000110111000110101110011 %
1&
b1110000 (
b10011100000110111000110101110011 *
b1100011111001000111001010001100 +
b1011000110001101110101011100010 ,
b1011000110001101110101011100010 -
b1000 .
b11111 /

#250000
0!
0&

#255000
1!
b11010010 $
b10100111001110010001010100011101 %
1&
b11010010 (
b10100111001110010001010100011101 *
b1011000110001101110101011100010 +
b1111010010111101000010001000000 ,
b1111010010111101000010001000000 -
b1000 .
b11111 /

#260000
0!
0&

#265000
1!
b111100 $
b10000101101000010111101110111111 %
1&
b111100 (
b10000101101000010111101110111111 *
b1111010010111101000010001000000 +
b1011110100001000100000000111100 ,
b1011110100001000100000000111100 -
b1000 .
b11111 /

#270000
0!
0&

#275000
1!
b1111000 $
b10100001011110111011111111000011 %
1&
b1111000 (
b10100001011110111011111111000011 *
b1011110100001000100000000111100 +
b111000111101000101101011101010 ,
b111000111101000101101011101010 -
b1000 .
b11111 /

#280000
0!
0&

#285000
1!
b11101001 $
b11000111000010111010010100010101 %
1&
b11101001 (
b11000111000010111010010100010101 *
b111000111101000101101011101010 +
b1001000111011101000110001111011 ,
b1001000111011101000110001111011 -
b1000 .
b11111 /

#290000
0!
0&

#295000
1!
b11111111 $
b10110111000100010111001110000100 %
1&
b11111111 (
b10110111000100010111001110000100 *
b1001000111011101000110001111011 +
b1010010001110000001110101101101 ,
b1010010001110000001110101101101 -
b1000 .
b11111 /

#300000
0!
0&

#305000
1!
b0 $
b10101101110001111110001010010010 %
1&
b0 (
b10101101110001111110001010010010 *
b1010010001110000001110101101101 +
b111000000111010110110100000000 ,
b111000000111010110110100000000 -
b1000 .
b11111 /

#310000
0!
0&

#315000
1!
b11000111111000101001001011111111 %
1&
b11000111111000101001001011111111 *
b111000000111010110110100000000 +
b11101011011010000000000000000 ,
b11101011011010000000000000000 -
b1000 .
b11111 /

#320000
0!
0&

#325000
1!
b1 $
b11100010100100101111111111111111 %
1&
b1 (
b11100010100100101111111111111111 *
b11101011011010000000000000000 +
b1101101000000000000000000000001 ,
b1101101000000000000000000000001 -
b1000 .
b11111 /

#330000
0!
0&

#335000
1!
0#
b0 $
b10010010111111111111111111111110 %
1&
b0 (
0)
b10010010111111111111111111111110 *
b1101101000000000000000000000001 +
b100000000 ,
b100000000 -
b1000 .
b11111 /

