code/final/sim/Final.vcd
$date
   Tue Mar 10 14:37:41 2026
$end

$version
  2024.2.0
  $dumpfile ("Final.vcd") 
$end

$timescale
  1ps
$end

$scope module Top_Layer_tb $end
$var reg 1 ! clk $end
$var reg 1 " reset $end
$var reg 1 # start $end
$var reg 48 $ MAC_dest_addr_in [47:0] $end
$var reg 48 % MAC_source_addr_in [47:0] $end
$var reg 16 & ethernet_type_in [15:0] $end
$var reg 101 ' payload_in [100:0] $end
$var reg 11 ( payload_length [10:0] $end
$var reg 1 ) CRC32_error $end
$var reg 1 * CRC32_correct $end
$var reg 32 + CRC32_crc [31:0] $end
$var reg 1 , Check_done $end
$var reg 48 - MAC_dest_addr_out [47:0] $end
$var reg 48 . MAC_source_addr_out [47:0] $end
$var reg 16 / ethernet_type_out [15:0] $end
$var reg 101 0 payload_out [100:0] $end
$scope module dut $end
$var wire 1 1 clk $end
$var wire 1 2 reset $end
$var wire 1 3 start $end
$var wire 48 4 MAC_dest_addr_in [47:0] $end
$var wire 48 5 MAC_source_addr_in [47:0] $end
$var wire 16 6 ethernet_type_in [15:0] $end
$var wire 101 7 payload_in [100:0] $end
$var wire 11 8 payload_length [10:0] $end
$var reg 1 ) CRC32_error $end
$var reg 1 * CRC32_correct $end
$var reg 32 + CRC32_crc [31:0] $end
$var reg 1 , Check_done $end
$var reg 48 - MAC_dest_addr_out [47:0] $end
$var reg 48 . MAC_source_addr_out [47:0] $end
$var reg 16 / ethernet_type_out [15:0] $end
$var reg 101 0 payload_out [100:0] $end
$var reg 8 9 tx_data_tx [7:0] $end
$var reg 1 : tx_valid_tx $end
$var reg 1 ; frame_done_tx $end
$var reg 8 < rx_data_rx [7:0] $end
$var reg 1 = rx_valid_rx $end
$scope module Transmit $end
$var wire 1 1 clk $end
$var wire 1 2 reset $end
$var wire 1 3 start $end
$var wire 48 4 MAC_dest_addr [47:0] $end
$var wire 48 5 MAC_source_addr [47:0] $end
$var wire 16 6 ethernet_type [15:0] $end
$var wire 101 7 payload [100:0] $end
$var wire 11 8 payload_length [10:0] $end
$var reg 8 9 tx_data [7:0] $end
$var reg 1 : tx_valid $end
$var reg 1 ; frame_done $end
$var reg 3 > cnt_preamble [2:0] $end
$var reg 3 ? cnt_MAC_dest [2:0] $end
$var reg 3 @ cnt_MAC_source [2:0] $end
$var reg 1 A cnt_ethernet_type $end
$var reg 11 B cnt_payload [10:0] $end
$var reg 6 C cnt_pad [5:0] $end
$var reg 2 D cnt_fcs [1:0] $end
$var reg 4 E cnt_ipg [3:0] $end
$var reg 11 F MAX_payload [10:0] $end
$var reg 32 G CRC32_crc [31:0] $end
$var reg 8 H CRC32_data [7:0] $end
$var reg 1 I CRC32_valid $end
$var reg 32 J state $end
$var reg 32 K next_state $end
$scope module CRC32_tx $end
$var wire 1 1 clk $end
$var wire 1 2 reset $end
$var wire 8 L data_in [7:0] $end
$var wire 1 M valid $end
$var wire 32 N crc_out [31:0] $end
$var reg 32 O crc [31:0] $end
$var reg 32 P crc_prev [31:0] $end
$var reg 32 Q crc_next [31:0] $end
$var reg 4 R debug [3:0] $end
$scope begin Block41_3 $end
$var reg 32 S i [31:0] $end
$scope begin Block43_4 $end
$var reg 32 T j [31:0] $end
$upscope $end
$upscope $end
$upscope $end
$upscope $end
$scope module Receive $end
$var wire 1 1 clk $end
$var wire 1 2 reset $end
$var wire 8 U rx_data [7:0] $end
$var wire 1 V rx_valid $end
$var reg 1 ) CRC32_error $end
$var reg 1 * CRC32_correct $end
$var reg 32 + CRC32_crc [31:0] $end
$var reg 1 , Check_done $end
$var reg 48 - MAC_dest_addr [47:0] $end
$var reg 48 . MAC_source_addr [47:0] $end
$var reg 16 / ethernet_type [15:0] $end
$var reg 101 0 payload [100:0] $end
$var reg 8 W CRC32_data [7:0] $end
$var reg 1 X CRC32_valid $end
$var reg 8 Y fifo_data [7:0] $end
$var reg 1 Z fifo_rd_en $end
$var reg 1 [ fifo_wr_en $end
$var reg 1 \ fifo_empty $end
$var reg 1 ] fifo_full $end
$var reg 8 ^ fifo_used_memory [7:0] $end
$var reg 8 _ length_payload_fcs [7:0] $end
$var reg 1 ` debug $end
$var reg 3 a cnt_preamble [2:0] $end
$var reg 3 b cnt_MAC_dest [2:0] $end
$var reg 3 c cnt_MAC_source [2:0] $end
$var reg 1 d cnt_ethernet_type $end
$var reg 11 e cnt_payload [10:0] $end
$var reg 6 f cnt_pad [5:0] $end
$var reg 2 g cnt_fcs [1:0] $end
$var reg 4 h cnt_ipg [3:0] $end
$var reg 32 i state $end
$var reg 32 j next_state $end
$scope module rx_fifo $end
$var wire 1 1 clk $end
$var wire 1 2 reset $end
$var wire 1 k push $end
$var wire 8 U wr_data [7:0] $end
$var wire 1 l pop $end
$var reg 8 Y rd_data [7:0] $end
$var reg 1 ] fifo_full $end
$var reg 1 \ fifo_empty $end
$var reg 11 m fifo_used_memory [10:0] $end
$var reg 11 n wr_ptr [10:0] $end
$var reg 11 o rd_ptr [10:0] $end
$var reg 11 p wr_ptr_nxt [10:0] $end
$var reg 11 q rd_ptr_nxt [10:0] $end
$var reg 1 r write_enable $end
$var reg 8 s rd_data_raw [7:0] $end
$scope module fifo_ram $end
$var wire 1 1 clk $end
$var wire 1 t we $end
$var wire 11 u wr_addr [10:0] $end
$var wire 8 U wr_data [7:0] $end
$var wire 11 v rd_addr [10:0] $end
$var reg 8 s rd_data [7:0] $end
$upscope $end
$upscope $end
$scope module CRC32_rx $end
$var wire 1 1 clk $end
$var wire 1 2 reset $end
$var wire 8 w data_in [7:0] $end
$var wire 1 x valid $end
$var wire 32 y crc_out [31:0] $end
$var reg 32 z crc [31:0] $end
$var reg 32 { crc_prev [31:0] $end
$var reg 32 | crc_next [31:0] $end
$var reg 4 } debug [3:0] $end
$scope begin Block41_3 $end
$var reg 32 ~ i [31:0] $end
$scope begin Block43_4 $end
$var reg 32 !! j [31:0] $end
$upscope $end
$upscope $end
$upscope $end
$upscope $end
$upscope $end
$scope task clk_gen $end
$upscope $end
$scope task apply_reset $end
$upscope $end
$upscope $end
$enddefinitions $end

#0
$dumpvars
0!
b100000 !!
0"
0#
bx $
bx %
bx &
bx '
bx (
0)
0*
bx +
0,
bx -
bx .
bx /
bx 0
01
02
03
bx 4
bx 5
bx 6
bx 7
bx 8
bx 9
x:
x;
bx <
x=
bx >
bx ?
bx @
xA
bx B
bx C
bx D
bx E
bx F
bx G
bx H
xI
b0 J
b0 K
bx L
xM
bx N
bx O
bx P
bx Q
bx R
b1000 S
b100000 T
bx U
xV
bx W
0X
bx Y
0Z
0[
x\
x]
bx ^
bx _
x`
bx a
bx b
bx c
xd
bx e
bx f
bx g
bx h
b0 i
b0 j
0k
0l
bx m
bx n
bx o
bx p
bx q
0r
bx s
0t
bx u
bx v
bx w
0x
bx y
bx z
bx {
bx |
bx }
b1000 ~
$end

#5000
1!
b100000 !!
1"
b11111111111111111111111111111111 +
11
12
b0 >
b0 ?
b0 @
0A
b0 B
b0 C
b0 D
b0 E
b11111111111111111111111111111111 G
b11111111111111111111111111111111 N
b11111111111111111111111111111111 O
bx P
bx Q
b1000 S
b100000 T
1\
0]
b0 ^
b0 a
b0 b
b0 c
0d
b0 e
b0 f
b0 g
b0 h
b0 j
b0 m
b0 n
b0 o
b1 p
b1 q
b0 u
b0 v
b11111111111111111111111111111111 y
b11111111111111111111111111111111 z
bx {
bx |
b1000 ~

#10000
0!
01

#15000
1!
0"
11
02
b0 9
0;
0I
0M
b0 U
b0 j

#20000
0!
01

#25000
1!
11

#30000
0!
01

#35000
1!
11

#40000
0!
01

#45000
1!
11

#50000
0!
01

#55000
1!
11

#60000
0!
01

#65000
1!
11

#70000
0!
01

#75000
1!
11

#80000
0!
01

#85000
1!
11

#90000
0!
01

#95000
1!
b1101010011010100110101001101010011010100110101 $
b100001101000011010000110100001101000011010000110 %
b10011100100111 &
bx0100001001000010010000100100001001000010 '
b101 (
11
b1101010011010100110101001101010011010100110101 4
b100001101000011010000110100001101000011010000110 5
b10011100100111 6
bx0100001001000010010000100100001001000010 7
b101 8

#100000
0!
01

#105000
1!
1#
11
13
b1 K

#110000
0!
01

#115000
1!
11
b1010101 9
1:
b1 J
b1010101 U
1V
b1 j

#120000
0!
01

#125000
1!
11
b1 >
b1 i

#130000
0!
01

#135000
1!
11
b10 >
b1 a

#140000
0!
01

#145000
1!
11
b11 >
b10 a

#150000
0!
01

#155000
1!
11
b100 >
b11 a

#160000
0!
01

#165000
1!
11
b101 >
b100 a

#170000
0!
01

#175000
1!
11
b110 >
b10 K
b101 a
b10 j

#180000
0!
01

#185000
1!
11
b10101011 9
b111 >
b10 J
b11 K
b10101011 U
b110 a
b10 i
b11 j

#190000
0!
01

#195000
1!
b100000 !!
b110101xxxxxxxxxxxxxxxxxxxxxxxxxxxxxxxxxxxxxxxx -
11
b110101 9
b110101 H
1I
b11 J
b110101 L
1M
b10001101111111111011100101001111 P
b10001101111111111011100101001111 Q
b1000 S
b100000 T
b110101 U
b110101 W
1X
b11 i
b110101 w
1x
b10001101111111111011100101001111 {
b10001101111111111011100101001111 |
b1000 ~

#200000
0!
01

#205000
1!
b100000 !!
b10001101111111111011100101001111 +
b11010100110101xxxxxxxxxxxxxxxxxxxxxxxxxxxxxxxx -
11
b1 ?
b10001101111111111011100101001111 G
b10001101111111111011100101001111 N
b10001101111111111011100101001111 O
b1100100100011110010111111000110 P
b1100100100011110010111111000110 Q
b1000 S
b100000 T
b1 b
b10001101111111111011100101001111 y
b10001101111111111011100101001111 z
b1100100100011110010111111000110 {
b1100100100011110010111111000110 |
b1000 ~

#210000
0!
01

#215000
1!
b100000 !!
b1100100100011110010111111000110 +
b1101010011010100110101xxxxxxxxxxxxxxxxxxxxxxxx -
11
b10 ?
b1100100100011110010111111000110 G
b1100100100011110010111111000110 N
b1100100100011110010111111000110 O
b11110011011110010111000010110000 P
b11110011011110010111000010110000 Q
b1000 S
b100000 T
b10 b
b1100100100011110010111111000110 y
b1100100100011110010111111000110 z
b11110011011110010111000010110000 {
b11110011011110010111000010110000 |
b1000 ~

#220000
0!
01

#225000
1!
b100000 !!
b11110011011110010111000010110000 +
b110101001101010011010100110101xxxxxxxxxxxxxxxx -
11
b11 ?
b11110011011110010111000010110000 G
b11110011011110010111000010110000 N
b11110011011110010111000010110000 O
b111110011111000110110100101011 P
b111110011111000110110100101011 Q
b1000 S
b100000 T
b11 b
b11110011011110010111000010110000 y
b11110011011110010111000010110000 z
b111110011111000110110100101011 {
b111110011111000110110100101011 |
b1000 ~

#230000
0!
01

#235000
1!
b100000 !!
b111110011111000110110100101011 +
b11010100110101001101010011010100110101xxxxxxxx -
11
b100 ?
b111110011111000110110100101011 G
b111110011111000110110100101011 N
b111110011111000110110100101011 O
b1010111001001101110000001100001 P
b1010111001001101110000001100001 Q
b1000 S
b100000 T
b100 b
b111110011111000110110100101011 y
b111110011111000110110100101011 z
b1010111001001101110000001100001 {
b1010111001001101110000001100001 |
b1000 ~

#240000
0!
01

#245000
1!
b100000 !!
b1010111001001101110000001100001 +
b1101010011010100110101001101010011010100110101 -
11
b101 ?
b1010111001001101110000001100001 G
b100 K
b1010111001001101110000001100001 N
b1010111001001101110000001100001 O
b10000011110001111001110011111001 P
b10000011110001111001110011111001 Q
b1000 S
b100000 T
b101 b
b100 j
b1010111001001101110000001100001 y
b1010111001001101110000001100001 z
b10000011110001111001110011111001 {
b10000011110001111001110011111001 |
b1000 ~

#250000
0!
01

#255000
1!
b100000 !!
b10000011110001111001110011111001 +
b10000110xxxxxxxxxxxxxxxxxxxxxxxxxxxxxxxxxxxxxxxx .
11
b10000110 9
b110 ?
b10000011110001111001110011111001 G
b10000110 H
b100 J
b100 K
b10000110 L
b10000011110001111001110011111001 N
b10000011110001111001110011111001 O
b11010000010110011001001001101011 P
b11010000010110011001001001101011 Q
b1000 S
b100000 T
b10000110 U
b10000110 W
b110 b
b100 i
b100 j
b10000110 w
b10000011110001111001110011111001 y
b10000011110001111001110011111001 z
b11010000010110011001001001101011 {
b11010000010110011001001001101011 |
b1000 ~

#260000
0!
01

#265000
1!
b100000 !!
b11010000010110011001001001101011 +
b1000011010000110xxxxxxxxxxxxxxxxxxxxxxxxxxxxxxxx .
11
b1 @
b11010000010110011001001001101011 G
b11010000010110011001001001101011 N
b11010000010110011001001001101011 O
b111011100000111000110110110101 P
b111011100000111000110110110101 Q
b1000 S
b100000 T
b1 c
b11010000010110011001001001101011 y
b11010000010110011001001001101011 z
b111011100000111000110110110101 {
b111011100000111000110110110101 |
b1000 ~

#270000
0!
01

#275000
1!
b100000 !!
b111011100000111000110110110101 +
b100001101000011010000110xxxxxxxxxxxxxxxxxxxxxxxx .
11
b10 @
b111011100000111000110110110101 G
b111011100000111000110110110101 N
b111011100000111000110110110101 O
b1111011111101011111010101101 P
b1111011111101011111010101101 Q
b1000 S
b100000 T
b10 c
b111011100000111000110110110101 y
b111011100000111000110110110101 z
b1111011111101011111010101101 {
b1111011111101011111010101101 |
b1000 ~

#280000
0!
01

#285000
1!
b100000 !!
b1111011111101011111010101101 +
b10000110100001101000011010000110xxxxxxxxxxxxxxxx .
11
b11 @
b1111011111101011111010101101 G
b1111011111101011111010101101 N
b1111011111101011111010101101 O
b110101011110111011110111100001 P
b110101011110111011110111100001 Q
b1000 S
b100000 T
b11 c
b1111011111101011111010101101 y
b1111011111101011111010101101 z
b110101011110111011110111100001 {
b110101011110111011110111100001 |
b1000 ~

#290000
0!
01

#295000
1!
b100000 !!
b110101011110111011110111100001 +
b1000011010000110100001101000011010000110xxxxxxxx .
11
b100 @
b110101011110111011110111100001 G
b110101011110111011110111100001 N
b110101011110111011110111100001 O
b11001011110000000100101010100111 P
b11001011110000000100101010100111 Q
b1000 S
b100000 T
b100 c
b110101011110111011110111100001 y
b110101011110111011110111100001 z
b11001011110000000100101010100111 {
b11001011110000000100101010100111 |
b1000 ~

#300000
0!
01

#305000
1!
b100000 !!
b11001011110000000100101010100111 +
b100001101000011010000110100001101000011010000110 .
11
b101 @
b11001011110000000100101010100111 G
b101 K
b11001011110000000100101010100111 N
b11001011110000000100101010100111 O
b11000101000000010101000110100100 P
b11000101000000010101000110100100 Q
b1000 S
b100000 T
b101 c
b101 j
b11001011110000000100101010100111 y
b11001011110000000100101010100111 z
b11000101000000010101000110100100 {
b11000101000000010101000110100100 |
b1000 ~

#310000
0!
01

#315000
1!
b100000 !!
b11000101000000010101000110100100 +
b100111xxxxxxxx /
11
b100111 9
b110 @
b11000101000000010101000110100100 G
b100111 H
b101 J
b101 K
b100111 L
b11000101000000010101000110100100 N
b11000101000000010101000110100100 O
b11001101011110101011100100010111 P
b11001101011110101011100100010111 Q
b1000 S
b100000 T
b100111 U
b100111 W
b110 c
b101 i
b101 j
b100111 w
b11000101000000010101000110100100 y
b11000101000000010101000110100100 z
b11001101011110101011100100010111 {
b11001101011110101011100100010111 |
b1000 ~

#320000
0!
01

#325000
1!
b100000 !!
b11001101011110101011100100010111 +
b10011100100111 /
11
1A
b11001101011110101011100100010111 G
b111 K
b11001101011110101011100100010111 N
b11001101011110101011100100010111 O
b10010000100110101110011110101111 P
b10010000100110101110011110101111 Q
b1000 S
b100000 T
1d
b110 j
b11001101011110101011100100010111 y
b11001101011110101011100100010111 z
b10010000100110101110011110101111 {
b10010000100110101110011110101111 |
b1000 ~

#330000
0!
01

#335000
1!
b100000 !!
b10010000100110101110011110101111 +
11
b1000010 9
0A
b10010000100110101110011110101111 G
b1000010 H
b111 J
b111 K
b1000010 L
b10010000100110101110011110101111 N
b10010000100110101110011110101111 O
b10000010111111101101111110000111 P
b10000010111111101101111110000111 Q
b1000 S
b100000 T
b1000010 U
0X
1[
0d
b110 i
b110 j
1k
1r
1t
0x
b10010000100110101110011110101111 y
b10010000100110101110011110101111 z
b111001100111100111001001111011 {
b111001100111100111001001111011 |
b1000 ~

#340000
0!
01

#345000
1!
11
b1 B
b10000010111111101101111110000111 G
b10000010111111101101111110000111 N
b10000010111111101101111110000111 O
b10100011010101010001011110011001 P
b10100011010101010001011110011001 Q
b1000 S
b100000 T
0\
b1 ^
b1 m
b1 n
b10 p
b1 u

#350000
0!
01

#355000
1!
11
b10 B
b10100011010101010001011110011001 G
b10100011010101010001011110011001 N
b10100011010101010001011110011001 O
b10010100011111111010001011001110 P
b10010100011111111010001011001110 Q
b1000 S
b100000 T
b1000010 Y
b10 ^
b10 m
b10 n
b11 p
b1000010 s
b10 u

#360000
0!
01

#365000
1!
11
b11 B
b10010100011111111010001011001110 G
b10010100011111111010001011001110 N
b10010100011111111010001011001110 O
b1110100101111111100100001011011 P
b1110100101111111100100001011011 Q
b1000 S
b100000 T
b11 ^
b11 m
b11 n
b100 p
b11 u

#370000
0!
01

#375000
1!
11
b100 B
b1110100101111111100100001011011 G
b1001 K
b1110100101111111100100001011011 N
b1110100101111111100100001011011 O
b1110001011111000111101100100010 P
b1110001011111000111101100100010 Q
b1000 S
b100000 T
b100 ^
b100 m
b100 n
b101 p
b100 u

#380000
0!
01

#385000
1!
11
b1110001 9
b101 B
b1110001011111000111101100100010 G
bx H
0I
b1001 J
b1001 K
bx L
0M
b1110001011111000111101100100010 N
b1110001011111000111101100100010 O
bx P
bx Q
b1000 S
b100000 T
b1110001 U
b101 ^
b101 m
b101 n
b110 p
b101 u

#390000
0!
01

#395000
1!
11
b1111100 9
b1 D
b1111100 U
b110 ^
b110 m
b110 n
b111 p
b110 u

#400000
0!
01

#405000
1!
11
b1111011 9
b10 D
b1111011 U
b111 ^
b111 m
b111 n
b1000 p
b111 u

#410000
0!
01

#415000
1!
11
b100010 9
b11 D
b1010 K
b100010 U
b1000 ^
b1000 m
b1000 n
b1001 p
b1000 u

#420000
0!
01

#425000
1!
11
b0 9
0:
b0 D
b1010 J
b1010 K
b0 U
0V
b1001 ^
b111 j
b1001 m
b1001 n
b1010 p
b1001 u

#430000
0!
01

#435000
1!
bx0100001001000010xxxxxxxxxxxxxxxxxxxxxxxxxxxxxxxx 0
11
b1 E
1Z
0[
b1010 ^
b1010 _
b111 i
0k
1l
b1010 m
b1010 n
b1011 p
0r
0t
b1010 u

#440000
0!
01

#445000
1!
b100000 !!
11
b10 E
b1000010 W
1X
b1001 ^
b1001 _
b1 e
b1001 m
b1 o
b10 q
b1 v
b1000010 w
1x
b10000010111111101101111110000111 {
b10000010111111101101111110000111 |
b1000 ~

#450000
0!
01

#455000
1!
b100000 !!
b10000010111111101101111110000111 +
bx010000100100001001000010xxxxxxxxxxxxxxxxxxxxxxxx 0
11
b11 E
b1000 ^
b1000 _
b10 e
b1000 m
b10 o
b11 q
b10 v
b10000010111111101101111110000111 y
b10000010111111101101111110000111 z
b10100011010101010001011110011001 {
b10100011010101010001011110011001 |
b1000 ~

#460000
0!
01

#465000
1!
b100000 !!
b10100011010101010001011110011001 +
bx01000010010000100100001001000010xxxxxxxxxxxxxxxx 0
11
b100 E
b111 ^
b111 _
b11 e
b111 m
b11 o
b100 q
b11 v
b10100011010101010001011110011001 y
b10100011010101010001011110011001 z
b10010100011111111010001011001110 {
b10010100011111111010001011001110 |
b1000 ~

#470000
0!
01

#475000
1!
b100000 !!
b10010100011111111010001011001110 +
bx0100001001000010010000100100001001000010xxxxxxxx 0
11
b101 E
b110 ^
b110 _
b100 e
b110 m
b100 o
b101 q
b100 v
b10010100011111111010001011001110 y
b10010100011111111010001011001110 z
b1110100101111111100100001011011 {
b1110100101111111100100001011011 |
b1000 ~

#480000
0!
01

#485000
1!
b100000 !!
b1110100101111111100100001011011 +
bx010000100100001001000010010000100100001001000010 0
11
b110 E
b101 ^
b101 _
b101 e
b1001 j
b101 m
b101 o
b110 q
b101 v
b1110100101111111100100001011011 y
b1110100101111111100100001011011 z
b1110001011111000111101100100010 {
b1110001011111000111101100100010 |
b1000 ~

#490000
0!
01

#495000
1!
b100000 !!
b1110001011111000111101100100010 +
11
b111 E
b1110001 W
b1110001 Y
b100 ^
b100 _
b110 e
b1001 i
b100 m
b110 o
b111 q
b1110001 s
b110 v
b1110001 w
b1110001011111000111101100100010 y
b1110001011111000111101100100010 z
b1111100011110110010001000000000 {
b1111100011110110010001000000000 |
b1000 ~

#500000
0!
01

#505000
1!
b100000 !!
b1111100011110110010001000000000 +
11
b1000 E
b1111100 W
b1111100 Y
b11 ^
b11 _
b1 g
b11 m
b111 o
b1000 q
b1111100 s
b111 v
b1111100 w
b1111100011110110010001000000000 y
b1111100011110110010001000000000 z
b1111011001000100000000000000000 {
b1111011001000100000000000000000 |
b1000 ~

#510000
0!
01

#515000
1!
b100000 !!
b1111011001000100000000000000000 +
11
b1001 E
b1111011 W
b1111011 Y
b10 ^
b10 _
b10 g
b10 m
b1000 o
b1001 q
b1111011 s
b1000 v
b1111011 w
b1111011001000100000000000000000 y
b1111011001000100000000000000000 z
b100010000000000000000000000000 {
b100010000000000000000000000000 |
b1000 ~

#520000
0!
01

#525000
1!
b100000 !!
b100010000000000000000000000000 +
11
b1010 E
b100010 W
b100010 Y
b1 ^
b1 _
b11 g
b1 m
b1001 o
b1010 q
b100010 s
b1001 v
b100010 w
b100010000000000000000000000000 y
b100010000000000000000000000000 z
b0 {
b0 |
b1000 ~

#530000
0!
01

#535000
1!
b100000 !!
b0 +
11
1;
b1011 E
b0 K
b0 W
b0 Y
1\
b0 ^
b0 _
b0 g
b1010 j
b0 m
b1010 o
b1011 q
b0 s
b1010 v
b0 w
b0 y
b0 z
b0 {
b0 |
b1000 ~

#540000
0!
01

#545000
1!
1*
1,
11
b1100 E
b0 J
b1 K
0X
bx Y
0Z
b1 g
b1010 i
b0 j
0l
bx s
0x

#550000
0!
01

#555000
1!
b100000 !!
1"
0*
b11111111111111111111111111111111 +
0,
11
12
b0 >
b0 ?
b0 @
b0 B
b0 E
b11111111111111111111111111111111 G
b11111111111111111111111111111111 N
b11111111111111111111111111111111 O
bx P
bx Q
b1000 S
b100000 T
b0 a
b0 b
b0 c
b0 e
b0 g
b0 i
b0 n
b0 o
b1 p
b1 q
b0 u
b0 v
b11111111111111111111111111111111 y
b11111111111111111111111111111111 z
b1001110000010001011111110110100 {
b1001110000010001011111110110100 |
b1000 ~

#560000
0!
01

#565000
1!
0"
11
02
b1010101 9
1:
0;
b1 J
b1010101 U
1V
b1000010 Y
b1 j
b1000010 s

#570000
0!
01

#575000
1!
11
b1 >
b1 i

#580000
0!
01

#585000
1!
11
b10 >
b1 a

#590000
0!
01

#595000
1!
11
b11 >
b10 a

#600000
0!
01

#605000
1!
11
b100 >
b11 a

#610000
0!
01

#615000
1!
11
b101 >
b100 a

#620000
0!
01

#625000
1!
11
b110 >
b10 K
b101 a
b10 j

#630000
0!
01

#635000
1!
11
b10101011 9
b111 >
b10 J
b11 K
b10101011 U
b110 a
b10 i
b11 j

#640000
0!
01

#645000
1!
b100000 !!
11
b110101 9
b110101 H
1I
b11 J
b110101 L
1M
b10001101111111111011100101001111 P
b10001101111111111011100101001111 Q
b1000 S
b100000 T
b110101 U
b110101 W
1X
b11 i
b110101 w
1x
b10001101111111111011100101001111 {
b10001101111111111011100101001111 |
b1000 ~

#650000
0!
01

#655000
1!
b100000 !!
b10001101111111111011100101001111 +
11
b1 ?
b10001101111111111011100101001111 G
b10001101111111111011100101001111 N
b10001101111111111011100101001111 O
b1100100100011110010111111000110 P
b1100100100011110010111111000110 Q
b1000 S
b100000 T
b1 b
b10001101111111111011100101001111 y
b10001101111111111011100101001111 z
b1100100100011110010111111000110 {
b1100100100011110010111111000110 |
b1000 ~

#660000
0!
01

#665000
1!
b100000 !!
b1100100100011110010111111000110 +
11
b10 ?
b1100100100011110010111111000110 G
b1100100100011110010111111000110 N
b1100100100011110010111111000110 O
b11110011011110010111000010110000 P
b11110011011110010111000010110000 Q
b1000 S
b100000 T
b10 b
b1100100100011110010111111000110 y
b1100100100011110010111111000110 z
b11110011011110010111000010110000 {
b11110011011110010111000010110000 |
b1000 ~

#670000
0!
01

#675000
1!
b100000 !!
b11110011011110010111000010110000 +
11
b11 ?
b11110011011110010111000010110000 G
b11110011011110010111000010110000 N
b11110011011110010111000010110000 O
b111110011111000110110100101011 P
b111110011111000110110100101011 Q
b1000 S
b100000 T
b11 b
b11110011011110010111000010110000 y
b11110011011110010111000010110000 z
b111110011111000110110100101011 {
b111110011111000110110100101011 |
b1000 ~

#680000
0!
01

#685000
1!
b100000 !!
b111110011111000110110100101011 +
11
b100 ?
b111110011111000110110100101011 G
b111110011111000110110100101011 N
b111110011111000110110100101011 O
b1010111001001101110000001100001 P
b1010111001001101110000001100001 Q
b1000 S
b100000 T
b100 b
b111110011111000110110100101011 y
b111110011111000110110100101011 z
b1010111001001101110000001100001 {
b1010111001001101110000001100001 |
b1000 ~

#690000
0!
01

#695000
1!
b100000 !!
b1010111001001101110000001100001 +
11
b101 ?
b1010111001001101110000001100001 G
b100 K
b1010111001001101110000001100001 N
b1010111001001101110000001100001 O
b10000011110001111001110011111001 P
b10000011110001111001110011111001 Q
b1000 S
b100000 T
b101 b
b100 j
b1010111001001101110000001100001 y
b1010111001001101110000001100001 z
b10000011110001111001110011111001 {
b10000011110001111001110011111001 |
b1000 ~

#700000
0!
01

#705000
1!
b100000 !!
b10000011110001111001110011111001 +
11
b10000110 9
b110 ?
b10000011110001111001110011111001 G
b10000110 H
b100 J
b100 K
b10000110 L
b10000011110001111001110011111001 N
b10000011110001111001110011111001 O
b11010000010110011001001001101011 P
b11010000010110011001001001101011 Q
b1000 S
b100000 T
b10000110 U
b10000110 W
b110 b
b100 i
b100 j
b10000110 w
b10000011110001111001110011111001 y
b10000011110001111001110011111001 z
b11010000010110011001001001101011 {
b11010000010110011001001001101011 |
b1000 ~

#710000
0!
01

#715000
1!
b100000 !!
b11010000010110011001001001101011 +
11
b1 @
b11010000010110011001001001101011 G
b11010000010110011001001001101011 N
b11010000010110011001001001101011 O
b111011100000111000110110110101 P
b111011100000111000110110110101 Q
b1000 S
b100000 T
b1 c
b11010000010110011001001001101011 y
b11010000010110011001001001101011 z
b111011100000111000110110110101 {
b111011100000111000110110110101 |
b1000 ~

#720000
0!
01

#725000
1!
b100000 !!
b111011100000111000110110110101 +
11
b10 @
b111011100000111000110110110101 G
b111011100000111000110110110101 N
b111011100000111000110110110101 O
b1111011111101011111010101101 P
b1111011111101011111010101101 Q
b1000 S
b100000 T
b10 c
b111011100000111000110110110101 y
b111011100000111000110110110101 z
b1111011111101011111010101101 {
b1111011111101011111010101101 |
b1000 ~

#730000
0!
01

#735000
1!
b100000 !!
b1111011111101011111010101101 +
11
b11 @
b1111011111101011111010101101 G
b1111011111101011111010101101 N
b1111011111101011111010101101 O
b110101011110111011110111100001 P
b110101011110111011110111100001 Q
b1000 S
b100000 T
b11 c
b1111011111101011111010101101 y
b1111011111101011111010101101 z
b110101011110111011110111100001 {
b110101011110111011110111100001 |
b1000 ~

#740000
0!
01

#745000
1!
b100000 !!
b110101011110111011110111100001 +
11
b100 @
b110101011110111011110111100001 G
b110101011110111011110111100001 N
b110101011110111011110111100001 O
b11001011110000000100101010100111 P
b11001011110000000100101010100111 Q
b1000 S
b100000 T
b100 c
b110101011110111011110111100001 y
b110101011110111011110111100001 z
b11001011110000000100101010100111 {
b11001011110000000100101010100111 |
b1000 ~

#750000
0!
01

#755000
1!
b100000 !!
b11001011110000000100101010100111 +
11
b101 @
b11001011110000000100101010100111 G
b101 K
b11001011110000000100101010100111 N
b11001011110000000100101010100111 O
b11000101000000010101000110100100 P
b11000101000000010101000110100100 Q
b1000 S
b100000 T
b101 c
b101 j
b11001011110000000100101010100111 y
b11001011110000000100101010100111 z
b11000101000000010101000110100100 {
b11000101000000010101000110100100 |
b1000 ~

#760000
0!
01

#765000
1!
b100000 !!
b11000101000000010101000110100100 +
11
b100111 9
b110 @
b11000101000000010101000110100100 G
b100111 H
b101 J
b101 K
b100111 L
b11000101000000010101000110100100 N
b11000101000000010101000110100100 O
b11001101011110101011100100010111 P
b11001101011110101011100100010111 Q
b1000 S
b100000 T
b100111 U
b100111 W
b110 c
b101 i
b101 j
b100111 w
b11000101000000010101000110100100 y
b11000101000000010101000110100100 z
b11001101011110101011100100010111 {
b11001101011110101011100100010111 |
b1000 ~

#770000
0!
01

#775000
1!
b100000 !!
b11001101011110101011100100010111 +
11
1A
b11001101011110101011100100010111 G
b111 K
b11001101011110101011100100010111 N
b11001101011110101011100100010111 O
b10010000100110101110011110101111 P
b10010000100110101110011110101111 Q
b1000 S
b100000 T
1d
b110 j
b11001101011110101011100100010111 y
b11001101011110101011100100010111 z
b10010000100110101110011110101111 {
b10010000100110101110011110101111 |
b1000 ~

#780000
0!
01

#785000
1!
b100000 !!
b10010000100110101110011110101111 +
11
b1000010 9
0A
b10010000100110101110011110101111 G
b1000010 H
b111 J
b111 K
b1000010 L
b10010000100110101110011110101111 N
b10010000100110101110011110101111 O
b10000010111111101101111110000111 P
b10000010111111101101111110000111 Q
b1000 S
b100000 T
b1000010 U
0X
1[
0d
b110 i
b110 j
1k
1r
1t
0x
b10010000100110101110011110101111 y
b10010000100110101110011110101111 z
b111001100111100111001001111011 {
b111001100111100111001001111011 |
b1000 ~

#790000
0!
01

#795000
1!
11
b1 B
b10000010111111101101111110000111 G
b10000010111111101101111110000111 N
b10000010111111101101111110000111 O
b10100011010101010001011110011001 P
b10100011010101010001011110011001 Q
b1000 S
b100000 T
0\
b1 ^
b1 m
b1 n
b10 p
b1 u

#800000
0!
01

#805000
1!
11
b10 B
b10100011010101010001011110011001 G
b10100011010101010001011110011001 N
b10100011010101010001011110011001 O
b10010100011111111010001011001110 P
b10010100011111111010001011001110 Q
b1000 S
b100000 T
b10 ^
b10 m
b10 n
b11 p
b10 u

#810000
0!
01

