code/final/sim/Final.vcd
$date
   Thu Mar 19 12:04:09 2026
$end

$version
  2024.2.0
  $dumpfile ("Final.vcd") 
$end

$timescale
  1ps
$end

$scope module Top_Layer_tb $end
$var reg 1 ! clk $end
$var reg 1 " reset $end
$var reg 1 # start $end
$var reg 48 $ MAC_dest_addr_in [47:0] $end
$var reg 48 % MAC_source_addr_in [47:0] $end
$var reg 16 & ethernet_type_in [15:0] $end
$var reg 12000 ' payload_in [11999:0] $end
$var reg 11 ( payload_length [10:0] $end
$var reg 1 ) CRC32_error $end
$var reg 1 * CRC32_correct $end
$var reg 32 + CRC32_crc [31:0] $end
$var reg 1 , Check_done $end
$var reg 48 - MAC_dest_addr_out [47:0] $end
$var reg 48 . MAC_source_addr_out [47:0] $end
$var reg 16 / ethernet_type_out [15:0] $end
$var reg 12000 0 payload_out [11999:0] $end
$scope module dut $end
$var wire 1 1 clk $end
$var wire 1 2 reset $end
$var wire 1 3 start $end
$var wire 48 4 MAC_dest_addr_in [47:0] $end
$var wire 48 5 MAC_source_addr_in [47:0] $end
$var wire 16 6 ethernet_type_in [15:0] $end
$var wire 12000 7 payload_in [11999:0] $end
$var wire 11 8 payload_length [10:0] $end
$var reg 1 ) CRC32_error $end
$var reg 1 * CRC32_correct $end
$var reg 32 + CRC32_crc [31:0] $end
$var reg 1 , Check_done $end
$var reg 48 - MAC_dest_addr_out [47:0] $end
$var reg 48 . MAC_source_addr_out [47:0] $end
$var reg 16 / ethernet_type_out [15:0] $end
$var reg 101 9 payload_out [100:0] $end
$var reg 8 : tx_data_tx [7:0] $end
$var reg 1 ; tx_valid_tx $end
$var reg 1 < frame_done_tx $end
$var reg 8 = rx_data_rx [7:0] $end
$var reg 1 > rx_valid_rx $end
$scope module Transmit $end
$var wire 1 1 clk $end
$var wire 1 2 reset $end
$var wire 1 3 start $end
$var wire 48 4 MAC_dest_addr [47:0] $end
$var wire 48 5 MAC_source_addr [47:0] $end
$var wire 16 6 ethernet_type [15:0] $end
$var wire 12000 7 payload [11999:0] $end
$var wire 11 8 payload_length [10:0] $end
$var reg 8 : tx_data [7:0] $end
$var reg 1 ; tx_valid $end
$var reg 1 < frame_done $end
$var reg 3 ? cnt_preamble [2:0] $end
$var reg 3 @ cnt_MAC_dest [2:0] $end
$var reg 3 A cnt_MAC_source [2:0] $end
$var reg 1 B cnt_ethernet_type $end
$var reg 11 C cnt_payload [10:0] $end
$var reg 6 D cnt_pad [5:0] $end
$var reg 2 E cnt_fcs [1:0] $end
$var reg 4 F cnt_ipg [3:0] $end
$var reg 11 G MAX_payload [10:0] $end
$var reg 32 H CRC32_crc [31:0] $end
$var reg 8 I CRC32_data [7:0] $end
$var reg 1 J CRC32_valid $end
$var reg 32 K state $end
$var reg 32 L next_state $end
$scope module CRC32_tx $end
$var wire 1 1 clk $end
$var wire 1 2 reset $end
$var wire 8 M data_in [7:0] $end
$var wire 1 N valid $end
$var wire 32 O crc_out [31:0] $end
$var reg 32 P crc [31:0] $end
$var reg 32 Q crc_prev [31:0] $end
$var reg 32 R crc_next [31:0] $end
$var reg 4 S debug [3:0] $end
$scope begin Block41_3 $end
$var reg 32 T i [31:0] $end
$scope begin Block43_4 $end
$var reg 32 U j [31:0] $end
$upscope $end
$upscope $end
$upscope $end
$upscope $end
$scope module Receive $end
$var wire 1 1 clk $end
$var wire 1 2 reset $end
$var wire 8 V rx_data [7:0] $end
$var wire 1 W rx_valid $end
$var reg 1 ) CRC32_error $end
$var reg 1 * CRC32_correct $end
$var reg 32 + CRC32_crc [31:0] $end
$var reg 1 , Check_done $end
$var reg 48 - MAC_dest_addr [47:0] $end
$var reg 48 . MAC_source_addr [47:0] $end
$var reg 16 / ethernet_type [15:0] $end
$var reg 12000 X payload [11999:0] $end
$var reg 8 Y CRC32_data [7:0] $end
$var reg 1 Z CRC32_valid $end
$var reg 8 [ fifo_data [7:0] $end
$var reg 1 \ fifo_rd_en $end
$var reg 1 ] fifo_wr_en $end
$var reg 1 ^ fifo_empty $end
$var reg 1 _ fifo_full $end
$var reg 8 ` fifo_used_memory [7:0] $end
$var reg 8 a length_payload_fcs [7:0] $end
$var reg 3 b cnt_preamble [2:0] $end
$var reg 3 c cnt_MAC_dest [2:0] $end
$var reg 3 d cnt_MAC_source [2:0] $end
$var reg 1 e cnt_ethernet_type $end
$var reg 11 f cnt_payload [10:0] $end
$var reg 6 g cnt_pad [5:0] $end
$var reg 2 h cnt_fcs [1:0] $end
$var reg 4 i cnt_ipg [3:0] $end
$var reg 32 j state $end
$var reg 32 k next_state $end
$scope module rx_fifo $end
$var wire 1 1 clk $end
$var wire 1 2 reset $end
$var wire 1 l push $end
$var wire 8 V wr_data [7:0] $end
$var wire 1 m pop $end
$var reg 8 [ rd_data [7:0] $end
$var reg 1 _ fifo_full $end
$var reg 1 ^ fifo_empty $end
$var reg 11 n fifo_used_memory [10:0] $end
$var reg 11 o wr_ptr [10:0] $end
$var reg 11 p rd_ptr [10:0] $end
$var reg 11 q wr_ptr_nxt [10:0] $end
$var reg 11 r rd_ptr_nxt [10:0] $end
$var reg 1 s write_enable $end
$var reg 8 t rd_data_raw [7:0] $end
$scope module fifo_ram $end
$var wire 1 1 clk $end
$var wire 1 u we $end
$var wire 11 v wr_addr [10:0] $end
$var wire 8 V wr_data [7:0] $end
$var wire 11 w rd_addr [10:0] $end
$var reg 8 t rd_data [7:0] $end
$upscope $end
$upscope $end
$scope module CRC32_rx $end
$var wire 1 1 clk $end
$var wire 1 2 reset $end
$var wire 8 x data_in [7:0] $end
$var wire 1 y valid $end
$var wire 32 z crc_out [31:0] $end
$var reg 32 { crc [31:0] $end
$var reg 32 | crc_prev [31:0] $end
$var reg 32 } crc_next [31:0] $end
$var reg 4 ~ debug [3:0] $end
$scope begin Block41_3 $end
$var reg 32 !! i [31:0] $end
$scope begin Block43_4 $end
$var reg 32 "! j [31:0] $end
$upscope $end
$upscope $end
$upscope $end
$upscope $end
$upscope $end
$scope task clk_gen $end
$upscope $end
$scope task apply_reset $end
$upscope $end
$upscope $end
$enddefinitions $end

#0
$dumpvars
0!
b1000 !!
0"
b100000 "!
0#
bx $
bx %
bx &
bx '
bx (
0)
0*
bx +
0,
bx -
bx .
bx /
b0xxxxxxxxxxxxxxxxxxxxxxxxxxxxxxxxxxxxxxxxxxxxxxxxxxxxxxxxxxxxxxxxxxxxxxxxxxxxxxxxxxxxxxxxxxxxxxxxxxxxx 0
01
02
03
bx 4
bx 5
bx 6
bx 7
bx 8
bx 9
b0 :
x;
0<
bx =
x>
bx ?
bx @
bx A
xB
bx C
bx D
bx E
bx F
bx G
bx H
bx I
0J
b0 K
b0 L
bx M
0N
bx O
bx P
bx Q
bx R
bx S
b1000 T
b100000 U
b0 V
xW
bx X
bx Y
0Z
bx [
0\
0]
x^
x_
bx `
bx a
bx b
bx c
bx d
xe
bx f
bx g
bx h
bx i
b0 j
b0 k
0l
0m
bx n
bx o
bx p
bx q
bx r
0s
bx t
0u
bx v
bx w
bx x
0y
bx z
bx {
bx |
bx }
bx ~
$end

#5000
1!
b1000 !!
1"
b100000 "!
b11111111111111111111111111111111 +
11
12
b0 ?
b0 @
b0 A
0B
b0 C
b0 D
b0 E
b0 F
b11111111111111111111111111111111 H
b11111111111111111111111111111111 O
b11111111111111111111111111111111 P
bx Q
bx R
b1000 T
b100000 U
1^
0_
b0 `
b0 b
b0 c
b0 d
0e
b0 f
b0 g
b0 h
b0 i
b0 k
b0 n
b0 o
b0 p
b1 q
b1 r
b0 v
b0 w
b11111111111111111111111111111111 z
b11111111111111111111111111111111 {
bx |
bx }

#10000
0!
01

#15000
1!
0"
11
02

#20000
0!
01

#25000
1!
11

#30000
0!
01

#35000
1!
11

#40000
0!
01

#45000
1!
11

#50000
0!
01

#55000
1!
11

#60000
0!
01

#65000
1!
11

#70000
0!
01

#75000
1!
11

#80000
0!
01

#85000
1!
11

#90000
0!
01

#95000
1!
b1111010100010001000001101001111111100100000001 $
b10001000011011001000101100001011101111000111111 %
b1000011000100010 &
bx0111010111001100101001110101001100001011 '
b101 (
11
b1111010100010001000001101001111111100100000001 4
b10001000011011001000101100001011101111000111111 5
b1000011000100010 6
bx0111010111001100101001110101001100001011 7
b101 8

#100000
0!
01

#105000
1!
1#
11
13
b1 L

#110000
0!
01

#115000
1!
11
b1010101 :
1;
b1 K
b1010101 V
1W
b1 k

#120000
0!
01

#125000
1!
11
b1 ?
b1 j

#130000
0!
01

#135000
1!
11
b10 ?
b1 b

#140000
0!
01

#145000
1!
11
b11 ?
b10 b

#150000
0!
01

#155000
1!
11
b100 ?
b11 b

#160000
0!
01

#165000
1!
11
b101 ?
b100 b

#170000
0!
01

#175000
1!
11
b110 ?
b10 L
b101 b
b10 k

#180000
0!
01

#185000
1!
11
b10101011 :
b111 ?
b10 K
b11 L
b10101011 V
b110 b
b10 j
b11 k

#190000
0!
01

#195000
1!
b1000 !!
b100000 "!
b111101xxxxxxxxxxxxxxxxxxxxxxxxxxxxxxxxxxxxxxxx -
11
b111101 :
b111101 I
1J
b11 K
b111101 M
1N
b10101011111101110101010011110111 Q
b10101011111101110101010011110111 R
b1000 T
b100000 U
b111101 V
b111101 Y
1Z
b11 j
b111101 x
1y
b10101011111101110101010011110111 |
b10101011111101110101010011110111 }

#200000
0!
01

#205000
1!
b1000 !!
b100000 "!
b10101011111101110101010011110111 +
b11110101000100xxxxxxxxxxxxxxxxxxxxxxxxxxxxxxxx -
11
b1000100 :
b1 @
b10101011111101110101010011110111 H
b1000100 I
b1000100 M
b10101011111101110101010011110111 O
b10101011111101110101010011110111 P
b1010101100100110110011000100 Q
b1010101100100110110011000100 R
b1000 T
b100000 U
b1000100 V
b1000100 Y
b1 c
b1000100 x
b10101011111101110101010011110111 z
b10101011111101110101010011110111 {
b1010101100100110110011000100 |
b1010101100100110110011000100 }

#210000
0!
01

#215000
1!
b1000 !!
b100000 "!
b1010101100100110110011000100 +
b1111010100010001000001xxxxxxxxxxxxxxxxxxxxxxxx -
11
b1000001 :
b10 @
b1010101100100110110011000100 H
b1000001 I
b1000001 M
b1010101100100110110011000100 O
b1010101100100110110011000100 P
b10101101101000010111111100010110 Q
b10101101101000010111111100010110 R
b1000 T
b100000 U
b1000001 V
b1000001 Y
b10 c
b1000001 x
b1010101100100110110011000100 z
b1010101100100110110011000100 {
b10101101101000010111111100010110 |
b10101101101000010111111100010110 }

#220000
0!
01

#225000
1!
b1000 !!
b100000 "!
b10101101101000010111111100010110 +
b111101010001000100000110100111xxxxxxxxxxxxxxxx -
11
b10100111 :
b11 @
b10101101101000010111111100010110 H
b10100111 I
b10100111 M
b10101101101000010111111100010110 O
b10101101101000010111111100010110 P
b10001110111101011100000011010110 Q
b10001110111101011100000011010110 R
b1000 T
b100000 U
b10100111 V
b10100111 Y
b11 c
b10100111 x
b10101101101000010111111100010110 z
b10101101101000010111111100010110 {
b10001110111101011100000011010110 |
b10001110111101011100000011010110 }

#230000
0!
01

#235000
1!
b1000 !!
b100000 "!
b10001110111101011100000011010110 +
b11110101000100010000011010011111111001xxxxxxxx -
11
b11111001 :
b100 @
b10001110111101011100000011010110 H
b11111001 I
b11111001 M
b10001110111101011100000011010110 O
b10001110111101011100000011010110 P
b1011001100111001101111100010 Q
b1011001100111001101111100010 R
b1000 T
b100000 U
b11111001 V
b11111001 Y
b100 c
b11111001 x
b10001110111101011100000011010110 z
b10001110111101011100000011010110 {
b1011001100111001101111100010 |
b1011001100111001101111100010 }

#240000
0!
01

#245000
1!
b1000 !!
b100000 "!
b1011001100111001101111100010 +
b1111010100010001000001101001111111100100000001 -
11
b1 :
b101 @
b1011001100111001101111100010 H
b1 I
b100 L
b1 M
b1011001100111001101111100010 O
b1011001100111001101111100010 P
b11100000100010011010011010110 Q
b11100000100010011010011010110 R
b1000 T
b100000 U
b1 V
b1 Y
b101 c
b100 k
b1 x
b1011001100111001101111100010 z
b1011001100111001101111100010 {
b11100000100010011010011010110 |
b11100000100010011010011010110 }

#250000
0!
01

#255000
1!
b1000 !!
b100000 "!
b11100000100010011010011010110 +
b1000100xxxxxxxxxxxxxxxxxxxxxxxxxxxxxxxxxxxxxxxx .
11
b1000100 :
b110 @
b11100000100010011010011010110 H
b1000100 I
b100 K
b100 L
b1000100 M
b11100000100010011010011010110 O
b11100000100010011010011010110 P
b1001111101010111001000010111111 Q
b1001111101010111001000010111111 R
b1000 T
b100000 U
b1000100 V
b1000100 Y
b110 c
b100 j
b100 k
b1000100 x
b11100000100010011010011010110 z
b11100000100010011010011010110 {
b1001111101010111001000010111111 |
b1001111101010111001000010111111 }

#260000
0!
01

#265000
1!
b1000 !!
b100000 "!
b1001111101010111001000010111111 +
b100010000110110xxxxxxxxxxxxxxxxxxxxxxxxxxxxxxxx .
11
b110110 :
b1 A
b1001111101010111001000010111111 H
b110110 I
b110110 M
b1001111101010111001000010111111 O
b1001111101010111001000010111111 P
b1101001111011010101001011101000 Q
b1101001111011010101001011101000 R
b1000 T
b100000 U
b110110 V
b110110 Y
b1 d
b110110 x
b1001111101010111001000010111111 z
b1001111101010111001000010111111 {
b1101001111011010101001011101000 |
b1101001111011010101001011101000 }

#270000
0!
01

#275000
1!
b1000 !!
b100000 "!
b1101001111011010101001011101000 +
b10001000011011001000101xxxxxxxxxxxxxxxxxxxxxxxx .
11
b1000101 :
b10 A
b1101001111011010101001011101000 H
b1000101 I
b1000101 M
b1101001111011010101001011101000 O
b1101001111011010101001011101000 P
b1000000011111011100010110000100 Q
b1000000011111011100010110000100 R
b1000 T
b100000 U
b1000101 V
b1000101 Y
b10 d
b1000101 x
b1101001111011010101001011101000 z
b1101001111011010101001011101000 {
b1000000011111011100010110000100 |
b1000000011111011100010110000100 }

#280000
0!
01

#285000
1!
b1000 !!
b100000 "!
b1000000011111011100010110000100 +
b1000100001101100100010110000101xxxxxxxxxxxxxxxx .
11
b10000101 :
b11 A
b1000000011111011100010110000100 H
b10000101 I
b10000101 M
b1000000011111011100010110000100 O
b1000000011111011100010110000100 P
b110111100010100111111111110010 Q
b110111100010100111111111110010 R
b1000 T
b100000 U
b10000101 V
b10000101 Y
b11 d
b10000101 x
b1000000011111011100010110000100 z
b1000000011111011100010110000100 {
b110111100010100111111111110010 |
b110111100010100111111111110010 }

#290000
0!
01

#295000
1!
b1000 !!
b100000 "!
b110111100010100111111111110010 +
b100010000110110010001011000010111011110xxxxxxxx .
11
b11011110 :
b100 A
b110111100010100111111111110010 H
b11011110 I
b11011110 M
b110111100010100111111111110010 O
b110111100010100111111111110010 P
b1101101000111110010010001110110 Q
b1101101000111110010010001110110 R
b1000 T
b100000 U
b11011110 V
b11011110 Y
b100 d
b11011110 x
b110111100010100111111111110010 z
b110111100010100111111111110010 {
b1101101000111110010010001110110 |
b1101101000111110010010001110110 }

#300000
0!
01

#305000
1!
b1000 !!
b100000 "!
b1101101000111110010010001110110 +
b10001000011011001000101100001011101111000111111 .
11
b111111 :
b101 A
b1101101000111110010010001110110 H
b111111 I
b101 L
b111111 M
b1101101000111110010010001110110 O
b1101101000111110010010001110110 P
b1101110001100011110011001101001 Q
b1101110001100011110011001101001 R
b1000 T
b100000 U
b111111 V
b111111 Y
b101 d
b101 k
b111111 x
b1101101000111110010010001110110 z
b1101101000111110010010001110110 {
b1101110001100011110011001101001 |
b1101110001100011110011001101001 }

#310000
0!
01

#315000
1!
b1000 !!
b100000 "!
b1101110001100011110011001101001 +
b10000110xxxxxxxx /
11
b10000110 :
b110 A
b1101110001100011110011001101001 H
b10000110 I
b101 K
b101 L
b10000110 M
b1101110001100011110011001101001 O
b1101110001100011110011001101001 P
b11010010010001111010001011000001 Q
b11010010010001111010001011000001 R
b1000 T
b100000 U
b10000110 V
b10000110 Y
b110 d
b101 j
b101 k
b10000110 x
b1101110001100011110011001101001 z
b1101110001100011110011001101001 {
b11010010010001111010001011000001 |
b11010010010001111010001011000001 }

#320000
0!
01

#325000
1!
b1000 !!
b100000 "!
b11010010010001111010001011000001 +
b1000011000100010 /
11
b100010 :
1B
b11010010010001111010001011000001 H
b100010 I
b111 L
b100010 M
b11010010010001111010001011000001 O
b11010010010001111010001011000001 P
b11001110000110100011110000001001 Q
b11001110000110100011110000001001 R
b1000 T
b100000 U
b100010 V
b100010 Y
1e
b110 k
b100010 x
b11010010010001111010001011000001 z
b11010010010001111010001011000001 {
b11001110000110100011110000001001 |
b11001110000110100011110000001001 }

#330000
0!
01

#335000
1!
b1000 !!
b100000 "!
b11001110000110100011110000001001 +
11
b1110101 :
0B
b11001110000110100011110000001001 H
b1110101 I
b111 K
b111 L
b1110101 M
b11001110000110100011110000001001 O
b11001110000110100011110000001001 P
b10001100010010010100111100011111 Q
b10001100010010010100111100011111 R
b1000 T
b100000 U
b1110101 V
b10000110 Y
0Z
1]
0e
b110 j
b110 k
1l
1s
1u
b10000110 x
0y
b11001110000110100011110000001001 z
b11001110000110100011110000001001 {
b1000101100101001010011001111 |
b1000101100101001010011001111 }

#340000
0!
01

#345000
1!
11
b11001100 :
b1 C
b10001100010010010100111100011111 H
b11001100 I
b11001100 M
b10001100010010010100111100011111 O
b10001100010010010100111100011111 P
b1111101110010010110111101110111 Q
b1111101110010010110111101110111 R
b1000 T
b100000 U
b11001100 V
0^
b1 `
b1 n
b1 o
b10 q
b1 v

#350000
0!
01

#355000
1!
11
b10100111 :
b10 C
b1111101110010010110111101110111 H
b10100111 I
b10100111 M
b1111101110010010110111101110111 O
b1111101110010010110111101110111 P
b11110111011111101110101000111111 Q
b11110111011111101110101000111111 R
b1000 T
b100000 U
b10100111 V
b1110101 [
b10 `
b10 n
b10 o
b11 q
b1110101 t
b10 v

#360000
0!
01

#365000
1!
11
b1010011 :
b11 C
b11110111011111101110101000111111 H
b1010011 I
b1010011 M
b11110111011111101110101000111111 O
b11110111011111101110101000111111 P
b10011100110000010001111111010010 Q
b10011100110000010001111111010010 R
b1000 T
b100000 U
b1010011 V
b11 `
b11 n
b11 o
b100 q
b11 v

#370000
0!
01

#375000
1!
11
b1011 :
b100 C
b10011100110000010001111111010010 H
b1011 I
b1001 L
b1011 M
b10011100110000010001111111010010 O
b10011100110000010001111111010010 P
b11111010010001011011100110011011 Q
b11111010010001011011100110011011 R
b1000 T
b100000 U
b1011 V
b100 `
b100 n
b100 o
b101 q
b100 v

#380000
0!
01

#385000
1!
11
b11111010 :
b101 C
b11111010010001011011100110011011 H
bx I
0J
b1001 K
b1001 L
bx M
0N
b11111010010001011011100110011011 O
b11111010010001011011100110011011 P
bx Q
bx R
b1000 T
b100000 U
b11111010 V
b101 `
b101 n
b101 o
b110 q
b101 v

#390000
0!
01

#395000
1!
11
b1000101 :
b1 E
b1000101 V
b110 `
b110 n
b110 o
b111 q
b110 v

#400000
0!
01

#405000
1!
11
b10111001 :
b10 E
b10111001 V
b111 `
b111 n
b111 o
b1000 q
b111 v

#410000
0!
01

#415000
1!
11
b10011011 :
b11 E
b1010 L
b10011011 V
b1000 `
b1000 n
b1000 o
b1001 q
b1000 v

#420000
0!
01

#425000
1!
11
b0 :
0;
b0 E
b1010 K
b1010 L
b0 V
0W
b1001 `
b111 k
b1001 n
b1001 o
b1010 q
b1001 v

#430000
0!
01

#435000
1!
b1000 !!
b100000 "!
b0xxxxxxxxxxxxxxxxxxxxxxxxxxxxxxxxxxxxxxxxxxxxxxxxxxxxx0111010101110101xxxxxxxxxxxxxxxxxxxxxxxxxxxxxxxx 0
11
bx0111010101110101xxxxxxxxxxxxxxxxxxxxxxxxxxxxxxxx 9
b1 F
bx0111010101110101xxxxxxxxxxxxxxxxxxxxxxxxxxxxxxxx X
b1110101 Y
1\
0]
b1010 `
b1010 a
b111 j
0l
1m
b1010 n
b1010 o
b1011 q
0s
0u
b1010 v
b1110101 x
b10001100010010010100111100011111 |
b10001100010010010100111100011111 }

#440000
0!
01

#445000
1!
11
b10 F
1Z
b1001 `
b1001 a
b1 f
b1001 n
b1 p
b10 r
b1 w
1y

#450000
0!
01

#455000
1!
b1000 !!
b100000 "!
b10001100010010010100111100011111 +
b0xxxxxxxxxxxxxxxxxxxxxxxxxxxxxxxxxxxxxxxxxxxxxxxxxxxxx011101011100110011001100xxxxxxxxxxxxxxxxxxxxxxxx 0
11
bx011101011100110011001100xxxxxxxxxxxxxxxxxxxxxxxx 9
b11 F
bx011101011100110011001100xxxxxxxxxxxxxxxxxxxxxxxx X
b11001100 Y
b11001100 [
b1000 `
b1000 a
b10 f
b1000 n
b10 p
b11 r
b11001100 t
b10 w
b11001100 x
b10001100010010010100111100011111 z
b10001100010010010100111100011111 {
b1111101110010010110111101110111 |
b1111101110010010110111101110111 }

#460000
0!
01

#465000
1!
b1000 !!
b100000 "!
b1111101110010010110111101110111 +
b0xxxxxxxxxxxxxxxxxxxxxxxxxxxxxxxxxxxxxxxxxxxxxxxxxxxxx01110101110011001010011110100111xxxxxxxxxxxxxxxx 0
11
bx01110101110011001010011110100111xxxxxxxxxxxxxxxx 9
b100 F
bx01110101110011001010011110100111xxxxxxxxxxxxxxxx X
b10100111 Y
b10100111 [
b111 `
b111 a
b11 f
b111 n
b11 p
b100 r
b10100111 t
b11 w
b10100111 x
b1111101110010010110111101110111 z
b1111101110010010110111101110111 {
b11110111011111101110101000111111 |
b11110111011111101110101000111111 }

#470000
0!
01

#475000
1!
b1000 !!
b100000 "!
b11110111011111101110101000111111 +
b0xxxxxxxxxxxxxxxxxxxxxxxxxxxxxxxxxxxxxxxxxxxxxxxxxxxxx0111010111001100101001110101001101010011xxxxxxxx 0
11
bx0111010111001100101001110101001101010011xxxxxxxx 9
b101 F
bx0111010111001100101001110101001101010011xxxxxxxx X
b1010011 Y
b1010011 [
b110 `
b110 a
b100 f
b110 n
b100 p
b101 r
b1010011 t
b100 w
b1010011 x
b11110111011111101110101000111111 z
b11110111011111101110101000111111 {
b10011100110000010001111111010010 |
b10011100110000010001111111010010 }

#480000
0!
01

#485000
1!
b1000 !!
b100000 "!
b10011100110000010001111111010010 +
b0xxxxxxxxxxxxxxxxxxxxxxxxxxxxxxxxxxxxxxxxxxxxxxxxxxxxx011101011100110010100111010100110000101100001011 0
11
bx011101011100110010100111010100110000101100001011 9
b110 F
bx011101011100110010100111010100110000101100001011 X
b1011 Y
b1011 [
b101 `
b101 a
b101 f
b1001 k
b101 n
b101 p
b110 r
b1011 t
b101 w
b1011 x
b10011100110000010001111111010010 z
b10011100110000010001111111010010 {
b11111010010001011011100110011011 |
b11111010010001011011100110011011 }

#490000
0!
01

#495000
1!
b1000 !!
b100000 "!
b11111010010001011011100110011011 +
11
b111 F
b11111010 Y
b11111010 [
b100 `
b100 a
b110 f
b1001 j
b100 n
b110 p
b111 r
b11111010 t
b110 w
b11111010 x
b11111010010001011011100110011011 z
b11111010010001011011100110011011 {
b1000101101110011001101100000000 |
b1000101101110011001101100000000 }

#500000
0!
01

#505000
1!
b1000 !!
b100000 "!
b1000101101110011001101100000000 +
11
b1000 F
b1000101 Y
b1000101 [
b11 `
b11 a
b1 h
b11 n
b111 p
b1000 r
b1000101 t
b111 w
b1000101 x
b1000101101110011001101100000000 z
b1000101101110011001101100000000 {
b10111001100110110000000000000000 |
b10111001100110110000000000000000 }

#510000
0!
01

#515000
1!
b1000 !!
b100000 "!
b10111001100110110000000000000000 +
11
b1001 F
b10111001 Y
b10111001 [
b10 `
b10 a
b10 h
b10 n
b1000 p
b1001 r
b10111001 t
b1000 w
b10111001 x
b10111001100110110000000000000000 z
b10111001100110110000000000000000 {
b10011011000000000000000000000000 |
b10011011000000000000000000000000 }

#520000
0!
01

#525000
1!
b1000 !!
b100000 "!
b10011011000000000000000000000000 +
11
b1010 F
b10011011 Y
b10011011 [
b1 `
b1 a
b11 h
b1 n
b1001 p
b1010 r
b10011011 t
b1001 w
b10011011 x
b10011011000000000000000000000000 z
b10011011000000000000000000000000 {
b0 |
b0 }

#530000
0!
01

#535000
1!
b1000 !!
b100000 "!
b0 +
11
1<
b1011 F
b0 L
b0 Y
b0 [
1^
b0 `
b0 a
b0 h
b1010 k
b0 n
b1010 p
b1011 r
b0 t
b1010 w
b0 x
b0 z
b0 {
b0 |
b0 }

#540000
0!
01

#545000
1!
1*
1,
11
0<
b1100 F
b0 K
b1 L
0Z
bx [
0\
b1 h
b1010 j
b0 k
0m
bx t
0y

#550000
0!
01

#555000
1!
b1000 !!
1"
b100000 "!
0*
b11111111111111111111111111111111 +
0,
11
12
b0 ?
b0 @
b0 A
b0 C
b0 F
b11111111111111111111111111111111 H
b11111111111111111111111111111111 O
b11111111111111111111111111111111 P
bx Q
bx R
b1000 T
b100000 U
b0 b
b0 c
b0 d
b0 f
b0 h
b0 j
b0 o
b0 p
b1 q
b1 r
b0 v
b0 w
b11111111111111111111111111111111 z
b11111111111111111111111111111111 {
b1001110000010001011111110110100 |
b1001110000010001011111110110100 }

#560000
0!
01

#565000
1!
0"
11
02
b1010101 :
1;
b1 K
b1010101 V
1W
b1110101 [
b1 k
b1110101 t

#570000
0!
01

#575000
1!
11
b1 ?
b1 j

#580000
0!
01

#585000
1!
11
b10 ?
b1 b

#590000
0!
01

#595000
1!
11
b11 ?
b10 b

#600000
0!
01

#605000
1!
11
b100 ?
b11 b

#610000
0!
01

#615000
1!
11
b101 ?
b100 b

#620000
0!
01

#625000
1!
11
b110 ?
b10 L
b101 b
b10 k

#630000
0!
01

#635000
1!
11
b10101011 :
b111 ?
b10 K
b11 L
b10101011 V
b110 b
b10 j
b11 k

#640000
0!
01

#645000
1!
b1000 !!
b100000 "!
11
b111101 :
b111101 I
1J
b11 K
b111101 M
1N
b10101011111101110101010011110111 Q
b10101011111101110101010011110111 R
b1000 T
b100000 U
b111101 V
b111101 Y
1Z
b11 j
b111101 x
1y
b10101011111101110101010011110111 |
b10101011111101110101010011110111 }

#650000
0!
01

#655000
1!
b1000 !!
b100000 "!
b10101011111101110101010011110111 +
11
b1000100 :
b1 @
b10101011111101110101010011110111 H
b1000100 I
b1000100 M
b10101011111101110101010011110111 O
b10101011111101110101010011110111 P
b1010101100100110110011000100 Q
b1010101100100110110011000100 R
b1000 T
b100000 U
b1000100 V
b1000100 Y
b1 c
b1000100 x
b10101011111101110101010011110111 z
b10101011111101110101010011110111 {
b1010101100100110110011000100 |
b1010101100100110110011000100 }

#660000
0!
01

#665000
1!
b1000 !!
b100000 "!
b1010101100100110110011000100 +
11
b1000001 :
b10 @
b1010101100100110110011000100 H
b1000001 I
b1000001 M
b1010101100100110110011000100 O
b1010101100100110110011000100 P
b10101101101000010111111100010110 Q
b10101101101000010111111100010110 R
b1000 T
b100000 U
b1000001 V
b1000001 Y
b10 c
b1000001 x
b1010101100100110110011000100 z
b1010101100100110110011000100 {
b10101101101000010111111100010110 |
b10101101101000010111111100010110 }

#670000
0!
01

#675000
1!
b1000 !!
b100000 "!
b10101101101000010111111100010110 +
11
b10100111 :
b11 @
b10101101101000010111111100010110 H
b10100111 I
b10100111 M
b10101101101000010111111100010110 O
b10101101101000010111111100010110 P
b10001110111101011100000011010110 Q
b10001110111101011100000011010110 R
b1000 T
b100000 U
b10100111 V
b10100111 Y
b11 c
b10100111 x
b10101101101000010111111100010110 z
b10101101101000010111111100010110 {
b10001110111101011100000011010110 |
b10001110111101011100000011010110 }

#680000
0!
01

#685000
1!
b1000 !!
b100000 "!
b10001110111101011100000011010110 +
11
b11111001 :
b100 @
b10001110111101011100000011010110 H
b11111001 I
b11111001 M
b10001110111101011100000011010110 O
b10001110111101011100000011010110 P
b1011001100111001101111100010 Q
b1011001100111001101111100010 R
b1000 T
b100000 U
b11111001 V
b11111001 Y
b100 c
b11111001 x
b10001110111101011100000011010110 z
b10001110111101011100000011010110 {
b1011001100111001101111100010 |
b1011001100111001101111100010 }

#690000
0!
01

#695000
1!
b1000 !!
b100000 "!
b1011001100111001101111100010 +
11
b1 :
b101 @
b1011001100111001101111100010 H
b1 I
b100 L
b1 M
b1011001100111001101111100010 O
b1011001100111001101111100010 P
b11100000100010011010011010110 Q
b11100000100010011010011010110 R
b1000 T
b100000 U
b1 V
b1 Y
b101 c
b100 k
b1 x
b1011001100111001101111100010 z
b1011001100111001101111100010 {
b11100000100010011010011010110 |
b11100000100010011010011010110 }

#700000
0!
01

#705000
1!
b1000 !!
b100000 "!
b11100000100010011010011010110 +
11
b1000100 :
b110 @
b11100000100010011010011010110 H
b1000100 I
b100 K
b100 L
b1000100 M
b11100000100010011010011010110 O
b11100000100010011010011010110 P
b1001111101010111001000010111111 Q
b1001111101010111001000010111111 R
b1000 T
b100000 U
b1000100 V
b1000100 Y
b110 c
b100 j
b100 k
b1000100 x
b11100000100010011010011010110 z
b11100000100010011010011010110 {
b1001111101010111001000010111111 |
b1001111101010111001000010111111 }

#710000
0!
01

#715000
1!
b1000 !!
b100000 "!
b1001111101010111001000010111111 +
11
b110110 :
b1 A
b1001111101010111001000010111111 H
b110110 I
b110110 M
b1001111101010111001000010111111 O
b1001111101010111001000010111111 P
b1101001111011010101001011101000 Q
b1101001111011010101001011101000 R
b1000 T
b100000 U
b110110 V
b110110 Y
b1 d
b110110 x
b1001111101010111001000010111111 z
b1001111101010111001000010111111 {
b1101001111011010101001011101000 |
b1101001111011010101001011101000 }

#720000
0!
01

#725000
1!
b1000 !!
b100000 "!
b1101001111011010101001011101000 +
11
b1000101 :
b10 A
b1101001111011010101001011101000 H
b1000101 I
b1000101 M
b1101001111011010101001011101000 O
b1101001111011010101001011101000 P
b1000000011111011100010110000100 Q
b1000000011111011100010110000100 R
b1000 T
b100000 U
b1000101 V
b1000101 Y
b10 d
b1000101 x
b1101001111011010101001011101000 z
b1101001111011010101001011101000 {
b1000000011111011100010110000100 |
b1000000011111011100010110000100 }

#730000
0!
01

