code/final/sim/Final.vcd
$date
   Wed Mar 11 10:58:50 2026
$end

$version
  2024.2.0
  $dumpfile ("Final.vcd") 
$end

$timescale
  1ps
$end

$scope module Top_Layer_tb $end
$var reg 1 ! clk $end
$var reg 1 " reset $end
$var reg 1 # start $end
$var reg 48 $ MAC_dest_addr_in [47:0] $end
$var reg 48 % MAC_source_addr_in [47:0] $end
$var reg 16 & ethernet_type_in [15:0] $end
$var reg 12000 ' payload_in [11999:0] $end
$var reg 11 ( payload_length [10:0] $end
$var reg 1 ) CRC32_error $end
$var reg 1 * CRC32_correct $end
$var reg 32 + CRC32_crc [31:0] $end
$var reg 1 , Check_done $end
$var reg 48 - MAC_dest_addr_out [47:0] $end
$var reg 48 . MAC_source_addr_out [47:0] $end
$var reg 16 / ethernet_type_out [15:0] $end
$var reg 12000 0 payload_out [11999:0] $end
$scope module dut $end
$var wire 1 1 clk $end
$var wire 1 2 reset $end
$var wire 1 3 start $end
$var wire 48 4 MAC_dest_addr_in [47:0] $end
$var wire 48 5 MAC_source_addr_in [47:0] $end
$var wire 16 6 ethernet_type_in [15:0] $end
$var wire 12000 7 payload_in [11999:0] $end
$var wire 11 8 payload_length [10:0] $end
$var reg 1 ) CRC32_error $end
$var reg 1 * CRC32_correct $end
$var reg 32 + CRC32_crc [31:0] $end
$var reg 1 , Check_done $end
$var reg 48 - MAC_dest_addr_out [47:0] $end
$var reg 48 . MAC_source_addr_out [47:0] $end
$var reg 16 / ethernet_type_out [15:0] $end
$var reg 101 9 payload_out [100:0] $end
$var reg 8 : tx_data_tx [7:0] $end
$var reg 1 ; tx_valid_tx $end
$var reg 1 < frame_done_tx $end
$var reg 8 = rx_data_rx [7:0] $end
$var reg 1 > rx_valid_rx $end
$scope module Transmit $end
$var wire 1 1 clk $end
$var wire 1 2 reset $end
$var wire 1 3 start $end
$var wire 48 4 MAC_dest_addr [47:0] $end
$var wire 48 5 MAC_source_addr [47:0] $end
$var wire 16 6 ethernet_type [15:0] $end
$var wire 12000 7 payload [11999:0] $end
$var wire 11 8 payload_length [10:0] $end
$var reg 8 : tx_data [7:0] $end
$var reg 1 ; tx_valid $end
$var reg 1 < frame_done $end
$var reg 3 ? cnt_preamble [2:0] $end
$var reg 3 @ cnt_MAC_dest [2:0] $end
$var reg 3 A cnt_MAC_source [2:0] $end
$var reg 1 B cnt_ethernet_type $end
$var reg 11 C cnt_payload [10:0] $end
$var reg 6 D cnt_pad [5:0] $end
$var reg 2 E cnt_fcs [1:0] $end
$var reg 4 F cnt_ipg [3:0] $end
$var reg 11 G MAX_payload [10:0] $end
$var reg 32 H CRC32_crc [31:0] $end
$var reg 8 I CRC32_data [7:0] $end
$var reg 1 J CRC32_valid $end
$var reg 32 K state $end
$var reg 32 L next_state $end
$scope module CRC32_tx $end
$var wire 1 1 clk $end
$var wire 1 2 reset $end
$var wire 8 M data_in [7:0] $end
$var wire 1 N valid $end
$var wire 32 O crc_out [31:0] $end
$var reg 32 P crc [31:0] $end
$var reg 32 Q crc_prev [31:0] $end
$var reg 32 R crc_next [31:0] $end
$var reg 4 S debug [3:0] $end
$scope begin Block41_3 $end
$var reg 32 T i [31:0] $end
$scope begin Block43_4 $end
$var reg 32 U j [31:0] $end
$upscope $end
$upscope $end
$upscope $end
$upscope $end
$scope module Receive $end
$var wire 1 1 clk $end
$var wire 1 2 reset $end
$var wire 8 V rx_data [7:0] $end
$var wire 1 W rx_valid $end
$var reg 1 ) CRC32_error $end
$var reg 1 * CRC32_correct $end
$var reg 32 + CRC32_crc [31:0] $end
$var reg 1 , Check_done $end
$var reg 48 - MAC_dest_addr [47:0] $end
$var reg 48 . MAC_source_addr [47:0] $end
$var reg 16 / ethernet_type [15:0] $end
$var reg 12000 X payload [11999:0] $end
$var reg 8 Y CRC32_data [7:0] $end
$var reg 1 Z CRC32_valid $end
$var reg 8 [ fifo_data [7:0] $end
$var reg 1 \ fifo_rd_en $end
$var reg 1 ] fifo_wr_en $end
$var reg 1 ^ fifo_empty $end
$var reg 1 _ fifo_full $end
$var reg 8 ` fifo_used_memory [7:0] $end
$var reg 8 a length_payload_fcs [7:0] $end
$var reg 3 b cnt_preamble [2:0] $end
$var reg 3 c cnt_MAC_dest [2:0] $end
$var reg 3 d cnt_MAC_source [2:0] $end
$var reg 1 e cnt_ethernet_type $end
$var reg 11 f cnt_payload [10:0] $end
$var reg 6 g cnt_pad [5:0] $end
$var reg 2 h cnt_fcs [1:0] $end
$var reg 4 i cnt_ipg [3:0] $end
$var reg 32 j state $end
$var reg 32 k next_state $end
$scope module rx_fifo $end
$var wire 1 1 clk $end
$var wire 1 2 reset $end
$var wire 1 l push $end
$var wire 8 V wr_data [7:0] $end
$var wire 1 m pop $end
$var reg 8 [ rd_data [7:0] $end
$var reg 1 _ fifo_full $end
$var reg 1 ^ fifo_empty $end
$var reg 11 n fifo_used_memory [10:0] $end
$var reg 11 o wr_ptr [10:0] $end
$var reg 11 p rd_ptr [10:0] $end
$var reg 11 q wr_ptr_nxt [10:0] $end
$var reg 11 r rd_ptr_nxt [10:0] $end
$var reg 1 s write_enable $end
$var reg 8 t rd_data_raw [7:0] $end
$scope module fifo_ram $end
$var wire 1 1 clk $end
$var wire 1 u we $end
$var wire 11 v wr_addr [10:0] $end
$var wire 8 V wr_data [7:0] $end
$var wire 11 w rd_addr [10:0] $end
$var reg 8 t rd_data [7:0] $end
$upscope $end
$upscope $end
$scope module CRC32_rx $end
$var wire 1 1 clk $end
$var wire 1 2 reset $end
$var wire 8 x data_in [7:0] $end
$var wire 1 y valid $end
$var wire 32 z crc_out [31:0] $end
$var reg 32 { crc [31:0] $end
$var reg 32 | crc_prev [31:0] $end
$var reg 32 } crc_next [31:0] $end
$var reg 4 ~ debug [3:0] $end
$scope begin Block41_3 $end
$var reg 32 !! i [31:0] $end
$scope begin Block43_4 $end
$var reg 32 "! j [31:0] $end
$upscope $end
$upscope $end
$upscope $end
$upscope $end
$upscope $end
$scope task clk_gen $end
$upscope $end
$scope task apply_reset $end
$upscope $end
$upscope $end
$enddefinitions $end

#0
$dumpvars
0!
b1000 !!
0"
b100000 "!
0#
bx $
bx %
bx &
bx '
bx (
0)
0*
bx +
0,
bx -
bx .
bx /
b0xxxxxxxxxxxxxxxxxxxxxxxxxxxxxxxxxxxxxxxxxxxxxxxxxxxxxxxxxxxxxxxxxxxxxxxxxxxxxxxxxxxxxxxxxxxxxxxxxxxxx 0
01
02
03
bx 4
bx 5
bx 6
bx 7
bx 8
bx 9
b0 :
x;
0<
bx =
x>
bx ?
bx @
bx A
xB
bx C
bx D
bx E
bx F
bx G
bx H
bx I
0J
b0 K
b0 L
bx M
0N
bx O
bx P
bx Q
bx R
bx S
b1000 T
b100000 U
b0 V
xW
bx X
bx Y
0Z
bx [
0\
0]
x^
x_
bx `
bx a
bx b
bx c
bx d
xe
bx f
bx g
bx h
bx i
b0 j
b0 k
0l
0m
bx n
bx o
bx p
bx q
bx r
0s
bx t
0u
bx v
bx w
bx x
0y
bx z
bx {
bx |
bx }
bx ~
$end

#5000
1!
b1000 !!
1"
b100000 "!
b11111111111111111111111111111111 +
11
12
b0 ?
b0 @
b0 A
0B
b0 C
b0 D
b0 E
b0 F
b11111111111111111111111111111111 H
b11111111111111111111111111111111 O
b11111111111111111111111111111111 P
bx Q
bx R
b1000 T
b100000 U
1^
0_
b0 `
b0 b
b0 c
b0 d
0e
b0 f
b0 g
b0 h
b0 i
b0 k
b0 n
b0 o
b0 p
b1 q
b1 r
b0 v
b0 w
b11111111111111111111111111111111 z
b11111111111111111111111111111111 {
bx |
bx }

#10000
0!
01

#15000
1!
0"
11
02

#20000
0!
01

#25000
1!
11

#30000
0!
01

#35000
1!
11

#40000
0!
01

#45000
1!
11

#50000
0!
01

#55000
1!
11

#60000
0!
01

#65000
1!
11

#70000
0!
01

#75000
1!
11

#80000
0!
01

#85000
1!
11

#90000
0!
01

#95000
1!
b1101010011010100110101001101010011010100110101 $
b100001101000011010000110100001101000011010000110 %
b10011100100111 &
bx0100001001000010010000100100001001000010 '
b101 (
11
b1101010011010100110101001101010011010100110101 4
b100001101000011010000110100001101000011010000110 5
b10011100100111 6
bx0100001001000010010000100100001001000010 7
b101 8

#100000
0!
01

#105000
1!
1#
11
13
b1 L

#110000
0!
01

#115000
1!
11
b1010101 :
1;
b1 K
b1010101 V
1W
b1 k

#120000
0!
01

#125000
1!
11
b1 ?
b1 j

#130000
0!
01

#135000
1!
11
b10 ?
b1 b

#140000
0!
01

#145000
1!
11
b11 ?
b10 b

#150000
0!
01

#155000
1!
11
b100 ?
b11 b

#160000
0!
01

#165000
1!
11
b101 ?
b100 b

#170000
0!
01

#175000
1!
11
b110 ?
b10 L
b101 b
b10 k

#180000
0!
01

#185000
1!
11
b10101011 :
b111 ?
b10 K
b11 L
b10101011 V
b110 b
b10 j
b11 k

#190000
0!
01

#195000
1!
b1000 !!
b100000 "!
b110101xxxxxxxxxxxxxxxxxxxxxxxxxxxxxxxxxxxxxxxx -
11
b110101 :
b110101 I
1J
b11 K
b110101 M
1N
b10001101111111111011100101001111 Q
b10001101111111111011100101001111 R
b1000 T
b100000 U
b110101 V
b110101 Y
1Z
b11 j
b110101 x
1y
b10001101111111111011100101001111 |
b10001101111111111011100101001111 }

#200000
0!
01

#205000
1!
b1000 !!
b100000 "!
b10001101111111111011100101001111 +
b11010100110101xxxxxxxxxxxxxxxxxxxxxxxxxxxxxxxx -
11
b1 @
b10001101111111111011100101001111 H
b10001101111111111011100101001111 O
b10001101111111111011100101001111 P
b1100100100011110010111111000110 Q
b1100100100011110010111111000110 R
b1000 T
b100000 U
b1 c
b10001101111111111011100101001111 z
b10001101111111111011100101001111 {
b1100100100011110010111111000110 |
b1100100100011110010111111000110 }

#210000
0!
01

#215000
1!
b1000 !!
b100000 "!
b1100100100011110010111111000110 +
b1101010011010100110101xxxxxxxxxxxxxxxxxxxxxxxx -
11
b10 @
b1100100100011110010111111000110 H
b1100100100011110010111111000110 O
b1100100100011110010111111000110 P
b11110011011110010111000010110000 Q
b11110011011110010111000010110000 R
b1000 T
b100000 U
b10 c
b1100100100011110010111111000110 z
b1100100100011110010111111000110 {
b11110011011110010111000010110000 |
b11110011011110010111000010110000 }

#220000
0!
01

#225000
1!
b1000 !!
b100000 "!
b11110011011110010111000010110000 +
b110101001101010011010100110101xxxxxxxxxxxxxxxx -
11
b11 @
b11110011011110010111000010110000 H
b11110011011110010111000010110000 O
b11110011011110010111000010110000 P
b111110011111000110110100101011 Q
b111110011111000110110100101011 R
b1000 T
b100000 U
b11 c
b11110011011110010111000010110000 z
b11110011011110010111000010110000 {
b111110011111000110110100101011 |
b111110011111000110110100101011 }

#230000
0!
01

#235000
1!
b1000 !!
b100000 "!
b111110011111000110110100101011 +
b11010100110101001101010011010100110101xxxxxxxx -
11
b100 @
b111110011111000110110100101011 H
b111110011111000110110100101011 O
b111110011111000110110100101011 P
b1010111001001101110000001100001 Q
b1010111001001101110000001100001 R
b1000 T
b100000 U
b100 c
b111110011111000110110100101011 z
b111110011111000110110100101011 {
b1010111001001101110000001100001 |
b1010111001001101110000001100001 }

#240000
0!
01

#245000
1!
b1000 !!
b100000 "!
b1010111001001101110000001100001 +
b1101010011010100110101001101010011010100110101 -
11
b101 @
b1010111001001101110000001100001 H
b100 L
b1010111001001101110000001100001 O
b1010111001001101110000001100001 P
b10000011110001111001110011111001 Q
b10000011110001111001110011111001 R
b1000 T
b100000 U
b101 c
b100 k
b1010111001001101110000001100001 z
b1010111001001101110000001100001 {
b10000011110001111001110011111001 |
b10000011110001111001110011111001 }

#250000
0!
01

#255000
1!
b1000 !!
b100000 "!
b10000011110001111001110011111001 +
b10000110xxxxxxxxxxxxxxxxxxxxxxxxxxxxxxxxxxxxxxxx .
11
b10000110 :
b110 @
b10000011110001111001110011111001 H
b10000110 I
b100 K
b100 L
b10000110 M
b10000011110001111001110011111001 O
b10000011110001111001110011111001 P
b11010000010110011001001001101011 Q
b11010000010110011001001001101011 R
b1000 T
b100000 U
b10000110 V
b10000110 Y
b110 c
b100 j
b100 k
b10000110 x
b10000011110001111001110011111001 z
b10000011110001111001110011111001 {
b11010000010110011001001001101011 |
b11010000010110011001001001101011 }

#260000
0!
01

#265000
1!
b1000 !!
b100000 "!
b11010000010110011001001001101011 +
b1000011010000110xxxxxxxxxxxxxxxxxxxxxxxxxxxxxxxx .
11
b1 A
b11010000010110011001001001101011 H
b11010000010110011001001001101011 O
b11010000010110011001001001101011 P
b111011100000111000110110110101 Q
b111011100000111000110110110101 R
b1000 T
b100000 U
b1 d
b11010000010110011001001001101011 z
b11010000010110011001001001101011 {
b111011100000111000110110110101 |
b111011100000111000110110110101 }

#270000
0!
01

#275000
1!
b1000 !!
b100000 "!
b111011100000111000110110110101 +
b100001101000011010000110xxxxxxxxxxxxxxxxxxxxxxxx .
11
b10 A
b111011100000111000110110110101 H
b111011100000111000110110110101 O
b111011100000111000110110110101 P
b1111011111101011111010101101 Q
b1111011111101011111010101101 R
b1000 T
b100000 U
b10 d
b111011100000111000110110110101 z
b111011100000111000110110110101 {
b1111011111101011111010101101 |
b1111011111101011111010101101 }

#280000
0!
01

#285000
1!
b1000 !!
b100000 "!
b1111011111101011111010101101 +
b10000110100001101000011010000110xxxxxxxxxxxxxxxx .
11
b11 A
b1111011111101011111010101101 H
b1111011111101011111010101101 O
b1111011111101011111010101101 P
b110101011110111011110111100001 Q
b110101011110111011110111100001 R
b1000 T
b100000 U
b11 d
b1111011111101011111010101101 z
b1111011111101011111010101101 {
b110101011110111011110111100001 |
b110101011110111011110111100001 }

#290000
0!
01

#295000
1!
b1000 !!
b100000 "!
b110101011110111011110111100001 +
b1000011010000110100001101000011010000110xxxxxxxx .
11
b100 A
b110101011110111011110111100001 H
b110101011110111011110111100001 O
b110101011110111011110111100001 P
b11001011110000000100101010100111 Q
b11001011110000000100101010100111 R
b1000 T
b100000 U
b100 d
b110101011110111011110111100001 z
b110101011110111011110111100001 {
b11001011110000000100101010100111 |
b11001011110000000100101010100111 }

#300000
0!
01

#305000
1!
b1000 !!
b100000 "!
b11001011110000000100101010100111 +
b100001101000011010000110100001101000011010000110 .
11
b101 A
b11001011110000000100101010100111 H
b101 L
b11001011110000000100101010100111 O
b11001011110000000100101010100111 P
b11000101000000010101000110100100 Q
b11000101000000010101000110100100 R
b1000 T
b100000 U
b101 d
b101 k
b11001011110000000100101010100111 z
b11001011110000000100101010100111 {
b11000101000000010101000110100100 |
b11000101000000010101000110100100 }

#310000
0!
01

#315000
1!
b1000 !!
b100000 "!
b11000101000000010101000110100100 +
b100111xxxxxxxx /
11
b100111 :
b110 A
b11000101000000010101000110100100 H
b100111 I
b101 K
b101 L
b100111 M
b11000101000000010101000110100100 O
b11000101000000010101000110100100 P
b11001101011110101011100100010111 Q
b11001101011110101011100100010111 R
b1000 T
b100000 U
b100111 V
b100111 Y
b110 d
b101 j
b101 k
b100111 x
b11000101000000010101000110100100 z
b11000101000000010101000110100100 {
b11001101011110101011100100010111 |
b11001101011110101011100100010111 }

#320000
0!
01

#325000
1!
b1000 !!
b100000 "!
b11001101011110101011100100010111 +
b10011100100111 /
11
1B
b11001101011110101011100100010111 H
b111 L
b11001101011110101011100100010111 O
b11001101011110101011100100010111 P
b10010000100110101110011110101111 Q
b10010000100110101110011110101111 R
b1000 T
b100000 U
1e
b110 k
b11001101011110101011100100010111 z
b11001101011110101011100100010111 {
b10010000100110101110011110101111 |
b10010000100110101110011110101111 }

#330000
0!
01

#335000
1!
b1000 !!
b100000 "!
b10010000100110101110011110101111 +
11
b1000010 :
0B
b10010000100110101110011110101111 H
b1000010 I
b111 K
b111 L
b1000010 M
b10010000100110101110011110101111 O
b10010000100110101110011110101111 P
b10000010111111101101111110000111 Q
b10000010111111101101111110000111 R
b1000 T
b100000 U
b1000010 V
0Z
1]
0e
b110 j
b110 k
1l
1s
1u
0y
b10010000100110101110011110101111 z
b10010000100110101110011110101111 {
b111001100111100111001001111011 |
b111001100111100111001001111011 }

#340000
0!
01

#345000
1!
11
b1 C
b10000010111111101101111110000111 H
b10000010111111101101111110000111 O
b10000010111111101101111110000111 P
b10100011010101010001011110011001 Q
b10100011010101010001011110011001 R
b1000 T
b100000 U
0^
b1 `
b1 n
b1 o
b10 q
b1 v

#350000
0!
01

#355000
1!
11
b10 C
b10100011010101010001011110011001 H
b10100011010101010001011110011001 O
b10100011010101010001011110011001 P
b10010100011111111010001011001110 Q
b10010100011111111010001011001110 R
b1000 T
b100000 U
b1000010 [
b10 `
b10 n
b10 o
b11 q
b1000010 t
b10 v

#360000
0!
01

#365000
1!
11
b11 C
b10010100011111111010001011001110 H
b10010100011111111010001011001110 O
b10010100011111111010001011001110 P
b1110100101111111100100001011011 Q
b1110100101111111100100001011011 R
b1000 T
b100000 U
b11 `
b11 n
b11 o
b100 q
b11 v

#370000
0!
01

#375000
1!
11
b100 C
b1110100101111111100100001011011 H
b1001 L
b1110100101111111100100001011011 O
b1110100101111111100100001011011 P
b1110001011111000111101100100010 Q
b1110001011111000111101100100010 R
b1000 T
b100000 U
b100 `
b100 n
b100 o
b101 q
b100 v

#380000
0!
01

#385000
1!
11
b1110001 :
b101 C
b1110001011111000111101100100010 H
bx I
0J
b1001 K
b1001 L
bx M
0N
b1110001011111000111101100100010 O
b1110001011111000111101100100010 P
bx Q
bx R
b1000 T
b100000 U
b1110001 V
b101 `
b101 n
b101 o
b110 q
b101 v

#390000
0!
01

#395000
1!
11
b1111100 :
b1 E
b1111100 V
b110 `
b110 n
b110 o
b111 q
b110 v

#400000
0!
01

#405000
1!
11
b1111011 :
b10 E
b1111011 V
b111 `
b111 n
b111 o
b1000 q
b111 v

#410000
0!
01

#415000
1!
11
b100010 :
b11 E
b1010 L
b100010 V
b1000 `
b1000 n
b1000 o
b1001 q
b1000 v

#420000
0!
01

#425000
1!
11
b0 :
0;
b0 E
b1010 K
b1010 L
b0 V
0W
b1001 `
b111 k
b1001 n
b1001 o
b1010 q
b1001 v

#430000
0!
01

#435000
1!
b0xxxxxxxxxxxxxxxxxxxxxxxxxxxxxxxxxxxxxxxxxxxxxxxxxxxxx0100001001000010xxxxxxxxxxxxxxxxxxxxxxxxxxxxxxxx 0
11
bx0100001001000010xxxxxxxxxxxxxxxxxxxxxxxxxxxxxxxx 9
b1 F
bx0100001001000010xxxxxxxxxxxxxxxxxxxxxxxxxxxxxxxx X
1\
0]
b1010 `
b1010 a
b111 j
0l
1m
b1010 n
b1010 o
b1011 q
0s
0u
b1010 v

#440000
0!
01

#445000
1!
b1000 !!
b100000 "!
11
b10 F
b1000010 Y
1Z
b1001 `
b1001 a
b1 f
b1001 n
b1 p
b10 r
b1 w
b1000010 x
1y
b10000010111111101101111110000111 |
b10000010111111101101111110000111 }

#450000
0!
01

#455000
1!
b1000 !!
b100000 "!
b10000010111111101101111110000111 +
b0xxxxxxxxxxxxxxxxxxxxxxxxxxxxxxxxxxxxxxxxxxxxxxxxxxxxx010000100100001001000010xxxxxxxxxxxxxxxxxxxxxxxx 0
11
bx010000100100001001000010xxxxxxxxxxxxxxxxxxxxxxxx 9
b11 F
bx010000100100001001000010xxxxxxxxxxxxxxxxxxxxxxxx X
b1000 `
b1000 a
b10 f
b1000 n
b10 p
b11 r
b10 w
b10000010111111101101111110000111 z
b10000010111111101101111110000111 {
b10100011010101010001011110011001 |
b10100011010101010001011110011001 }

#460000
0!
01

#465000
1!
b1000 !!
b100000 "!
b10100011010101010001011110011001 +
b0xxxxxxxxxxxxxxxxxxxxxxxxxxxxxxxxxxxxxxxxxxxxxxxxxxxxx01000010010000100100001001000010xxxxxxxxxxxxxxxx 0
11
bx01000010010000100100001001000010xxxxxxxxxxxxxxxx 9
b100 F
bx01000010010000100100001001000010xxxxxxxxxxxxxxxx X
b111 `
b111 a
b11 f
b111 n
b11 p
b100 r
b11 w
b10100011010101010001011110011001 z
b10100011010101010001011110011001 {
b10010100011111111010001011001110 |
b10010100011111111010001011001110 }

#470000
0!
01

#475000
1!
b1000 !!
b100000 "!
b10010100011111111010001011001110 +
b0xxxxxxxxxxxxxxxxxxxxxxxxxxxxxxxxxxxxxxxxxxxxxxxxxxxxx0100001001000010010000100100001001000010xxxxxxxx 0
11
bx0100001001000010010000100100001001000010xxxxxxxx 9
b101 F
bx0100001001000010010000100100001001000010xxxxxxxx X
b110 `
b110 a
b100 f
b110 n
b100 p
b101 r
b100 w
b10010100011111111010001011001110 z
b10010100011111111010001011001110 {
b1110100101111111100100001011011 |
b1110100101111111100100001011011 }

#480000
0!
01

#485000
1!
b1000 !!
b100000 "!
b1110100101111111100100001011011 +
b0xxxxxxxxxxxxxxxxxxxxxxxxxxxxxxxxxxxxxxxxxxxxxxxxxxxxx010000100100001001000010010000100100001001000010 0
11
bx010000100100001001000010010000100100001001000010 9
b110 F
bx010000100100001001000010010000100100001001000010 X
b101 `
b101 a
b101 f
b1001 k
b101 n
b101 p
b110 r
b101 w
b1110100101111111100100001011011 z
b1110100101111111100100001011011 {
b1110001011111000111101100100010 |
b1110001011111000111101100100010 }

#490000
0!
01

#495000
1!
b1000 !!
b100000 "!
b1110001011111000111101100100010 +
11
b111 F
b1110001 Y
b1110001 [
b100 `
b100 a
b110 f
b1001 j
b100 n
b110 p
b111 r
b1110001 t
b110 w
b1110001 x
b1110001011111000111101100100010 z
b1110001011111000111101100100010 {
b1111100011110110010001000000000 |
b1111100011110110010001000000000 }

#500000
0!
01

#505000
1!
b1000 !!
b100000 "!
b1111100011110110010001000000000 +
11
b1000 F
b1111100 Y
b1111100 [
b11 `
b11 a
b1 h
b11 n
b111 p
b1000 r
b1111100 t
b111 w
b1111100 x
b1111100011110110010001000000000 z
b1111100011110110010001000000000 {
b1111011001000100000000000000000 |
b1111011001000100000000000000000 }

#510000
0!
01

#515000
1!
b1000 !!
b100000 "!
b1111011001000100000000000000000 +
11
b1001 F
b1111011 Y
b1111011 [
b10 `
b10 a
b10 h
b10 n
b1000 p
b1001 r
b1111011 t
b1000 w
b1111011 x
b1111011001000100000000000000000 z
b1111011001000100000000000000000 {
b100010000000000000000000000000 |
b100010000000000000000000000000 }

#520000
0!
01

#525000
1!
b1000 !!
b100000 "!
b100010000000000000000000000000 +
11
b1010 F
b100010 Y
b100010 [
b1 `
b1 a
b11 h
b1 n
b1001 p
b1010 r
b100010 t
b1001 w
b100010 x
b100010000000000000000000000000 z
b100010000000000000000000000000 {
b0 |
b0 }

#530000
0!
01

#535000
1!
b1000 !!
b100000 "!
b0 +
11
1<
b1011 F
b0 L
b0 Y
b0 [
1^
b0 `
b0 a
b0 h
b1010 k
b0 n
b1010 p
b1011 r
b0 t
b1010 w
b0 x
b0 z
b0 {
b0 |
b0 }

#540000
0!
01

#545000
1!
1*
1,
11
0<
b1100 F
b0 K
b1 L
0Z
bx [
0\
b1 h
b1010 j
b0 k
0m
bx t
0y

#550000
0!
01

#555000
1!
b1000 !!
1"
b100000 "!
0*
b11111111111111111111111111111111 +
0,
11
12
b0 ?
b0 @
b0 A
b0 C
b0 F
b11111111111111111111111111111111 H
b11111111111111111111111111111111 O
b11111111111111111111111111111111 P
bx Q
bx R
b1000 T
b100000 U
b0 b
b0 c
b0 d
b0 f
b0 h
b0 j
b0 o
b0 p
b1 q
b1 r
b0 v
b0 w
b11111111111111111111111111111111 z
b11111111111111111111111111111111 {
b1001110000010001011111110110100 |
b1001110000010001011111110110100 }

#560000
0!
01

#565000
1!
0"
11
02
b1010101 :
1;
b1 K
b1010101 V
1W
b1000010 [
b1 k
b1000010 t

#570000
0!
01

#575000
1!
11
b1 ?
b1 j

#580000
0!
01

#585000
1!
11
b10 ?
b1 b

#590000
0!
01

#595000
1!
11
b11 ?
b10 b

#600000
0!
01

#605000
1!
11
b100 ?
b11 b

#610000
0!
01

#615000
1!
11
b101 ?
b100 b

#620000
0!
01

#625000
1!
11
b110 ?
b10 L
b101 b
b10 k

#630000
0!
01

#635000
1!
11
b10101011 :
b111 ?
b10 K
b11 L
b10101011 V
b110 b
b10 j
b11 k

#640000
0!
01

#645000
1!
b1000 !!
b100000 "!
11
b110101 :
b110101 I
1J
b11 K
b110101 M
1N
b10001101111111111011100101001111 Q
b10001101111111111011100101001111 R
b1000 T
b100000 U
b110101 V
b110101 Y
1Z
b11 j
b110101 x
1y
b10001101111111111011100101001111 |
b10001101111111111011100101001111 }

#650000
0!
01

#655000
1!
b1000 !!
b100000 "!
b10001101111111111011100101001111 +
11
b1 @
b10001101111111111011100101001111 H
b10001101111111111011100101001111 O
b10001101111111111011100101001111 P
b1100100100011110010111111000110 Q
b1100100100011110010111111000110 R
b1000 T
b100000 U
b1 c
b10001101111111111011100101001111 z
b10001101111111111011100101001111 {
b1100100100011110010111111000110 |
b1100100100011110010111111000110 }

#660000
0!
01

#665000
1!
b1000 !!
b100000 "!
b1100100100011110010111111000110 +
11
b10 @
b1100100100011110010111111000110 H
b1100100100011110010111111000110 O
b1100100100011110010111111000110 P
b11110011011110010111000010110000 Q
b11110011011110010111000010110000 R
b1000 T
b100000 U
b10 c
b1100100100011110010111111000110 z
b1100100100011110010111111000110 {
b11110011011110010111000010110000 |
b11110011011110010111000010110000 }

#670000
0!
01

#675000
1!
b1000 !!
b100000 "!
b11110011011110010111000010110000 +
11
b11 @
b11110011011110010111000010110000 H
b11110011011110010111000010110000 O
b11110011011110010111000010110000 P
b111110011111000110110100101011 Q
b111110011111000110110100101011 R
b1000 T
b100000 U
b11 c
b11110011011110010111000010110000 z
b11110011011110010111000010110000 {
b111110011111000110110100101011 |
b111110011111000110110100101011 }

#680000
0!
01

#685000
1!
b1000 !!
b100000 "!
b111110011111000110110100101011 +
11
b100 @
b111110011111000110110100101011 H
b111110011111000110110100101011 O
b111110011111000110110100101011 P
b1010111001001101110000001100001 Q
b1010111001001101110000001100001 R
b1000 T
b100000 U
b100 c
b111110011111000110110100101011 z
b111110011111000110110100101011 {
b1010111001001101110000001100001 |
b1010111001001101110000001100001 }

#690000
0!
01

#695000
1!
b1000 !!
b100000 "!
b1010111001001101110000001100001 +
11
b101 @
b1010111001001101110000001100001 H
b100 L
b1010111001001101110000001100001 O
b1010111001001101110000001100001 P
b10000011110001111001110011111001 Q
b10000011110001111001110011111001 R
b1000 T
b100000 U
b101 c
b100 k
b1010111001001101110000001100001 z
b1010111001001101110000001100001 {
b10000011110001111001110011111001 |
b10000011110001111001110011111001 }

#700000
0!
01

#705000
1!
b1000 !!
b100000 "!
b10000011110001111001110011111001 +
11
b10000110 :
b110 @
b10000011110001111001110011111001 H
b10000110 I
b100 K
b100 L
b10000110 M
b10000011110001111001110011111001 O
b10000011110001111001110011111001 P
b11010000010110011001001001101011 Q
b11010000010110011001001001101011 R
b1000 T
b100000 U
b10000110 V
b10000110 Y
b110 c
b100 j
b100 k
b10000110 x
b10000011110001111001110011111001 z
b10000011110001111001110011111001 {
b11010000010110011001001001101011 |
b11010000010110011001001001101011 }

#710000
0!
01

#715000
1!
b1000 !!
b100000 "!
b11010000010110011001001001101011 +
11
b1 A
b11010000010110011001001001101011 H
b11010000010110011001001001101011 O
b11010000010110011001001001101011 P
b111011100000111000110110110101 Q
b111011100000111000110110110101 R
b1000 T
b100000 U
b1 d
b11010000010110011001001001101011 z
b11010000010110011001001001101011 {
b111011100000111000110110110101 |
b111011100000111000110110110101 }

#720000
0!
01

#725000
1!
b1000 !!
b100000 "!
b111011100000111000110110110101 +
11
b10 A
b111011100000111000110110110101 H
b111011100000111000110110110101 O
b111011100000111000110110110101 P
b1111011111101011111010101101 Q
b1111011111101011111010101101 R
b1000 T
b100000 U
b10 d
b111011100000111000110110110101 z
b111011100000111000110110110101 {
b1111011111101011111010101101 |
b1111011111101011111010101101 }

#730000
0!
01

#735000
1!
b1000 !!
b100000 "!
b1111011111101011111010101101 +
11
b11 A
b1111011111101011111010101101 H
b1111011111101011111010101101 O
b1111011111101011111010101101 P
b110101011110111011110111100001 Q
b110101011110111011110111100001 R
b1000 T
b100000 U
b11 d
b1111011111101011111010101101 z
b1111011111101011111010101101 {
b110101011110111011110111100001 |
b110101011110111011110111100001 }

#740000
0!
01

#745000
1!
b1000 !!
b100000 "!
b110101011110111011110111100001 +
11
b100 A
b110101011110111011110111100001 H
b110101011110111011110111100001 O
b110101011110111011110111100001 P
b11001011110000000100101010100111 Q
b11001011110000000100101010100111 R
b1000 T
b100000 U
b100 d
b110101011110111011110111100001 z
b110101011110111011110111100001 {
b11001011110000000100101010100111 |
b11001011110000000100101010100111 }

#750000
0!
01

#755000
1!
b1000 !!
b100000 "!
b11001011110000000100101010100111 +
11
b101 A
b11001011110000000100101010100111 H
b101 L
b11001011110000000100101010100111 O
b11001011110000000100101010100111 P
b11000101000000010101000110100100 Q
b11000101000000010101000110100100 R
b1000 T
b100000 U
b101 d
b101 k
b11001011110000000100101010100111 z
b11001011110000000100101010100111 {
b11000101000000010101000110100100 |
b11000101000000010101000110100100 }

#760000
0!
01

#765000
1!
b1000 !!
b100000 "!
b11000101000000010101000110100100 +
11
b100111 :
b110 A
b11000101000000010101000110100100 H
b100111 I
b101 K
b101 L
b100111 M
b11000101000000010101000110100100 O
b11000101000000010101000110100100 P
b11001101011110101011100100010111 Q
b11001101011110101011100100010111 R
b1000 T
b100000 U
b100111 V
b100111 Y
b110 d
b101 j
b101 k
b100111 x
b11000101000000010101000110100100 z
b11000101000000010101000110100100 {
b11001101011110101011100100010111 |
b11001101011110101011100100010111 }

#770000
0!
01

