code/final/sim/Final.vcd
$date
   Tue Mar 10 13:23:24 2026
$end

$version
  2024.2.0
  $dumpfile ("Final.vcd") 
$end

$timescale
  1ps
$end

$scope module Top_Layer_tb $end
$var reg 1 ! clk $end
$var reg 1 " reset $end
$var reg 1 # start $end
$var reg 48 $ MAC_dest_addr_in [47:0] $end
$var reg 48 % MAC_source_addr_in [47:0] $end
$var reg 16 & ethernet_type_in [15:0] $end
$var reg 101 ' payload_in [100:0] $end
$var reg 11 ( payload_length [10:0] $end
$var reg 1 ) CRC32_error $end
$var reg 1 * CRC32_correct $end
$var reg 32 + CRC32_crc [31:0] $end
$var reg 48 , MAC_dest_addr_out [47:0] $end
$var reg 48 - MAC_source_addr_out [47:0] $end
$var reg 16 . ethernet_type_out [15:0] $end
$var reg 101 / payload_out [100:0] $end
$scope module dut $end
$var wire 1 0 clk $end
$var wire 1 1 reset $end
$var wire 1 2 start $end
$var wire 48 3 MAC_dest_addr_in [47:0] $end
$var wire 48 4 MAC_source_addr_in [47:0] $end
$var wire 16 5 ethernet_type_in [15:0] $end
$var wire 101 6 payload_in [100:0] $end
$var wire 11 7 payload_length [10:0] $end
$var reg 1 ) CRC32_error $end
$var reg 1 * CRC32_correct $end
$var reg 32 + CRC32_crc [31:0] $end
$var reg 48 , MAC_dest_addr_out [47:0] $end
$var reg 48 - MAC_source_addr_out [47:0] $end
$var reg 16 . ethernet_type_out [15:0] $end
$var reg 101 / payload_out [100:0] $end
$var reg 8 8 tx_data_tx [7:0] $end
$var reg 1 9 tx_valid_tx $end
$var reg 1 : frame_done_tx $end
$var reg 8 ; rx_data_rx [7:0] $end
$var reg 1 < rx_valid_rx $end
$scope module Transmit $end
$var wire 1 0 clk $end
$var wire 1 1 reset $end
$var wire 1 2 start $end
$var wire 48 3 MAC_dest_addr [47:0] $end
$var wire 48 4 MAC_source_addr [47:0] $end
$var wire 16 5 ethernet_type [15:0] $end
$var wire 101 6 payload [100:0] $end
$var wire 11 7 payload_length [10:0] $end
$var reg 8 8 tx_data [7:0] $end
$var reg 1 9 tx_valid $end
$var reg 1 : frame_done $end
$var reg 3 = cnt_preamble [2:0] $end
$var reg 3 > cnt_MAC_dest [2:0] $end
$var reg 3 ? cnt_MAC_source [2:0] $end
$var reg 1 @ cnt_ethernet_type $end
$var reg 11 A cnt_payload [10:0] $end
$var reg 6 B cnt_pad [5:0] $end
$var reg 2 C cnt_fcs [1:0] $end
$var reg 4 D cnt_ipg [3:0] $end
$var reg 11 E MAX_payload [10:0] $end
$var reg 32 F CRC32_crc [31:0] $end
$var reg 8 G CRC32_data [7:0] $end
$var reg 1 H CRC32_valid $end
$var reg 32 I state $end
$var reg 32 J next_state $end
$scope module CRC32_tx $end
$var wire 1 0 clk $end
$var wire 1 1 reset $end
$var wire 8 K data_in [7:0] $end
$var wire 1 L valid $end
$var wire 32 M crc_out [31:0] $end
$var reg 32 N crc [31:0] $end
$var reg 32 O crc_prev [31:0] $end
$var reg 32 P crc_next [31:0] $end
$var reg 4 Q debug [3:0] $end
$scope begin Block41_3 $end
$var reg 32 R i [31:0] $end
$scope begin Block43_4 $end
$var reg 32 S j [31:0] $end
$upscope $end
$upscope $end
$upscope $end
$upscope $end
$scope module Receive $end
$var wire 1 0 clk $end
$var wire 1 1 reset $end
$var wire 8 T rx_data [7:0] $end
$var wire 1 U rx_valid $end
$var reg 1 ) CRC32_error $end
$var reg 1 * CRC32_correct $end
$var reg 32 + CRC32_crc [31:0] $end
$var reg 48 , MAC_dest_addr [47:0] $end
$var reg 48 - MAC_source_addr [47:0] $end
$var reg 16 . ethernet_type [15:0] $end
$var reg 101 / payload [100:0] $end
$var reg 8 V CRC32_data [7:0] $end
$var reg 1 W CRC32_valid $end
$var reg 8 X fifo_data [7:0] $end
$var reg 1 Y fifo_rd_en $end
$var reg 1 Z fifo_wr_en $end
$var reg 1 [ fifo_empty $end
$var reg 1 \ fifo_full $end
$var reg 8 ] fifo_used_memory [7:0] $end
$var reg 8 ^ length_payload_fcs [7:0] $end
$var reg 1 _ debug $end
$var reg 3 ` cnt_preamble [2:0] $end
$var reg 3 a cnt_MAC_dest [2:0] $end
$var reg 3 b cnt_MAC_source [2:0] $end
$var reg 1 c cnt_ethernet_type $end
$var reg 11 d cnt_payload [10:0] $end
$var reg 6 e cnt_pad [5:0] $end
$var reg 2 f cnt_fcs [1:0] $end
$var reg 4 g cnt_ipg [3:0] $end
$var reg 32 h state $end
$var reg 32 i next_state $end
$scope module rx_fifo $end
$var wire 1 0 clk $end
$var wire 1 1 reset $end
$var wire 1 j push $end
$var wire 8 T wr_data [7:0] $end
$var wire 1 k pop $end
$var reg 8 X rd_data [7:0] $end
$var reg 1 \ fifo_full $end
$var reg 1 [ fifo_empty $end
$var reg 11 l fifo_used_memory [10:0] $end
$var reg 11 m wr_ptr [10:0] $end
$var reg 11 n rd_ptr [10:0] $end
$var reg 11 o wr_ptr_nxt [10:0] $end
$var reg 11 p rd_ptr_nxt [10:0] $end
$var reg 1 q write_enable $end
$var reg 8 r rd_data_raw [7:0] $end
$scope module fifo_ram $end
$var wire 1 0 clk $end
$var wire 1 s we $end
$var wire 11 t wr_addr [10:0] $end
$var wire 8 T wr_data [7:0] $end
$var wire 11 u rd_addr [10:0] $end
$var reg 8 r rd_data [7:0] $end
$upscope $end
$upscope $end
$scope module CRC32_rx $end
$var wire 1 0 clk $end
$var wire 1 1 reset $end
$var wire 8 v data_in [7:0] $end
$var wire 1 w valid $end
$var wire 32 x crc_out [31:0] $end
$var reg 32 y crc [31:0] $end
$var reg 32 z crc_prev [31:0] $end
$var reg 32 { crc_next [31:0] $end
$var reg 4 | debug [3:0] $end
$scope begin Block41_3 $end
$var reg 32 } i [31:0] $end
$scope begin Block43_4 $end
$var reg 32 ~ j [31:0] $end
$upscope $end
$upscope $end
$upscope $end
$upscope $end
$upscope $end
$scope task clk_gen $end
$upscope $end
$scope task apply_reset $end
$upscope $end
$upscope $end
$enddefinitions $end

#0
$dumpvars
0!
0"
0#
bx $
bx %
bx &
bx '
bx (
0)
0*
bx +
bx ,
bx -
bx .
bx /
00
01
02
bx 3
bx 4
bx 5
bx 6
bx 7
bx 8
x9
x:
bx ;
x<
bx =
bx >
bx ?
x@
bx A
bx B
bx C
bx D
bx E
bx F
bx G
xH
b0 I
b0 J
bx K
xL
bx M
bx N
bx O
bx P
bx Q
b1000 R
b100000 S
bx T
xU
bx V
0W
bx X
0Y
0Z
x[
x\
bx ]
bx ^
x_
bx `
bx a
bx b
xc
bx d
bx e
bx f
bx g
b0 h
b0 i
0j
0k
bx l
bx m
bx n
bx o
bx p
0q
bx r
0s
bx t
bx u
bx v
0w
bx x
bx y
bx z
bx {
bx |
b1000 }
b100000 ~
$end

#5000
1!
1"
b11111111111111111111111111111111 +
10
11
b0 =
b0 >
b0 ?
0@
b0 A
b0 B
b0 C
b0 D
b11111111111111111111111111111111 F
b11111111111111111111111111111111 M
b11111111111111111111111111111111 N
bx O
bx P
b1000 R
b100000 S
1[
0\
b0 ]
b0 `
b0 a
b0 b
0c
b0 d
b0 e
b0 f
b0 g
b0 i
b0 l
b0 m
b0 n
b1 o
b1 p
b0 t
b0 u
b11111111111111111111111111111111 x
b11111111111111111111111111111111 y
bx z
bx {
b1000 }
b100000 ~

#10000
0!
00

#15000
1!
0"
10
01
b0 8
0:
0H
0L
b0 T
b0 i

#20000
0!
00

#25000
1!
10

#30000
0!
00

#35000
1!
10

#40000
0!
00

#45000
1!
10

#50000
0!
00

#55000
1!
10

#60000
0!
00

#65000
1!
10

#70000
0!
00

#75000
1!
10

#80000
0!
00

#85000
1!
10

#90000
0!
00

#95000
1!
b1101010011010100110101001101010011010100110101 $
b100001101000011010000110100001101000011010000110 %
b10011100100111 &
bx0100001001000010010000100100001001000010 '
b101 (
10
b1101010011010100110101001101010011010100110101 3
b100001101000011010000110100001101000011010000110 4
b10011100100111 5
bx0100001001000010010000100100001001000010 6
b101 7

#100000
0!
00

#105000
1!
1#
10
12
b1 J

#110000
0!
00

#115000
1!
10
b1010101 8
19
b1 I
b1010101 T
1U
b1 i

#120000
0!
00

#125000
1!
10
b1 =
b1 h

#130000
0!
00

#135000
1!
10
b10 =
b1 `

#140000
0!
00

#145000
1!
10
b11 =
b10 `

#150000
0!
00

#155000
1!
10
b100 =
b11 `

#160000
0!
00

#165000
1!
10
b101 =
b100 `

#170000
0!
00

#175000
1!
10
b110 =
b10 J
b101 `
b10 i

#180000
0!
00

#185000
1!
10
b10101011 8
b111 =
b10 I
b11 J
b10101011 T
b110 `
b10 h
b11 i

#190000
0!
00

#195000
1!
b110101xxxxxxxxxxxxxxxxxxxxxxxxxxxxxxxxxxxxxxxx ,
10
b110101 8
b110101 G
1H
b11 I
b110101 K
1L
b10001101111111111011100101001111 O
b10001101111111111011100101001111 P
b1000 R
b100000 S
b110101 T
b110101 V
1W
b11 h
b110101 v
1w
b10001101111111111011100101001111 z
b10001101111111111011100101001111 {
b1000 }
b100000 ~

#200000
0!
00

#205000
1!
b10001101111111111011100101001111 +
b11010100110101xxxxxxxxxxxxxxxxxxxxxxxxxxxxxxxx ,
10
b1 >
b10001101111111111011100101001111 F
b10001101111111111011100101001111 M
b10001101111111111011100101001111 N
b1100100100011110010111111000110 O
b1100100100011110010111111000110 P
b1000 R
b100000 S
b1 a
b10001101111111111011100101001111 x
b10001101111111111011100101001111 y
b1100100100011110010111111000110 z
b1100100100011110010111111000110 {
b1000 }
b100000 ~

#210000
0!
00

#215000
1!
b1100100100011110010111111000110 +
b1101010011010100110101xxxxxxxxxxxxxxxxxxxxxxxx ,
10
b10 >
b1100100100011110010111111000110 F
b1100100100011110010111111000110 M
b1100100100011110010111111000110 N
b11110011011110010111000010110000 O
b11110011011110010111000010110000 P
b1000 R
b100000 S
b10 a
b1100100100011110010111111000110 x
b1100100100011110010111111000110 y
b11110011011110010111000010110000 z
b11110011011110010111000010110000 {
b1000 }
b100000 ~

#220000
0!
00

#225000
1!
b11110011011110010111000010110000 +
b110101001101010011010100110101xxxxxxxxxxxxxxxx ,
10
b11 >
b11110011011110010111000010110000 F
b11110011011110010111000010110000 M
b11110011011110010111000010110000 N
b111110011111000110110100101011 O
b111110011111000110110100101011 P
b1000 R
b100000 S
b11 a
b11110011011110010111000010110000 x
b11110011011110010111000010110000 y
b111110011111000110110100101011 z
b111110011111000110110100101011 {
b1000 }
b100000 ~

#230000
0!
00

#235000
1!
b111110011111000110110100101011 +
b11010100110101001101010011010100110101xxxxxxxx ,
10
b100 >
b111110011111000110110100101011 F
b111110011111000110110100101011 M
b111110011111000110110100101011 N
b1010111001001101110000001100001 O
b1010111001001101110000001100001 P
b1000 R
b100000 S
b100 a
b111110011111000110110100101011 x
b111110011111000110110100101011 y
b1010111001001101110000001100001 z
b1010111001001101110000001100001 {
b1000 }
b100000 ~

#240000
0!
00

#245000
1!
b1010111001001101110000001100001 +
b1101010011010100110101001101010011010100110101 ,
10
b101 >
b1010111001001101110000001100001 F
b100 J
b1010111001001101110000001100001 M
b1010111001001101110000001100001 N
b10000011110001111001110011111001 O
b10000011110001111001110011111001 P
b1000 R
b100000 S
b101 a
b100 i
b1010111001001101110000001100001 x
b1010111001001101110000001100001 y
b10000011110001111001110011111001 z
b10000011110001111001110011111001 {
b1000 }
b100000 ~

#250000
0!
00

#255000
1!
b10000011110001111001110011111001 +
b10000110xxxxxxxxxxxxxxxxxxxxxxxxxxxxxxxxxxxxxxxx -
10
b10000110 8
b110 >
b10000011110001111001110011111001 F
b10000110 G
b100 I
b100 J
b10000110 K
b10000011110001111001110011111001 M
b10000011110001111001110011111001 N
b11010000010110011001001001101011 O
b11010000010110011001001001101011 P
b1000 R
b100000 S
b10000110 T
b10000110 V
b110 a
b100 h
b100 i
b10000110 v
b10000011110001111001110011111001 x
b10000011110001111001110011111001 y
b11010000010110011001001001101011 z
b11010000010110011001001001101011 {
b1000 }
b100000 ~

#260000
0!
00

#265000
1!
b11010000010110011001001001101011 +
b1000011010000110xxxxxxxxxxxxxxxxxxxxxxxxxxxxxxxx -
10
b1 ?
b11010000010110011001001001101011 F
b11010000010110011001001001101011 M
b11010000010110011001001001101011 N
b111011100000111000110110110101 O
b111011100000111000110110110101 P
b1000 R
b100000 S
b1 b
b11010000010110011001001001101011 x
b11010000010110011001001001101011 y
b111011100000111000110110110101 z
b111011100000111000110110110101 {
b1000 }
b100000 ~

#270000
0!
00

#275000
1!
b111011100000111000110110110101 +
b100001101000011010000110xxxxxxxxxxxxxxxxxxxxxxxx -
10
b10 ?
b111011100000111000110110110101 F
b111011100000111000110110110101 M
b111011100000111000110110110101 N
b1111011111101011111010101101 O
b1111011111101011111010101101 P
b1000 R
b100000 S
b10 b
b111011100000111000110110110101 x
b111011100000111000110110110101 y
b1111011111101011111010101101 z
b1111011111101011111010101101 {
b1000 }
b100000 ~

#280000
0!
00

#285000
1!
b1111011111101011111010101101 +
b10000110100001101000011010000110xxxxxxxxxxxxxxxx -
10
b11 ?
b1111011111101011111010101101 F
b1111011111101011111010101101 M
b1111011111101011111010101101 N
b110101011110111011110111100001 O
b110101011110111011110111100001 P
b1000 R
b100000 S
b11 b
b1111011111101011111010101101 x
b1111011111101011111010101101 y
b110101011110111011110111100001 z
b110101011110111011110111100001 {
b1000 }
b100000 ~

#290000
0!
00

#295000
1!
b110101011110111011110111100001 +
b1000011010000110100001101000011010000110xxxxxxxx -
10
b100 ?
b110101011110111011110111100001 F
b110101011110111011110111100001 M
b110101011110111011110111100001 N
b11001011110000000100101010100111 O
b11001011110000000100101010100111 P
b1000 R
b100000 S
b100 b
b110101011110111011110111100001 x
b110101011110111011110111100001 y
b11001011110000000100101010100111 z
b11001011110000000100101010100111 {
b1000 }
b100000 ~

#300000
0!
00

#305000
1!
b11001011110000000100101010100111 +
b100001101000011010000110100001101000011010000110 -
10
b101 ?
b11001011110000000100101010100111 F
b101 J
b11001011110000000100101010100111 M
b11001011110000000100101010100111 N
b11000101000000010101000110100100 O
b11000101000000010101000110100100 P
b1000 R
b100000 S
b101 b
b101 i
b11001011110000000100101010100111 x
b11001011110000000100101010100111 y
b11000101000000010101000110100100 z
b11000101000000010101000110100100 {
b1000 }
b100000 ~

#310000
0!
00

#315000
1!
b11000101000000010101000110100100 +
b100111xxxxxxxx .
10
b100111 8
b110 ?
b11000101000000010101000110100100 F
b100111 G
b101 I
b101 J
b100111 K
b11000101000000010101000110100100 M
b11000101000000010101000110100100 N
b11001101011110101011100100010111 O
b11001101011110101011100100010111 P
b1000 R
b100000 S
b100111 T
b100111 V
b110 b
b101 h
b101 i
b100111 v
b11000101000000010101000110100100 x
b11000101000000010101000110100100 y
b11001101011110101011100100010111 z
b11001101011110101011100100010111 {
b1000 }
b100000 ~

#320000
0!
00

#325000
1!
b11001101011110101011100100010111 +
b10011100100111 .
10
1@
b11001101011110101011100100010111 F
b111 J
b11001101011110101011100100010111 M
b11001101011110101011100100010111 N
b10010000100110101110011110101111 O
b10010000100110101110011110101111 P
b1000 R
b100000 S
1c
b110 i
b11001101011110101011100100010111 x
b11001101011110101011100100010111 y
b10010000100110101110011110101111 z
b10010000100110101110011110101111 {
b1000 }
b100000 ~

#330000
0!
00

#335000
1!
b10010000100110101110011110101111 +
10
b1000010 8
0@
b10010000100110101110011110101111 F
b1000010 G
b111 I
b111 J
b1000010 K
b10010000100110101110011110101111 M
b10010000100110101110011110101111 N
b10000010111111101101111110000111 O
b10000010111111101101111110000111 P
b1000 R
b100000 S
b1000010 T
0W
1Z
0c
b110 h
b110 i
1j
1q
1s
0w
b10010000100110101110011110101111 x
b10010000100110101110011110101111 y
b111001100111100111001001111011 z
b111001100111100111001001111011 {
b1000 }
b100000 ~

#340000
0!
00

#345000
1!
10
b1 A
b10000010111111101101111110000111 F
b10000010111111101101111110000111 M
b10000010111111101101111110000111 N
b10100011010101010001011110011001 O
b10100011010101010001011110011001 P
b1000 R
b100000 S
0[
b1 ]
b1 l
b1 m
b10 o
b1 t

#350000
0!
00

#355000
1!
10
b10 A
b10100011010101010001011110011001 F
b10100011010101010001011110011001 M
b10100011010101010001011110011001 N
b10010100011111111010001011001110 O
b10010100011111111010001011001110 P
b1000 R
b100000 S
b1000010 X
b10 ]
b10 l
b10 m
b11 o
b1000010 r
b10 t

#360000
0!
00

#365000
1!
10
b11 A
b10010100011111111010001011001110 F
b10010100011111111010001011001110 M
b10010100011111111010001011001110 N
b1110100101111111100100001011011 O
b1110100101111111100100001011011 P
b1000 R
b100000 S
b11 ]
b11 l
b11 m
b100 o
b11 t

#370000
0!
00

#375000
1!
10
b100 A
b1110100101111111100100001011011 F
b1001 J
b1110100101111111100100001011011 M
b1110100101111111100100001011011 N
b1110001011111000111101100100010 O
b1110001011111000111101100100010 P
b1000 R
b100000 S
b100 ]
b100 l
b100 m
b101 o
b100 t

#380000
0!
00

#385000
1!
10
b1110001 8
b101 A
b1110001011111000111101100100010 F
bx G
0H
b1001 I
b1001 J
bx K
0L
b1110001011111000111101100100010 M
b1110001011111000111101100100010 N
bx O
bx P
b1000 R
b100000 S
b1110001 T
b101 ]
b101 l
b101 m
b110 o
b101 t

#390000
0!
00

#395000
1!
10
b1111100 8
b1 C
b1111100 T
b110 ]
b110 l
b110 m
b111 o
b110 t

#400000
0!
00

#405000
1!
10
b1111011 8
b10 C
b1111011 T
b111 ]
b111 l
b111 m
b1000 o
b111 t

#410000
0!
00

#415000
1!
10
b100010 8
b11 C
b1010 J
b100010 T
b1000 ]
b1000 l
b1000 m
b1001 o
b1000 t

#420000
0!
00

#425000
1!
10
b0 8
09
b0 C
b1010 I
b1010 J
b0 T
0U
b1001 ]
b111 i
b1001 l
b1001 m
b1010 o
b1001 t

#430000
0!
00

#435000
1!
bx0100001001000010xxxxxxxxxxxxxxxxxxxxxxxxxxxxxxxx /
10
b1 D
1Y
0Z
b1010 ]
b1010 ^
b111 h
0j
1k
b1010 l
b1010 m
b1011 o
0q
0s
b1010 t

#440000
0!
00

#445000
1!
10
b10 D
b1000010 V
1W
b1001 ]
b1001 ^
b1 d
b1001 l
b1 n
b10 p
b1 u
b1000010 v
1w
b10000010111111101101111110000111 z
b10000010111111101101111110000111 {
b1000 }
b100000 ~

#450000
0!
00

#455000
1!
b10000010111111101101111110000111 +
bx010000100100001001000010xxxxxxxxxxxxxxxxxxxxxxxx /
10
b11 D
b1000 ]
b1000 ^
b10 d
b1000 l
b10 n
b11 p
b10 u
b10000010111111101101111110000111 x
b10000010111111101101111110000111 y
b10100011010101010001011110011001 z
b10100011010101010001011110011001 {
b1000 }
b100000 ~

#460000
0!
00

#465000
1!
b10100011010101010001011110011001 +
bx01000010010000100100001001000010xxxxxxxxxxxxxxxx /
10
b100 D
b111 ]
b111 ^
b11 d
b111 l
b11 n
b100 p
b11 u
b10100011010101010001011110011001 x
b10100011010101010001011110011001 y
b10010100011111111010001011001110 z
b10010100011111111010001011001110 {
b1000 }
b100000 ~

#470000
0!
00

#475000
1!
b10010100011111111010001011001110 +
bx0100001001000010010000100100001001000010xxxxxxxx /
10
b101 D
b110 ]
b110 ^
b100 d
b110 l
b100 n
b101 p
b100 u
b10010100011111111010001011001110 x
b10010100011111111010001011001110 y
b1110100101111111100100001011011 z
b1110100101111111100100001011011 {
b1000 }
b100000 ~

#480000
0!
00

#485000
1!
b1110100101111111100100001011011 +
bx010000100100001001000010010000100100001001000010 /
10
b110 D
b101 ]
b101 ^
b101 d
b1001 i
b101 l
b101 n
b110 p
b101 u
b1110100101111111100100001011011 x
b1110100101111111100100001011011 y
b1110001011111000111101100100010 z
b1110001011111000111101100100010 {
b1000 }
b100000 ~

#490000
0!
00

#495000
1!
b1110001011111000111101100100010 +
10
b111 D
b1110001 V
b1110001 X
b100 ]
b100 ^
b110 d
b1001 h
b100 l
b110 n
b111 p
b1110001 r
b110 u
b1110001 v
b1110001011111000111101100100010 x
b1110001011111000111101100100010 y
b1111100011110110010001000000000 z
b1111100011110110010001000000000 {
b1000 }
b100000 ~

#500000
0!
00

#505000
1!
b1111100011110110010001000000000 +
10
b1000 D
b1111100 V
b1111100 X
b11 ]
b11 ^
b1 f
b11 l
b111 n
b1000 p
b1111100 r
b111 u
b1111100 v
b1111100011110110010001000000000 x
b1111100011110110010001000000000 y
b1111011001000100000000000000000 z
b1111011001000100000000000000000 {
b1000 }
b100000 ~

#510000
0!
00

#515000
1!
b1111011001000100000000000000000 +
10
b1001 D
b1111011 V
b1111011 X
b10 ]
b10 ^
b10 f
b10 l
b1000 n
b1001 p
b1111011 r
b1000 u
b1111011 v
b1111011001000100000000000000000 x
b1111011001000100000000000000000 y
b100010000000000000000000000000 z
b100010000000000000000000000000 {
b1000 }
b100000 ~

#520000
0!
00

#525000
1!
b100010000000000000000000000000 +
10
b1010 D
b100010 V
b100010 X
b1 ]
b1 ^
b11 f
b1 l
b1001 n
b1010 p
b100010 r
b1001 u
b100010 v
b100010000000000000000000000000 x
b100010000000000000000000000000 y
b0 z
b0 {
b1000 }
b100000 ~

#530000
0!
00

#535000
1!
b0 +
10
1:
b1011 D
b0 J
b0 V
b0 X
1[
b0 ]
b0 ^
b0 f
b1010 i
b0 l
b1010 n
b1011 p
b0 r
b1010 u
b0 v
b0 x
b0 y
b0 z
b0 {
b1000 }
b100000 ~

#540000
0!
00

#545000
1!
1*
10
b1100 D
b0 I
b1 J
0W
bx X
0Y
b1 f
b1010 h
b0 i
0k
bx r
0w

#550000
0!
00

#555000
1!
0*
10
b1010101 8
19
0:
b0 =
b1 I
b1010101 T
1U
b0 h
b1 i

#560000
0!
00

#565000
1!
10
b1 =
b0 `
b1 h

#570000
0!
00

#575000
1!
10
b10 =
b1 `

#580000
0!
00

#585000
1!
10
b11 =
b10 `

#590000
0!
00

#595000
1!
10
b100 =
b11 `

#600000
0!
00

#605000
1!
10
b101 =
b100 `

#610000
0!
00

#615000
1!
10
b110 =
b10 J
b101 `
b10 i

#620000
0!
00

#625000
1!
10
b10101011 8
b111 =
b10 I
b11 J
b10101011 T
b110 `
b10 h
b11 i

#630000
0!
00

#635000
1!
10
b110101 8
b0 >
b110101 G
1H
b11 I
b110101 K
1L
b1011011111110010010010010101011 O
b1011011111110010010010010101011 P
b1000 R
b100000 S
b110101 T
b110101 V
1W
b0 a
b11 h
b110101 v
1w
b11000011111101110000011011111011 z
b11000011111101110000011011111011 {
b1000 }
b100000 ~

#640000
0!
00

#645000
1!
b11000011111101110000011011111011 +
10
b1 >
b1011011111110010010010010101011 F
b1011011111110010010010010101011 M
b1011011111110010010010010101011 N
b1101001000011111100110110011101 O
b1101001000011111100110110011101 P
b1000 R
b100000 S
b1 a
b11000011111101110000011011111011 x
b11000011111101110000011011111011 y
b1100100001110000100101110111011 z
b1100100001110000100101110111011 {
b1000 }
b100000 ~

#650000
0!
00

#655000
1!
b1100100001110000100101110111011 +
10
b10 >
b1101001000011111100110110011101 F
b1101001000011111100110110011101 M
b1101001000011111100110110011101 N
b1000010010101101010110101100011 O
b1000010010101101010110101100011 P
b1000 R
b100000 S
b10 a
b1100100001110000100101110111011 x
b1100100001110000100101110111011 y
b1000100000111010000110110110000 z
b1000100000111010000110110110000 {
b1000 }
b100000 ~

#660000
0!
00

#665000
1!
b1000100000111010000110110110000 +
10
b11 >
b1000010010101101010110101100011 F
b1000010010101101010110101100011 M
b1000010010101101010110101100011 N
b10101000010111100010111011100010 O
b10101000010111100010111011100010 P
b1000 R
b100000 S
b11 a
b1000100000111010000110110110000 x
b1000100000111010000110110110000 y
b11111001011110001011000001010000 z
b11111001011110001011000001010000 {
b1000 }
b100000 ~

#670000
0!
00

#675000
1!
b11111001011110001011000001010000 +
10
b100 >
b10101000010111100010111011100010 F
b10101000010111100010111011100010 M
b10101000010111100010111011100010 N
b1001010111111100101111101001101 O
b1001010111111100101111101001101 P
b1000 R
b100000 S
b100 a
b11111001011110001011000001010000 x
b11111001011110001011000001010000 y
b10000001101100101101111111101 z
b10000001101100101101111111101 {
b1000 }
b100000 ~

#680000
0!
00

#685000
1!
b10000001101100101101111111101 +
10
b101 >
b1001010111111100101111101001101 F
b100 J
b1001010111111100101111101001101 M
b1001010111111100101111101001101 N
b100110101001001110110101011010 O
b100110101001001110110101011010 P
b1000 R
b100000 S
b101 a
b100 i
b10000001101100101101111111101 x
b10000001101100101101111111101 y
b10111001101111010010000010001011 z
b10111001101111010010000010001011 {
b1000 }
b100000 ~

#690000
0!
00

#695000
1!
b10111001101111010010000010001011 +
10
b10000110 8
b110 >
b0 ?
b100110101001001110110101011010 F
b10000110 G
b100 I
b100 J
b10000110 K
b100110101001001110110101011010 M
b100110101001001110110101011010 N
b1010101110000100000110000001110 O
b1010101110000100000110000001110 P
b1000 R
b100000 S
b10000110 T
b10000110 V
b110 a
b0 b
b100 h
b100 i
b10000110 v
b10111001101111010010000010001011 x
b10111001101111010010000010001011 y
b1010001010111010101101100101101 z
b1010001010111010101101100101101 {
b1000 }
b100000 ~

#700000
0!
00

#705000
1!
b1010001010111010101101100101101 +
10
b1 ?
b1010101110000100000110000001110 F
b1010101110000100000110000001110 M
b1010101110000100000110000001110 N
b11011110110101000110001100110000 O
b11011110110101000110001100110000 P
b1000 R
b100000 S
b1 b
b1010001010111010101101100101101 x
b1010001010111010101101100101101 y
b1010010100001110011011011101100 z
b1010010100001110011011011101100 {
b1000 }
b100000 ~

#710000
0!
00

#715000
1!
b1010010100001110011011011101100 +
10
b10 ?
b11011110110101000110001100110000 F
b11011110110101000110001100110000 M
b11011110110101000110001100110000 N
b10001010111111000111011010111111 O
b10001010111111000111011010111111 P
b1000 R
b100000 S
b10 b
b1010010100001110011011011101100 x
b1010010100001110011011011101100 y
b10000101101010011101000100110101 z
b10000101101010011101000100110101 {
b1000 }
b100000 ~

#720000
0!
00

#725000
1!
b10000101101010011101000100110101 +
10
b11 ?
b10001010111111000111011010111111 F
b10001010111111000111011010111111 M
b10001010111111000111011010111111 N
b11001001011110100010010001100100 O
b11001001011110100010010001100100 P
b1000 R
b100000 S
b11 b
b10000101101010011101000100110101 x
b10000101101010011101000100110101 y
b10100100100100100001001111011001 z
b10100100100100100001001111011001 {
b1000 }
b100000 ~

#730000
0!
00

#735000
1!
b10100100100100100001001111011001 +
10
b100 ?
b11001001011110100010010001100100 F
b11001001011110100010010001100100 M
b11001001011110100010010001100100 N
b1110110111011011010100111001010 O
b1110110111011011010100111001010 P
b1000 R
b100000 S
b100 b
b10100100100100100001001111011001 x
b10100100100100100001001111011001 y
b11101100100101010010001110 z
b11101100100101010010001110 {
b1000 }
b100000 ~

#740000
0!
00

#745000
1!
b11101100100101010010001110 +
10
b101 ?
b1110110111011011010100111001010 F
b101 J
b1110110111011011010100111001010 M
b1110110111011011010100111001010 N
b1100100000100010011011100001001 O
b1100100000100010011011100001001 P
b1000 R
b100000 S
b101 b
b101 i
b11101100100101010010001110 x
b11101100100101010010001110 y
b11001100100111010000010110000101 z
b11001100100111010000010110000101 {
b1000 }
b100000 ~

#750000
0!
00

#755000
1!
b11001100100111010000010110000101 +
10
b100111 8
b110 ?
b1100100000100010011011100001001 F
b100111 G
b101 I
b101 J
b100111 K
b1100100000100010011011100001001 M
b1100100000100010011011100001001 N
b101000111100100101111110101110 O
b101000111100100101111110101110 P
b1000 R
b100000 S
b100111 T
b100111 V
b110 b
b101 h
b101 i
b100111 v
b11001100100111010000010110000101 x
b11001100100111010000010110000101 y
b1110011111001110110100000011000 z
b1110011111001110110100000011000 {
b1000 }
b100000 ~

#760000
0!
00

#765000
1!
b1110011111001110110100000011000 +
10
1@
b101000111100100101111110101110 F
b111 J
b101000111100100101111110101110 M
b101000111100100101111110101110 N
b11001010000100000001001110111101 O
b11001010000100000001001110111101 P
b1000 R
b100000 S
1c
b110 i
b1110011111001110110100000011000 x
b1110011111001110110100000011000 y
b10001100111110111100010111011011 z
b10001100111110111100010111011011 {
b1000 }
b100000 ~

#770000
0!
00

#775000
1!
b10001100111110111100010111011011 +
10
b1000010 8
0@
b0 A
b11001010000100000001001110111101 F
b1000010 G
b111 I
b111 J
b1000010 K
b11001010000100000001001110111101 M
b11001010000100000001001110111101 N
b1011111000101111011000001010110 O
b1011111000101111011000001010110 P
b1000 R
b100000 S
b1000010 T
0W
1Z
0c
b110 h
b110 i
1j
1q
1s
0w
b10001100111110111100010111011011 x
b10001100111110111100010111011011 y
b100001101000010100011001101111 z
b100001101000010100011001101111 {
b1000 }
b100000 ~

#780000
0!
00

#785000
1!
10
b1 A
b1011111000101111011000001010110 F
b1011111000101111011000001010110 M
b1011111000101111011000001010110 N
b1101010011011000000101110100011 O
b1101010011011000000101110100011 P
b1000 R
b100000 S
0[
b1 ]
b1 l
b1011 m
b1100 o
b1011 t

#790000
0!
00

#795000
1!
10
b10 A
b1101010011011000000101110100011 F
b1101010011011000000101110100011 M
b1101010011011000000101110100011 N
b11010010001000001111100001011000 O
b11010010001000001111100001011000 P
b1000 R
b100000 S
b1000010 X
b10 ]
b10 l
b1100 m
b1101 o
b1000010 r
b1100 t

#800000
0!
00

#805000
1!
10
b11 A
b11010010001000001111100001011000 F
b11010010001000001111100001011000 M
b11010010001000001111100001011000 N
b101111001010110001110011110 O
b101111001010110001110011110 P
b1000 R
b100000 S
b11 ]
b11 l
b1101 m
b1110 o
b1101 t

#810000
0!
00

#815000
1!
10
b100 A
b101111001010110001110011110 F
b1001 J
b101111001010110001110011110 M
b101111001010110001110011110 N
b11001111101000101011111001110010 O
b11001111101000101011111001110010 P
b1000 R
b100000 S
b100 ]
b100 l
b1110 m
b1111 o
b1110 t

#820000
0!
00

