code/frame_rx/sim/Ethernet_frame_rx.vcd
$date
   Sun Mar  8 12:57:48 2026
$end

$version
  2024.2.0
  $dumpfile ("Ethernet_frame_rx.vcd") 
$end

$timescale
  1ps
$end

$scope module Ethernet_frame_rx_tb $end
$var reg 1 ! clk $end
$var reg 1 " reset $end
$var reg 8 # rx_data [7:0] $end
$var reg 1 $ rx_valid $end
$var reg 32 % CRC32_crc [31:0] $end
$var reg 8 & CRC32_data [7:0] $end
$var reg 1 ' CRC32_valid $end
$var reg 1 ( CRC32_error $end
$var reg 1 ) CRC32_correct $end
$var reg 48 * MAC_dest_addr [47:0] $end
$var reg 48 + MAC_source_addr [47:0] $end
$var reg 16 , ethernet_type [15:0] $end
$var reg 551 - payload [550:0] $end
$scope module dut $end
$var wire 1 . clk $end
$var wire 1 / reset $end
$var wire 8 0 rx_data [7:0] $end
$var wire 1 1 rx_valid $end
$var reg 8 & CRC32_data [7:0] $end
$var reg 1 ' CRC32_valid $end
$var reg 1 ( CRC32_error $end
$var reg 1 ) CRC32_correct $end
$var reg 48 * MAC_dest_addr [47:0] $end
$var reg 48 + MAC_source_addr [47:0] $end
$var reg 16 , ethernet_type [15:0] $end
$var reg 551 - payload [550:0] $end
$var reg 32 2 CRC32_crc [31:0] $end
$var reg 8 3 fifo_data [7:0] $end
$var reg 1 4 fifo_rd_en $end
$var reg 1 5 fifo_wr_en $end
$var reg 1 6 fifo_empty $end
$var reg 1 7 fifo_full $end
$var reg 8 8 fifo_used_memory [7:0] $end
$var reg 8 9 length_payload_fcs [7:0] $end
$var reg 1 : debug $end
$var reg 3 ; cnt_preamble [2:0] $end
$var reg 3 < cnt_MAC_dest [2:0] $end
$var reg 3 = cnt_MAC_source [2:0] $end
$var reg 1 > cnt_ethernet_type $end
$var reg 11 ? cnt_payload [10:0] $end
$var reg 6 @ cnt_pad [5:0] $end
$var reg 2 A cnt_fcs [1:0] $end
$var reg 4 B cnt_ipg [3:0] $end
$var reg 32 C state $end
$var reg 32 D next_state $end
$scope module rx_fifo $end
$var wire 1 . clk $end
$var wire 1 / reset $end
$var wire 1 E push $end
$var wire 8 0 wr_data [7:0] $end
$var wire 1 F pop $end
$var reg 8 3 rd_data [7:0] $end
$var reg 1 7 fifo_full $end
$var reg 1 6 fifo_empty $end
$var reg 11 G fifo_used_memory [10:0] $end
$var reg 11 H wr_ptr [10:0] $end
$var reg 11 I rd_ptr [10:0] $end
$var reg 11 J wr_ptr_nxt [10:0] $end
$var reg 11 K rd_ptr_nxt [10:0] $end
$var reg 1 L write_enable $end
$var reg 8 M rd_data_raw [7:0] $end
$scope module fifo_ram $end
$var wire 1 . clk $end
$var wire 1 N we $end
$var wire 11 O wr_addr [10:0] $end
$var wire 8 0 wr_data [7:0] $end
$var wire 11 P rd_addr [10:0] $end
$var reg 8 M rd_data [7:0] $end
$upscope $end
$upscope $end
$scope module CRC32_rx $end
$var wire 1 . clk $end
$var wire 1 / reset $end
$var wire 8 & data_in [7:0] $end
$var wire 1 ' valid $end
$var wire 32 Q crc_out [31:0] $end
$var reg 32 R crc [31:0] $end
$var reg 32 S crc_prev [31:0] $end
$var reg 32 T crc_next [31:0] $end
$var reg 4 U debug [3:0] $end
$scope begin Block41_11 $end
$var reg 32 V i [31:0] $end
$scope begin Block43_12 $end
$var reg 32 W j [31:0] $end
$upscope $end
$upscope $end
$upscope $end
$upscope $end
$scope task clk_gen $end
$upscope $end
$scope task apply_reset $end
$upscope $end
$upscope $end
$enddefinitions $end

#0
$dumpvars
0!
0"
bx #
0$
bx %
bx &
0'
0(
0)
bx *
bx +
bx ,
bx -
0.
0/
bx 0
01
bx 2
bx 3
04
05
x6
x7
bx 8
bx 9
x:
bx ;
bx <
bx =
x>
bx ?
bx @
bx A
bx B
b0 C
b0 D
0E
0F
bx G
bx H
bx I
bx J
bx K
0L
bx M
0N
bx O
bx P
bx Q
bx R
bx S
bx T
bx U
b1000 V
b100000 W
$end

#5000
1!
1"
1.
1/
b11111111111111111111111111111111 2
16
07
b0 8
b0 ;
b0 <
b0 =
0>
b0 ?
b0 @
b0 A
b0 B
b0 G
b0 H
b0 I
b1 J
b1 K
b0 O
b0 P
b11111111111111111111111111111111 Q
b11111111111111111111111111111111 R
bx S
bx T
b1000 V
b100000 W

#10000
0!
0.

#15000
1!
0"
1.
0/

#20000
0!
0.

#25000
1!
1.

#30000
0!
0.

#35000
1!
1.

#40000
0!
0.

#45000
1!
1.

#50000
0!
0.

#55000
1!
1.

#60000
0!
0.

#65000
1!
1.

#70000
0!
0.

#75000
1!
1.

#80000
0!
0.

#85000
1!
1.

#90000
0!
0.

#95000
1!
1$
1.
11
b1 D

#100000
0!
0.

#105000
1!
b10101010 #
1.
b10101010 0
b1 C

#110000
0!
0.

#115000
1!
1.
b1 ;

#120000
0!
0.

#125000
1!
1.
b10 ;

#130000
0!
0.

#135000
1!
1.
b11 ;

#140000
0!
0.

#145000
1!
1.
b100 ;

#150000
0!
0.

#155000
1!
1.
b101 ;
b10 D

#160000
0!
0.

#165000
1!
1.
b110 ;
b10 C
b10 D

#170000
0!
0.

#175000
1!
b11010101 #
1.
b11010101 0
b11 D

#180000
0!
0.

#185000
1!
b110101 #
b110101 &
1'
b110101xxxxxxxxxxxxxxxxxxxxxxxxxxxxxxxxxxxxxxxx *
1.
b110101 0
b11 C
b10001101111111111011100101001111 S
b10001101111111111011100101001111 T
b1000 V
b100000 W

#190000
0!
0.

#195000
1!
b110110 #
b110110 &
b11010100110110xxxxxxxxxxxxxxxxxxxxxxxxxxxxxxxx *
1.
b110110 0
b10001101111111111011100101001111 2
b1 <
b10001101111111111011100101001111 Q
b10001101111111111011100101001111 R
b1101001110011000000100100011111 S
b1101001110011000000100100011111 T
b1000 V
b100000 W

#200000
0!
0.

#205000
1!
b110111 #
b110111 &
b1101010011011000110111xxxxxxxxxxxxxxxxxxxxxxxx *
1.
b110111 0
b1101001110011000000100100011111 2
b10 <
b1101001110011000000100100011111 Q
b1101001110011000000100100011111 R
b10001000000100000001010000001101 S
b10001000000100000001010000001101 T
b1000 V
b100000 W

#210000
0!
0.

#215000
1!
b111000 #
b111000 &
b110101001101100011011100111000xxxxxxxxxxxxxxxx *
1.
b111000 0
b10001000000100000001010000001101 2
b11 <
b10001000000100000001010000001101 Q
b10001000000100000001010000001101 R
b10101101001010101000000001111110 S
b10101101001010101000000001111110 T
b1000 V
b100000 W

#220000
0!
0.

#225000
1!
b111001 #
b111001 &
b11010100110110001101110011100000111001xxxxxxxx *
1.
b111001 0
b10101101001010101000000001111110 2
b100 <
b10101101001010101000000001111110 Q
b10101101001010101000000001111110 R
b11100100110010011001101000010 S
b11100100110010011001101000010 T
b1000 V
b100000 W

#230000
0!
0.

#235000
1!
b1000000 #
b1000000 &
b1101010011011000110111001110000011100101000000 *
1.
b1000000 0
b11100100110010011001101000010 2
b101 <
b100 D
b11100100110010011001101000010 Q
b11100100110010011001101000010 R
b11010100101010000111001001100011 S
b11010100101010000111001001100011 T
b1000 V
b100000 W

#240000
0!
0.

#245000
1!
b10000110 #
b10000110 &
b10000110xxxxxxxxxxxxxxxxxxxxxxxxxxxxxxxxxxxxxxxx +
1.
b10000110 0
b11010100101010000111001001100011 2
b110 <
b100 C
b100 D
b11010100101010000111001001100011 Q
b11010100101010000111001001100011 R
b11011001011001111111001101101001 S
b11011001011001111111001101101001 T
b1000 V
b100000 W

#250000
0!
0.

#255000
1!
b1000011010000110xxxxxxxxxxxxxxxxxxxxxxxxxxxxxxxx +
1.
b11011001011001111111001101101001 2
b1 =
b11011001011001111111001101101001 Q
b11011001011001111111001101101001 R
b100111001010110111111110111010 S
b100111001010110111111110111010 T
b1000 V
b100000 W

#260000
0!
0.

#265000
1!
b100001101000011010000110xxxxxxxxxxxxxxxxxxxxxxxx +
1.
b100111001010110111111110111010 2
b10 =
b100111001010110111111110111010 Q
b100111001010110111111110111010 R
b11011110100100011111000110111001 S
b11011110100100011111000110111001 T
b1000 V
b100000 W

#270000
0!
0.

#275000
1!
b10000110100001101000011010000110xxxxxxxxxxxxxxxx +
1.
b11011110100100011111000110111001 2
b11 =
b11011110100100011111000110111001 Q
b11011110100100011111000110111001 R
b11001111011011101111111110111111 S
b11001111011011101111111110111111 T
b1000 V
b100000 W

#280000
0!
0.

#285000
1!
b1000011010000110100001101000011010000110xxxxxxxx +
1.
b11001111011011101111111110111111 2
b100 =
b11001111011011101111111110111111 Q
b11001111011011101111111110111111 R
b1111000101100000011111101111000 S
b1111000101100000011111101111000 T
b1000 V
b100000 W

#290000
0!
0.

#295000
1!
b100001101000011010000110100001101000011010000110 +
1.
b1111000101100000011111101111000 2
b101 =
b101 D
b1111000101100000011111101111000 Q
b1111000101100000011111101111000 R
b101000010010010010100000011 S
b101000010010010010100000011 T
b1000 V
b100000 W

#300000
0!
0.

#305000
1!
b100111 #
b100111 &
b100111xxxxxxxx ,
1.
b100111 0
b101000010010010010100000011 2
b110 =
b101 C
b101 D
b101000010010010010100000011 Q
b101000010010010010100000011 R
b10011000100001001000111010001110 S
b10011000100001001000111010001110 T
b1000 V
b100000 W

#310000
0!
0.

#315000
1!
b10011100100111 ,
1.
b10011000100001001000111010001110 2
1>
b110 D
b10011000100001001000111010001110 Q
b10011000100001001000111010001110 R
b1111111111011111011000011 S
b1111111111011111011000011 T
b1000 V
b100000 W

#320000
0!
0.

#325000
1!
b1000010 #
0'
1.
b1000010 0
b1111111111011111011000011 2
15
0>
b110 C
b110 D
1E
1L
1N
b1111111111011111011000011 Q
b1111111111011111011000011 R
b1111101000110110011100001010010 S
b1111101000110110011100001010010 T
b1000 V
b100000 W

#330000
0!
0.

#335000
1!
b1110001 #
1.
b1110001 0
06
b1 8
b1 G
b1 H
b10 J
b1 O

#340000
0!
0.

#345000
1!
b1111100 #
1.
b1111100 0
b1000010 3
b10 8
b10 G
b10 H
b11 J
b1000010 M
b10 O

#350000
0!
0.

#355000
1!
b1111011 #
1.
b1111011 0
b11 8
b11 G
b11 H
b100 J
b11 O

#360000
0!
0.

#365000
1!
b100010 #
0$
1.
b100010 0
01
b100 8
b111 D
b100 G
b100 H
b101 J
b100 O

#370000
0!
0.

#375000
1!
b1000010 &
1'
1.
14
05
b101 8
b101 9
b111 C
b1001 D
0E
1F
b101 G
b101 H
b110 J
0L
0N
b101 O
b11000110011110111001010110101110 S
b11000110011110111001010110101110 T
b1000 V
b100000 W

#380000
0!
0.

#385000
1!
1.
b11000110011110111001010110101110 2
b100 8
b100 9
b1 ?
b1001 C
b100 G
b1 I
b10 K
b1 P
b11000110011110111001010110101110 Q
b11000110011110111001010110101110 R
b1100111010011100000110010 S
b1100111010011100000110010 T
b1000 V
b100000 W

#390000
0!
0.

#395000
1!
b1110001 &
1.
b1100111010011100000110010 2
b1110001 3
b11 8
b11 9
b1 A
b11 G
b10 I
b11 K
b1110001 M
b10 P
b1100111010011100000110010 Q
b1100111010011100000110010 R
b1111101100011000010111111100111 S
b1111101100011000010111111100111 T
b1000 V
b100000 W

#400000
0!
0.

#405000
1!
b1111100 &
1.
b1111101100011000010111111100111 2
b1111100 3
b10 8
b10 9
b10 A
b10 G
b11 I
b100 K
b1111100 M
b11 P
b1111101100011000010111111100111 Q
b1111101100011000010111111100111 R
b10001000111011101111101010110111 S
b10001000111011101111101010110111 T
b1000 V
b100000 W

#410000
0!
0.

#415000
1!
b1111011 &
1.
b10001000111011101111101010110111 2
b1111011 3
b1 8
b1 9
b11 A
b1 G
b100 I
b101 K
b1111011 M
b100 P
b10001000111011101111101010110111 Q
b10001000111011101111101010110111 R
b1101010000000010110110011010000 S
b1101010000000010110110011010000 T
b1000 V
b100000 W

#420000
0!
0.

#425000
1!
b100010 &
1.
b1101010000000010110110011010000 2
b100010 3
16
b0 8
b0 9
b0 A
b1010 D
b0 G
b101 I
b110 K
b100010 M
b101 P
b1101010000000010110110011010000 Q
b1101010000000010110110011010000 R
b10011111000100100110111001111 S
b10011111000100100110111001111 T
b1000 V
b100000 W

#430000
0!
0.

#435000
1!
0'
1(
1.
b10011111000100100110111001111 2
bx 3
04
b1 A
b1010 C
b0 D
0F
bx M
b10011111000100100110111001111 Q
b10011111000100100110111001111 R
b110010101111101011111100100111 S
b110010101111101011111100100111 T
b1000 V
b100000 W

#440000
0!
0.

#445000
1!
0(
1.
b0 C

