code/frame_rx/sim/Ethernet_frame_rx.vcd
$date
   Wed Mar  4 16:19:30 2026
$end

$version
  2024.2.0
  $dumpfile ("Ethernet_frame_rx.vcd") 
$end

$timescale
  1ps
$end

$scope module Ethernet_frame_rx_tb $end
$var reg 1 ! clk $end
$var reg 1 " reset $end
$var reg 8 # rx_data [7:0] $end
$var reg 1 $ rx_valid $end
$var reg 32 % CRC32_crc [31:0] $end
$var reg 8 & CRC32_data [7:0] $end
$var reg 1 ' CRC32_valid $end
$var reg 1 ( CRC32_error $end
$var reg 1 ) CRC32_correct $end
$scope module dut $end
$var wire 1 * clk $end
$var wire 1 + reset $end
$var wire 8 , rx_data [7:0] $end
$var wire 1 - rx_valid $end
$var wire 32 . CRC32_crc [31:0] $end
$var reg 8 & CRC32_data [7:0] $end
$var reg 1 ' CRC32_valid $end
$var reg 1 ( CRC32_error $end
$var reg 1 ) CRC32_correct $end
$var reg 8 / fifo_data [7:0] $end
$var reg 1 0 fifo_rd_en $end
$var reg 1 1 fifo_wr_en $end
$var reg 1 2 fifo_empty $end
$var reg 1 3 fifo_full $end
$var reg 8 4 fifo_used_memory [7:0] $end
$var reg 8 5 length_payload_fcs [7:0] $end
$var reg 48 6 MAC_dest_addr_test [47:0] $end
$var reg 1 7 debug $end
$var reg 3 8 cnt_preamble [2:0] $end
$var reg 3 9 cnt_MAC_dest [2:0] $end
$var reg 3 : cnt_MAC_source [2:0] $end
$var reg 1 ; cnt_ethernet_type $end
$var reg 11 < cnt_payload [10:0] $end
$var reg 6 = cnt_pad [5:0] $end
$var reg 2 > cnt_fcs [1:0] $end
$var reg 4 ? cnt_ipg [3:0] $end
$var reg 32 @ state $end
$var reg 32 A next_state $end
$scope module rx_fifo $end
$var wire 1 * clk $end
$var wire 1 + reset $end
$var wire 1 B push $end
$var wire 8 , wr_data [7:0] $end
$var wire 1 C pop $end
$var reg 8 / rd_data [7:0] $end
$var reg 1 3 fifo_full $end
$var reg 1 2 fifo_empty $end
$var reg 11 D fifo_used_memory [10:0] $end
$var reg 11 E wr_ptr [10:0] $end
$var reg 11 F rd_ptr [10:0] $end
$var reg 11 G wr_ptr_nxt [10:0] $end
$var reg 11 H rd_ptr_nxt [10:0] $end
$var reg 1 I write_enable $end
$var reg 8 J rd_data_raw [7:0] $end
$scope module fifo_ram $end
$var wire 1 * clk $end
$var wire 1 K we $end
$var wire 11 L wr_addr [10:0] $end
$var wire 8 , wr_data [7:0] $end
$var wire 11 M rd_addr [10:0] $end
$var reg 8 J rd_data [7:0] $end
$upscope $end
$upscope $end
$upscope $end
$scope task clk_gen $end
$upscope $end
$scope task apply_reset $end
$upscope $end
$upscope $end
$enddefinitions $end

#0
$dumpvars
0!
0"
bx #
0$
bx %
bx &
0'
0(
0)
0*
0+
bx ,
0-
bx .
bx /
00
01
x2
x3
bx 4
bx 5
bx 6
x7
bx 8
bx 9
bx :
x;
bx <
bx =
bx >
bx ?
b0 @
b0 A
0B
0C
bx D
bx E
bx F
bx G
bx H
0I
bx J
0K
bx L
bx M
$end

#5000
1!
1"
1*
1+
12
03
b0 4
b0 8
b0 9
b0 :
0;
b0 <
b0 =
b0 >
b0 ?
b0 D
b0 E
b0 F
b1 G
b1 H
b0 L
b0 M

#10000
0!
0*

#15000
1!
0"
1*
0+

#20000
0!
0*

#25000
1!
1*

#30000
0!
0*

#35000
1!
1*

#40000
0!
0*

#45000
1!
1*

#50000
0!
0*

#55000
1!
1*

#60000
0!
0*

#65000
1!
1*

#70000
0!
0*

#75000
1!
1*

#80000
0!
0*

#85000
1!
1*

#90000
0!
0*

#95000
1!
1$
1*
1-
b1 A

#100000
0!
0*

#105000
1!
b10101010 #
1*
b10101010 ,
b1 @

#110000
0!
0*

#115000
1!
1*
b1 8

#120000
0!
0*

#125000
1!
1*
b10 8

#130000
0!
0*

#135000
1!
1*
b11 8

#140000
0!
0*

#145000
1!
1*
b100 8

#150000
0!
0*

#155000
1!
1*
b101 8
b10 A

#160000
0!
0*

#165000
1!
1*
b110 8
b10 @
b10 A

#170000
0!
0*

#175000
1!
b11010101 #
1*
b11010101 ,
b11 A

#180000
0!
0*

#185000
1!
b100001 #
1'
1*
b100001 ,
b11 @

#190000
0!
0*

#195000
1!
b100001 &
1*
b1 9

#200000
0!
0*

#205000
1!
1*
b10 9

#210000
0!
0*

#215000
1!
1*
b11 9

#220000
0!
0*

#225000
1!
1*
b100 9

#230000
0!
0*

#235000
1!
1*
b101 9
b100 A

#240000
0!
0*

#245000
1!
b101001 #
1*
b101001 ,
b110 9
b100 @
b100 A

#250000
0!
0*

#255000
1!
b101001 &
1*
b1 :

#260000
0!
0*

#265000
1!
1*
b10 :

#270000
0!
0*

#275000
1!
1*
b11 :

#280000
0!
0*

#285000
1!
1*
b100 :

#290000
0!
0*

#295000
1!
1*
b101 :
b101 A

#300000
0!
0*

#305000
1!
b110101 #
1*
b110101 ,
b110 :
b101 @
b110 A

#310000
0!
0*

#315000
1!
b110101 &
1*
11
1;
b110 @
b110 A
1B
1I
1K

#320000
0!
0*

#325000
1!
b11100101 #
1*
b11100101 ,
02
b1 4
b1 D
b1 E
b10 G
b1 L

#330000
0!
0*

#335000
1!
1*
b110101 /
b10 4
b10 D
b10 E
b11 G
b110101 J
b10 L

#340000
0!
0*

#345000
1!
1*
b11 4
b11 D
b11 E
b100 G
b11 L

#350000
0!
0*

#355000
1!
1*
b100 4
b100 D
b100 E
b101 G
b100 L

#360000
0!
0*

#365000
1!
1*
b101 4
b101 D
b101 E
b110 G
b101 L

#370000
0!
0*

#375000
1!
1*
b110 4
b110 D
b110 E
b111 G
b110 L

#380000
0!
0*

#385000
1!
1*
b111 4
b111 D
b111 E
b1000 G
b111 L

#390000
0!
0*

#395000
1!
b1010101 #
1*
b1010101 ,
b1000 4
b1000 D
b1000 E
b1001 G
b1000 L

#400000
0!
0*

#405000
1!
1*
b1001 4
b1001 D
b1001 E
b1010 G
b1001 L

#410000
0!
0*

#415000
1!
1*
b1010 4
b1010 D
b1010 E
b1011 G
b1010 L

#420000
0!
0*

#425000
1!
1*
b1011 4
b1011 D
b1011 E
b1100 G
b1011 L

#430000
0!
0*

#435000
1!
0$
1*
0-
b1100 4
b111 A
b1100 D
b1100 E
b1101 G
b1100 L

#440000
0!
0*

#445000
1!
1*
10
01
b1101 4
b111 @
0B
1C
b1101 D
b1101 E
b1110 G
0I
0K
b1101 L

#450000
0!
0*

#455000
1!
1*
b1100 4
b1101 5
b1 <
b1100 D
b1 F
b10 H
b1 M

#460000
0!
0*

#465000
1!
1*
b11100101 /
b1011 4
b1100 5
b10 <
b1011 D
b10 F
b11 H
b11100101 J
b10 M

#470000
0!
0*

#475000
1!
b11100101 &
1*
b1010 4
b1011 5
b11 <
b1010 D
b11 F
b100 H
b11 M

#480000
0!
0*

#485000
1!
1*
b1001 4
b1010 5
b100 <
b1001 D
b100 F
b101 H
b100 M

#490000
0!
0*

#495000
1!
1*
b1000 4
b1001 5
b101 <
b1000 D
b101 F
b110 H
b101 M

#500000
0!
0*

#505000
1!
1*
b111 4
b1000 5
b110 <
b111 D
b110 F
b111 H
b110 M

#510000
0!
0*

#515000
1!
1*
b110 4
b111 5
b111 <
b110 D
b111 F
b1000 H
b111 M

#520000
0!
0*

#525000
1!
1*
b101 4
b110 5
b1000 <
b101 D
b1000 F
b1001 H
b1000 M

#530000
0!
0*

#535000
1!
1*
b1010101 /
b100 4
b101 5
b1001 <
b100 D
b1001 F
b1010 H
b1010101 J
b1001 M

#540000
0!
0*

#545000
1!
b1010101 &
1*
b11 4
b100 5
b1010 <
b1001 A
b11 D
b1010 F
b1011 H
b1010 M

#550000
0!
0*

#555000
1!
1*
b10 4
b11 5
b1011 <
b1001 @
b10 D
b1011 F
b1100 H
b1011 M

#560000
0!
0*

#565000
1!
1*
b1 4
b1 >
b1 D
b1100 F
b1101 H
b1100 M

#570000
0!
0*

#575000
1!
1*
12
b0 4
b10 >
b1010 A
b0 D
b1101 F
b1110 H
b1101 M

#580000
0!
0*

#585000
1!
1(
1*
bx /
00
b11 >
b1010 @
b0 A
0C
bx J

#590000
0!
0*

#595000
1!
0'
0(
1*
b0 @

