code/frame_rx/sim/Ethernet_frame_rx.vcd
$date
   Wed Mar 11 11:25:26 2026
$end

$version
  2024.2.0
  $dumpfile ("Ethernet_frame_rx.vcd") 
$end

$timescale
  1ps
$end

$scope module Ethernet_frame_rx_tb $end
$var reg 1 ! clk $end
$var reg 1 " reset $end
$var reg 8 # rx_data [7:0] $end
$var reg 1 $ rx_valid $end
$var reg 32 % CRC32_crc [31:0] $end
$var reg 8 & CRC32_data [7:0] $end
$var reg 1 ' CRC32_valid $end
$var reg 1 ( CRC32_error $end
$var reg 1 ) CRC32_correct $end
$var reg 1 * Check_done $end
$var reg 48 + MAC_dest_addr [47:0] $end
$var reg 48 , MAC_source_addr [47:0] $end
$var reg 16 - ethernet_type [15:0] $end
$var reg 101 . payload [100:0] $end
$scope module dut $end
$var wire 1 / clk $end
$var wire 1 0 reset $end
$var wire 8 1 rx_data [7:0] $end
$var wire 1 2 rx_valid $end
$var reg 1 ( CRC32_error $end
$var reg 1 ) CRC32_correct $end
$var reg 32 % CRC32_crc [31:0] $end
$var reg 48 + MAC_dest_addr [47:0] $end
$var reg 48 , MAC_source_addr [47:0] $end
$var reg 16 - ethernet_type [15:0] $end
$var reg 101 . payload [100:0] $end
$var reg 8 3 CRC32_data [7:0] $end
$var reg 1 4 CRC32_valid $end
$var reg 8 5 fifo_data [7:0] $end
$var reg 1 6 fifo_rd_en $end
$var reg 1 7 fifo_wr_en $end
$var reg 1 8 fifo_empty $end
$var reg 1 9 fifo_full $end
$var reg 8 : fifo_used_memory [7:0] $end
$var reg 8 ; length_payload_fcs [7:0] $end
$var reg 1 < debug $end
$var reg 3 = cnt_preamble [2:0] $end
$var reg 3 > cnt_MAC_dest [2:0] $end
$var reg 3 ? cnt_MAC_source [2:0] $end
$var reg 1 @ cnt_ethernet_type $end
$var reg 11 A cnt_payload [10:0] $end
$var reg 6 B cnt_pad [5:0] $end
$var reg 2 C cnt_fcs [1:0] $end
$var reg 4 D cnt_ipg [3:0] $end
$var reg 32 E state $end
$var reg 32 F next_state $end
$scope module rx_fifo $end
$var wire 1 / clk $end
$var wire 1 0 reset $end
$var wire 1 G push $end
$var wire 8 1 wr_data [7:0] $end
$var wire 1 H pop $end
$var reg 8 5 rd_data [7:0] $end
$var reg 1 9 fifo_full $end
$var reg 1 8 fifo_empty $end
$var reg 11 I fifo_used_memory [10:0] $end
$var reg 11 J wr_ptr [10:0] $end
$var reg 11 K rd_ptr [10:0] $end
$var reg 11 L wr_ptr_nxt [10:0] $end
$var reg 11 M rd_ptr_nxt [10:0] $end
$var reg 1 N write_enable $end
$var reg 8 O rd_data_raw [7:0] $end
$scope module fifo_ram $end
$var wire 1 / clk $end
$var wire 1 P we $end
$var wire 11 Q wr_addr [10:0] $end
$var wire 8 1 wr_data [7:0] $end
$var wire 11 R rd_addr [10:0] $end
$var reg 8 O rd_data [7:0] $end
$upscope $end
$upscope $end
$scope module CRC32_rx $end
$var wire 1 / clk $end
$var wire 1 0 reset $end
$var wire 8 S data_in [7:0] $end
$var wire 1 T valid $end
$var wire 32 U crc_out [31:0] $end
$var reg 32 V crc [31:0] $end
$var reg 32 W crc_prev [31:0] $end
$var reg 32 X crc_next [31:0] $end
$var reg 4 Y debug [3:0] $end
$scope begin Block41_11 $end
$var reg 32 Z i [31:0] $end
$scope begin Block43_12 $end
$var reg 32 [ j [31:0] $end
$upscope $end
$upscope $end
$upscope $end
$upscope $end
$scope task clk_gen $end
$upscope $end
$scope task apply_reset $end
$upscope $end
$upscope $end
$enddefinitions $end

#0
$dumpvars
0!
0"
bx #
0$
bx %
bx &
x'
0(
0)
x*
bx +
bx ,
bx -
bx .
0/
00
bx 1
02
bx 3
04
bx 5
06
07
x8
x9
bx :
bx ;
x<
bx =
bx >
bx ?
x@
bx A
bx B
bx C
bx D
b0 E
b0 F
0G
0H
bx I
bx J
bx K
bx L
bx M
0N
bx O
0P
bx Q
bx R
bx S
0T
bx U
bx V
bx W
bx X
bx Y
b1000 Z
b100000 [
$end

#5000
1!
1"
b11111111111111111111111111111111 %
1/
10
18
09
b0 :
b0 =
b0 >
b0 ?
0@
b0 A
b0 B
b0 C
b0 D
b0 I
b0 J
b0 K
b1 L
b1 M
b0 Q
b0 R
b11111111111111111111111111111111 U
b11111111111111111111111111111111 V
bx W
bx X
b1000 Z
b100000 [

#10000
0!
0/

#15000
1!
0"
1/
00

#20000
0!
0/

#25000
1!
1/

#30000
0!
0/

#35000
1!
1/

#40000
0!
0/

#45000
1!
1/

#50000
0!
0/

#55000
1!
1/

#60000
0!
0/

#65000
1!
1/

#70000
0!
0/

#75000
1!
1/

#80000
0!
0/

#85000
1!
1/

#90000
0!
0/

#95000
1!
1$
1/
12
b1 F

#100000
0!
0/

#105000
1!
b10101010 #
1/
b10101010 1
b1 E

#110000
0!
0/

#115000
1!
1/
b1 =

#120000
0!
0/

#125000
1!
1/
b10 =

#130000
0!
0/

#135000
1!
1/
b11 =

#140000
0!
0/

#145000
1!
1/
b100 =

#150000
0!
0/

#155000
1!
1/
b101 =
b10 F

#160000
0!
0/

#165000
1!
1/
b110 =
b10 E
b10 F

#170000
0!
0/

#175000
1!
b11010101 #
1/
b11010101 1
b11 F

#180000
0!
0/

#185000
1!
b110101 #
b110101xxxxxxxxxxxxxxxxxxxxxxxxxxxxxxxxxxxxxxxx +
1/
b110101 1
b110101 3
14
b11 E
b110101 S
1T
b10001101111111111011100101001111 W
b10001101111111111011100101001111 X
b1000 Z
b100000 [

#190000
0!
0/

#195000
1!
b110110 #
b10001101111111111011100101001111 %
b11010100110110xxxxxxxxxxxxxxxxxxxxxxxxxxxxxxxx +
1/
b110110 1
b110110 3
b1 >
b110110 S
b10001101111111111011100101001111 U
b10001101111111111011100101001111 V
b1101001110011000000100100011111 W
b1101001110011000000100100011111 X
b1000 Z
b100000 [

#200000
0!
0/

#205000
1!
b110111 #
b1101001110011000000100100011111 %
b1101010011011000110111xxxxxxxxxxxxxxxxxxxxxxxx +
1/
b110111 1
b110111 3
b10 >
b110111 S
b1101001110011000000100100011111 U
b1101001110011000000100100011111 V
b10001000000100000001010000001101 W
b10001000000100000001010000001101 X
b1000 Z
b100000 [

#210000
0!
0/

#215000
1!
b111000 #
b10001000000100000001010000001101 %
b110101001101100011011100111000xxxxxxxxxxxxxxxx +
1/
b111000 1
b111000 3
b11 >
b111000 S
b10001000000100000001010000001101 U
b10001000000100000001010000001101 V
b10101101001010101000000001111110 W
b10101101001010101000000001111110 X
b1000 Z
b100000 [

#220000
0!
0/

#225000
1!
b111001 #
b10101101001010101000000001111110 %
b11010100110110001101110011100000111001xxxxxxxx +
1/
b111001 1
b111001 3
b100 >
b111001 S
b10101101001010101000000001111110 U
b10101101001010101000000001111110 V
b11100100110010011001101000010 W
b11100100110010011001101000010 X
b1000 Z
b100000 [

#230000
0!
0/

#235000
1!
b1000000 #
b11100100110010011001101000010 %
b1101010011011000110111001110000011100101000000 +
1/
b1000000 1
b1000000 3
b101 >
b100 F
b1000000 S
b11100100110010011001101000010 U
b11100100110010011001101000010 V
b11010100101010000111001001100011 W
b11010100101010000111001001100011 X
b1000 Z
b100000 [

#240000
0!
0/

#245000
1!
b10000110 #
b11010100101010000111001001100011 %
b10000110xxxxxxxxxxxxxxxxxxxxxxxxxxxxxxxxxxxxxxxx ,
1/
b10000110 1
b10000110 3
b110 >
b100 E
b100 F
b10000110 S
b11010100101010000111001001100011 U
b11010100101010000111001001100011 V
b11011001011001111111001101101001 W
b11011001011001111111001101101001 X
b1000 Z
b100000 [

#250000
0!
0/

#255000
1!
b11011001011001111111001101101001 %
b1000011010000110xxxxxxxxxxxxxxxxxxxxxxxxxxxxxxxx ,
1/
b1 ?
b11011001011001111111001101101001 U
b11011001011001111111001101101001 V
b100111001010110111111110111010 W
b100111001010110111111110111010 X
b1000 Z
b100000 [

#260000
0!
0/

#265000
1!
b100111001010110111111110111010 %
b100001101000011010000110xxxxxxxxxxxxxxxxxxxxxxxx ,
1/
b10 ?
b100111001010110111111110111010 U
b100111001010110111111110111010 V
b11011110100100011111000110111001 W
b11011110100100011111000110111001 X
b1000 Z
b100000 [

#270000
0!
0/

#275000
1!
b11011110100100011111000110111001 %
b10000110100001101000011010000110xxxxxxxxxxxxxxxx ,
1/
b11 ?
b11011110100100011111000110111001 U
b11011110100100011111000110111001 V
b11001111011011101111111110111111 W
b11001111011011101111111110111111 X
b1000 Z
b100000 [

#280000
0!
0/

#285000
1!
b11001111011011101111111110111111 %
b1000011010000110100001101000011010000110xxxxxxxx ,
1/
b100 ?
b11001111011011101111111110111111 U
b11001111011011101111111110111111 V
b1111000101100000011111101111000 W
b1111000101100000011111101111000 X
b1000 Z
b100000 [

#290000
0!
0/

#295000
1!
b1111000101100000011111101111000 %
b100001101000011010000110100001101000011010000110 ,
1/
b101 ?
b101 F
b1111000101100000011111101111000 U
b1111000101100000011111101111000 V
b101000010010010010100000011 W
b101000010010010010100000011 X
b1000 Z
b100000 [

#300000
0!
0/

#305000
1!
b100111 #
b101000010010010010100000011 %
b100111xxxxxxxx -
1/
b100111 1
b100111 3
b110 ?
b101 E
b101 F
b100111 S
b101000010010010010100000011 U
b101000010010010010100000011 V
b10011000100001001000111010001110 W
b10011000100001001000111010001110 X
b1000 Z
b100000 [

#310000
0!
0/

#315000
1!
b10011000100001001000111010001110 %
b10011100100111 -
1/
1@
b110 F
b10011000100001001000111010001110 U
b10011000100001001000111010001110 V
b1111111111011111011000011 W
b1111111111011111011000011 X
b1000 Z
b100000 [

#320000
0!
0/

#325000
1!
b1000010 #
b1111111111011111011000011 %
1/
b1000010 1
04
17
0@
b110 E
b110 F
1G
1N
1P
0T
b1111111111011111011000011 U
b1111111111011111011000011 V
b1111101000110110011100001010010 W
b1111101000110110011100001010010 X
b1000 Z
b100000 [

#330000
0!
0/

#335000
1!
1/
08
b1 :
b1 I
b1 J
b10 L
b1 Q

#340000
0!
0/

#345000
1!
1/
b1000010 5
b10 :
b10 I
b10 J
b11 L
b1000010 O
b10 Q

#350000
0!
0/

#355000
1!
1/
b11 :
b11 I
b11 J
b100 L
b11 Q

#360000
0!
0/

#365000
1!
1/
b100 :
b100 I
b100 J
b101 L
b100 Q

#370000
0!
0/

#375000
1!
b11100111 #
1/
b11100111 1
b101 :
b101 I
b101 J
b110 L
b101 Q

#380000
0!
0/

#385000
1!
b1100000 #
1/
b1100000 1
b110 :
b110 I
b110 J
b111 L
b110 Q

#390000
0!
0/

#395000
1!
b1101 #
1/
b1101 1
b111 :
b111 I
b111 J
b1000 L
b111 Q

#400000
0!
0/

#405000
1!
b10010111 #
0$
1/
b10010111 1
02
b1000 :
b111 F
b1000 I
b1000 J
b1001 L
b1000 Q

#410000
0!
0/

#415000
1!
bx0100001001000010xxxxxxxxxxxxxxxxxxxxxxxx .
1/
16
07
b1001 :
b1001 ;
b111 E
0G
1H
b1001 I
b1001 J
b1010 L
0N
0P
b1001 Q

#420000
0!
0/

#425000
1!
1/
b1000010 3
14
b1000 :
b1000 ;
b1 A
b1000 I
b1 K
b10 M
b1 R
b1000010 S
1T
b11000110011110111001010110101110 W
b11000110011110111001010110101110 X
b1000 Z
b100000 [

#430000
0!
0/

#435000
1!
b11000110011110111001010110101110 %
bx010000100100001001000010xxxxxxxxxxxxxxxx .
1/
b111 :
b111 ;
b10 A
b111 I
b10 K
b11 M
b10 R
b11000110011110111001010110101110 U
b11000110011110111001010110101110 V
b1100111010011100000110010 W
b1100111010011100000110010 X
b1000 Z
b100000 [

#440000
0!
0/

#445000
1!
b1100111010011100000110010 %
bx01000010010000100100001001000010xxxxxxxx .
1/
b110 :
b110 ;
b11 A
b110 I
b11 K
b100 M
b11 R
b1100111010011100000110010 U
b1100111010011100000110010 V
b10100100111111010110010010101110 W
b10100100111111010110010010101110 X
b1000 Z
b100000 [

#450000
0!
0/

#455000
1!
b10100100111111010110010010101110 %
bx0100001001000010010000100100001001000010 .
1/
b101 :
b101 ;
b100 A
b1001 F
b101 I
b100 K
b101 M
b100 R
b10100100111111010110010010101110 U
b10100100111111010110010010101110 V
b100010010010111100010111001011 W
b100010010010111100010111001011 X
b1000 Z
b100000 [

#460000
0!
0/

#465000
1!
b100010010010111100010111001011 %
1/
b100 :
b100 ;
b101 A
b1001 E
b100 I
b101 K
b110 M
b101 R
b100010010010111100010111001011 U
b100010010010111100010111001011 V
b11100111011000000000110110010111 W
b11100111011000000000110110010111 X
b1000 Z
b100000 [

#470000
0!
0/

#475000
1!
b11100111011000000000110110010111 %
1/
b11100111 3
b11100111 5
b11 :
b11 ;
b1 C
b11 I
b110 K
b111 M
b11100111 O
b110 R
b11100111 S
b11100111011000000000110110010111 U
b11100111011000000000110110010111 V
b1100000000011011001011100000000 W
b1100000000011011001011100000000 X
b1000 Z
b100000 [

#480000
0!
0/

#485000
1!
b1100000000011011001011100000000 %
1/
b1100000 3
b1100000 5
b10 :
b10 ;
b10 C
b10 I
b111 K
b1000 M
b1100000 O
b111 R
b1100000 S
b1100000000011011001011100000000 U
b1100000000011011001011100000000 V
b1101100101110000000000000000 W
b1101100101110000000000000000 X
b1000 Z
b100000 [

#490000
0!
0/

#495000
1!
b1101100101110000000000000000 %
1/
b1101 3
b1101 5
b1 :
b1 ;
b11 C
b1 I
b1000 K
b1001 M
b1101 O
b1000 R
b1101 S
b1101100101110000000000000000 U
b1101100101110000000000000000 V
b10010111000000000000000000000000 W
b10010111000000000000000000000000 X
b1000 Z
b100000 [

#500000
0!
0/

#505000
1!
b10010111000000000000000000000000 %
1/
b10010111 3
b10010111 5
18
b0 :
b0 ;
b0 C
b1010 F
b0 I
b1001 K
b1010 M
b10010111 O
b1001 R
b10010111 S
b10010111000000000000000000000000 U
b10010111000000000000000000000000 V
b0 W
b0 X
b1000 Z
b100000 [

#510000
0!
0/

#515000
1!
b0 %
1)
1/
04
bx 5
06
b1 C
b1010 E
b0 F
0H
bx O
0T
b0 U
b0 V
b111011010110100110101110011011 W
b111011010110100110101110011011 X
b1000 Z
b100000 [

#520000
0!
0/

#525000
1!
0)
1/
b0 E

