code/frame_rx/sim/Ethernet_frame_rx.vcd
$date
   Tue Mar 24 11:15:32 2026
$end

$version
  2024.2.0
  $dumpfile ("Ethernet_frame_rx.vcd") 
$end

$timescale
  1ps
$end

$scope module Ethernet_frame_rx_tb $end
$var reg 1 ! clk $end
$var reg 1 " reset $end
$var reg 8 # rx_data [7:0] $end
$var reg 1 $ rx_valid $end
$var reg 32 % CRC32_crc [31:0] $end
$var reg 8 & CRC32_data [7:0] $end
$var reg 1 ' CRC32_valid $end
$var reg 1 ( CRC32_error $end
$var reg 1 ) CRC32_correct $end
$var reg 1 * Check_done $end
$var reg 48 + MAC_dest_addr [47:0] $end
$var reg 48 , MAC_source_addr [47:0] $end
$var reg 16 - ethernet_type [15:0] $end
$var reg 101 . payload [100:0] $end
$scope module dut $end
$var wire 1 / clk $end
$var wire 1 0 reset $end
$var wire 8 1 rx_data [7:0] $end
$var wire 1 2 rx_valid $end
$var reg 1 ( CRC32_error $end
$var reg 1 ) CRC32_correct $end
$var reg 32 % CRC32_crc [31:0] $end
$var reg 48 + MAC_dest_addr [47:0] $end
$var reg 48 , MAC_source_addr [47:0] $end
$var reg 16 - ethernet_type [15:0] $end
$var reg 101 . payload [100:0] $end
$var reg 8 3 CRC32_data [7:0] $end
$var reg 1 4 CRC32_valid $end
$var reg 8 5 fifo_data [7:0] $end
$var reg 1 6 fifo_rd_en $end
$var reg 1 7 fifo_wr_en $end
$var reg 1 8 fifo_empty $end
$var reg 1 9 fifo_full $end
$var reg 8 : fifo_used_memory [7:0] $end
$var reg 8 ; length_payload_fcs [7:0] $end
$var reg 1 < debug $end
$var reg 3 = cnt_preamble [2:0] $end
$var reg 3 > cnt_MAC_dest [2:0] $end
$var reg 3 ? cnt_MAC_source [2:0] $end
$var reg 1 @ cnt_ethernet_type $end
$var reg 11 A cnt_payload [10:0] $end
$var reg 6 B cnt_pad [5:0] $end
$var reg 2 C cnt_fcs [1:0] $end
$var reg 4 D cnt_ipg [3:0] $end
$var reg 32 E state $end
$var reg 32 F next_state $end
$scope module rx_fifo $end
$var wire 1 / clk $end
$var wire 1 0 reset $end
$var wire 1 G push $end
$var wire 8 1 wr_data [7:0] $end
$var wire 1 H pop $end
$var reg 8 5 rd_data [7:0] $end
$var reg 1 9 fifo_full $end
$var reg 1 8 fifo_empty $end
$var reg 11 I fifo_used_memory [10:0] $end
$var reg 11 J wr_ptr [10:0] $end
$var reg 11 K rd_ptr [10:0] $end
$var reg 11 L wr_ptr_nxt [10:0] $end
$var reg 11 M rd_ptr_nxt [10:0] $end
$var reg 1 N write_enable $end
$var reg 8 O rd_data_raw [7:0] $end
$scope module fifo_ram $end
$var wire 1 / clk $end
$var wire 1 P we $end
$var wire 11 Q wr_addr [10:0] $end
$var wire 8 1 wr_data [7:0] $end
$var wire 11 R rd_addr [10:0] $end
$var reg 8 O rd_data [7:0] $end
$upscope $end
$upscope $end
$scope module CRC32_rx $end
$var wire 1 / clk $end
$var wire 1 0 reset $end
$var wire 8 S data_in [7:0] $end
$var wire 1 T valid $end
$var wire 32 U crc_out [31:0] $end
$var reg 32 V crc [31:0] $end
$var reg 32 W crc_prev [31:0] $end
$var reg 32 X crc_next [31:0] $end
$var reg 4 Y debug [3:0] $end
$scope begin Block41_11 $end
$var reg 32 Z i [31:0] $end
$scope begin Block43_12 $end
$var reg 32 [ j [31:0] $end
$upscope $end
$upscope $end
$upscope $end
$upscope $end
$scope task clk_gen $end
$upscope $end
$scope task apply_reset $end
$upscope $end
$upscope $end
$enddefinitions $end

#0
$dumpvars
0!
0"
bx #
0$
bx %
bx &
x'
0(
0)
x*
bx +
bx ,
bx -
bx .
0/
00
bx 1
02
bx 3
04
bx 5
06
07
x8
x9
bx :
bx ;
x<
bx =
bx >
bx ?
x@
bx A
bx B
bx C
bx D
b0 E
b0 F
0G
0H
bx I
bx J
bx K
bx L
bx M
0N
bx O
0P
bx Q
bx R
bx S
0T
bx U
bx V
bx W
bx X
bx Y
b1000 Z
b100000 [
$end

#5000
1!
1"
b11111111111111111111111111111111 %
1/
10
18
09
b0 :
b0 =
b0 >
b0 ?
0@
b0 A
b0 B
b0 C
b0 D
b0 I
b0 J
b0 K
b1 L
b1 M
b0 Q
b0 R
b11111111111111111111111111111111 U
b11111111111111111111111111111111 V
bx W
bx X
b1000 Z
b100000 [

#10000
0!
0/

#15000
1!
0"
1/
00

#20000
0!
0/

#25000
1!
1/

#30000
0!
0/

#35000
1!
1/

#40000
0!
0/

#45000
1!
1/

#50000
0!
0/

#55000
1!
1/

#60000
0!
0/

#65000
1!
1/

#70000
0!
0/

#75000
1!
1/

#80000
0!
0/

#85000
1!
1/

#90000
0!
0/

#95000
1!
1$
1/
12
b1 F

#100000
0!
0/

#105000
1!
b10101010 #
1/
b10101010 1
b1 E

#110000
0!
0/

#115000
1!
1/
b1 =

#120000
0!
0/

#125000
1!
1/
b10 =

#130000
0!
0/

#135000
1!
1/
b11 =

#140000
0!
0/

#145000
1!
1/
b100 =

#150000
0!
0/

#155000
1!
1/
b101 =
b10 F

#160000
0!
0/

#165000
1!
1/
b110 =
b10 E
b10 F

#170000
0!
0/

#175000
1!
b11010101 #
1/
b11010101 1
b11 F

#180000
0!
0/

#185000
1!
b110101 #
b110101xxxxxxxxxxxxxxxxxxxxxxxxxxxxxxxxxxxxxxxx +
1/
b110101 1
b110101 3
14
b11 E
b110101 S
1T
b10001101111111111011100101001111 W
b10001101111111111011100101001111 X
b1000 Z
b100000 [

#190000
0!
0/

#195000
1!
b110110 #
b10001101111111111011100101001111 %
b11010100110110xxxxxxxxxxxxxxxxxxxxxxxxxxxxxxxx +
1/
b110110 1
b110110 3
b1 >
b110110 S
b10001101111111111011100101001111 U
b10001101111111111011100101001111 V
b1101001110011000000100100011111 W
b1101001110011000000100100011111 X
b1000 Z
b100000 [

#200000
0!
0/

#205000
1!
b110111 #
b1101001110011000000100100011111 %
b1101010011011000110111xxxxxxxxxxxxxxxxxxxxxxxx +
1/
b110111 1
b110111 3
b10 >
b110111 S
b1101001110011000000100100011111 U
b1101001110011000000100100011111 V
b10001000000100000001010000001101 W
b10001000000100000001010000001101 X
b1000 Z
b100000 [

#210000
0!
0/

#215000
1!
b111000 #
b10001000000100000001010000001101 %
b110101001101100011011100111000xxxxxxxxxxxxxxxx +
1/
b111000 1
b111000 3
b11 >
b111000 S
b10001000000100000001010000001101 U
b10001000000100000001010000001101 V
b10101101001010101000000001111110 W
b10101101001010101000000001111110 X
b1000 Z
b100000 [

#220000
0!
0/

#225000
1!
b111001 #
b10101101001010101000000001111110 %
b11010100110110001101110011100000111001xxxxxxxx +
1/
b111001 1
b111001 3
b100 >
b111001 S
b10101101001010101000000001111110 U
b10101101001010101000000001111110 V
b11100100110010011001101000010 W
b11100100110010011001101000010 X
b1000 Z
b100000 [

#230000
0!
0/

#235000
1!
b1000000 #
b11100100110010011001101000010 %
b1101010011011000110111001110000011100101000000 +
1/
b1000000 1
b1000000 3
b101 >
b100 F
b1000000 S
b11100100110010011001101000010 U
b11100100110010011001101000010 V
b11010100101010000111001001100011 W
b11010100101010000111001001100011 X
b1000 Z
b100000 [

#240000
0!
0/

#245000
1!
b1010000 #
b11010100101010000111001001100011 %
b1010000xxxxxxxxxxxxxxxxxxxxxxxxxxxxxxxxxxxxxxxx ,
1/
b1010000 1
b1010000 3
b110 >
b100 E
b100 F
b1010000 S
b11010100101010000111001001100011 U
b11010100101010000111001001100011 V
b11010010011110101111010100110010 W
b11010010011110101111010100110010 X
b1000 Z
b100000 [

#250000
0!
0/

#255000
1!
b1010001 #
b11010010011110101111010100110010 %
b101000001010001xxxxxxxxxxxxxxxxxxxxxxxxxxxxxxxx ,
1/
b1010001 1
b1010001 3
b1 ?
b1010001 S
b11010010011110101111010100110010 U
b11010010011110101111010100110010 V
b11110101110101111010000110111 W
b11110101110101111010000110111 X
b1000 Z
b100000 [

#260000
0!
0/

#265000
1!
b1010010 #
b11110101110101111010000110111 %
b10100000101000101010010xxxxxxxxxxxxxxxxxxxxxxxx ,
1/
b1010010 1
b1010010 3
b10 ?
b1010010 S
b11110101110101111010000110111 U
b11110101110101111010000110111 V
b10111011011111101101110000010011 W
b10111011011111101101110000010011 X
b1000 Z
b100000 [

#270000
0!
0/

#275000
1!
b1010011 #
b10111011011111101101110000010011 %
b1010000010100010101001001010011xxxxxxxxxxxxxxxx ,
1/
b1010011 1
b1010011 3
b11 ?
b1010011 S
b10111011011111101101110000010011 U
b10111011011111101101110000010011 V
b10011101011111011101100011000001 W
b10011101011111011101100011000001 X
b1000 Z
b100000 [

#280000
0!
0/

#285000
1!
b1010100 #
b10011101011111011101100011000001 %
b101000001010001010100100101001101010100xxxxxxxx ,
1/
b1010100 1
b1010100 3
b100 ?
b1010100 S
b10011101011111011101100011000001 U
b10011101011111011101100011000001 V
b10100110111010000110010110 W
b10100110111010000110010110 X
b1000 Z
b100000 [

#290000
0!
0/

#295000
1!
b1010101 #
b10100110111010000110010110 %
b10100000101000101010010010100110101010001010101 ,
1/
b1010101 1
b1010101 3
b101 ?
b101 F
b1010101 S
b10100110111010000110010110 U
b10100110111010000110010110 V
b11111101011100010110110100000010 W
b11111101011100010110110100000010 X
b1000 Z
b100000 [

#300000
0!
0/

#305000
1!
b1010110 #
b11111101011100010110110100000010 %
b1010110xxxxxxxx -
1/
b1010110 1
b1010110 3
b110 ?
b101 E
b101 F
b1010110 S
b11111101011100010110110100000010 U
b11111101011100010110110100000010 V
b10101011000010011001111101101111 W
b10101011000010011001111101101111 X
b1000 Z
b100000 [

#310000
0!
0/

#315000
1!
b1010111 #
b10101011000010011001111101101111 %
b101011001010111 -
1/
b1010111 1
b1010111 3
1@
b110 F
b1010111 S
b10101011000010011001111101101111 U
b10101011000010011001111101101111 V
b10110101001010110000100101101101 W
b10110101001010110000100101101101 X
b1000 Z
b100000 [

#320000
0!
0/

#325000
1!
b1100000 #
b10110101001010110000100101101101 %
b101011101010111 -
1/
b1100000 1
04
17
0@
b110 E
b110 F
1G
1N
1P
0T
b10110101001010110000100101101101 U
b10110101001010110000100101101101 V
b11100111001000100111000000010111 W
b11100111001000100111000000010111 X
b1000 Z
b100000 [

#330000
0!
0/

#335000
1!
b1100001 #
1/
b1100001 1
08
b1 :
b1 I
b1 J
b10 L
b1 Q

#340000
0!
0/

#345000
1!
b1100010 #
1/
b1100010 1
b1100000 5
b10 :
b10 I
b10 J
b11 L
b1100000 O
b10 Q

#350000
0!
0/

#355000
1!
b1100011 #
1/
b1100011 1
b11 :
b11 I
b11 J
b100 L
b11 Q

#360000
0!
0/

#365000
1!
b1100100 #
1/
b1100100 1
b100 :
b100 I
b100 J
b101 L
b100 Q

#370000
0!
0/

#375000
1!
b11100100 #
1/
b11100100 1
b101 :
b101 I
b101 J
b110 L
b101 Q

#380000
0!
0/

#385000
1!
b111011 #
1/
b111011 1
b110 :
b110 I
b110 J
b111 L
b110 Q

#390000
0!
0/

#395000
1!
b10100011 #
1/
b10100011 1
b111 :
b111 I
b111 J
b1000 L
b111 Q

#400000
0!
0/

#405000
1!
b1001000 #
0$
1/
b1001000 1
02
b1000 :
b111 F
b1000 I
b1000 J
b1001 L
b1000 Q

#410000
0!
0/

#415000
1!
bx0110000001100000xxxxxxxxxxxxxxxxxxxxxxxx .
1/
b1100000 3
16
07
b1001 :
b1001 ;
b111 E
0G
1H
b1001 I
b1001 J
b1010 L
0N
0P
b1001 Q
b1100000 S
b101101010101110100110110000010 W
b101101010101110100110110000010 X
b1000 Z
b100000 [

#420000
0!
0/

#425000
1!
1/
14
b1000 :
b1000 ;
b1 A
b1000 I
b1 K
b10 M
b1 R
1T

#430000
0!
0/

#435000
1!
b101101010101110100110110000010 %
bx011000000110000101100001xxxxxxxxxxxxxxxx .
1/
b1100001 3
b1100001 5
b111 :
b111 ;
b10 A
b111 I
b10 K
b11 M
b1100001 O
b10 R
b1100001 S
b101101010101110100110110000010 U
b101101010101110100110110000010 V
b1010110110001110110100100010011 W
b1010110110001110110100100010011 X
b1000 Z
b100000 [

#440000
0!
0/

#445000
1!
b1010110110001110110100100010011 %
bx01100000011000010110001001100010xxxxxxxx .
1/
b1100010 3
b1100010 5
b110 :
b110 ;
b11 A
b110 I
b11 K
b100 M
b1100010 O
b11 R
b1100010 S
b1010110110001110110100100010011 U
b1010110110001110110100100010011 V
b10111110000100001001100 W
b10111110000100001001100 X
b1000 Z
b100000 [

#450000
0!
0/

#455000
1!
b10111110000100001001100 %
bx0110000001100001011000100110001101100011 .
1/
b1100011 3
b1100011 5
b101 :
b101 ;
b100 A
b1001 F
b101 I
b100 K
b101 M
b1100011 O
b100 R
b1100011 S
b10111110000100001001100 U
b10111110000100001001100 V
b11111110111011101010110001001110 W
b11111110111011101010110001001110 X
b1000 Z
b100000 [

#460000
0!
0/

#465000
1!
b11111110111011101010110001001110 %
1/
b1100100 3
b1100100 5
b100 :
b100 ;
b101 A
b1001 E
b100 I
b101 K
b110 M
b1100100 O
b101 R
b1100100 S
b11111110111011101010110001001110 U
b11111110111011101010110001001110 V
b11100100001110111010001101001000 W
b11100100001110111010001101001000 X
b1000 Z
b100000 [

#470000
0!
0/

#475000
1!
b11100100001110111010001101001000 %
1/
b11100100 3
b11100100 5
b11 :
b11 ;
b1 C
b11 I
b110 K
b111 M
b11100100 O
b110 R
b11100100 S
b11100100001110111010001101001000 U
b11100100001110111010001101001000 V
b111011101000110100100000000000 W
b111011101000110100100000000000 X
b1000 Z
b100000 [

#480000
0!
0/

#485000
1!
b111011101000110100100000000000 %
1/
b111011 3
b111011 5
b10 :
b10 ;
b10 C
b10 I
b111 K
b1000 M
b111011 O
b111 R
b111011 S
b111011101000110100100000000000 U
b111011101000110100100000000000 V
b10100011010010000000000000000000 W
b10100011010010000000000000000000 X
b1000 Z
b100000 [

#490000
0!
0/

#495000
1!
b10100011010010000000000000000000 %
1/
b10100011 3
b10100011 5
b1 :
b1 ;
b11 C
b1 I
b1000 K
b1001 M
b10100011 O
b1000 R
b10100011 S
b10100011010010000000000000000000 U
b10100011010010000000000000000000 V
b1001000000000000000000000000000 W
b1001000000000000000000000000000 X
b1000 Z
b100000 [

#500000
0!
0/

#505000
1!
b1001000000000000000000000000000 %
1/
b1001000 3
b1001000 5
18
b0 :
b0 ;
b0 C
b1010 F
b0 I
b1001 K
b1010 M
b1001000 O
b1001 R
b1001000 S
b1001000000000000000000000000000 U
b1001000000000000000000000000000 V
b0 W
b0 X
b1000 Z
b100000 [

#510000
0!
0/

#515000
1!
b0 %
1)
1/
04
bx 5
06
b1 C
b1010 E
b0 F
0H
bx O
0T
b0 U
b0 V
b10010100011101001110111001111 W
b10010100011101001110111001111 X
b1000 Z
b100000 [

#520000
0!
0/

#525000
1!
0)
1/
b0 E

