code/frame_rx/sim/Ethernet_frame_rx.vcd
$date
   Tue Mar 10 11:40:01 2026
$end

$version
  2024.2.0
  $dumpfile ("Ethernet_frame_rx.vcd") 
$end

$timescale
  1ps
$end

$scope module Ethernet_frame_rx_tb $end
$var reg 1 ! clk $end
$var reg 1 " reset $end
$var reg 8 # rx_data [7:0] $end
$var reg 1 $ rx_valid $end
$var reg 32 % CRC32_crc [31:0] $end
$var reg 8 & CRC32_data [7:0] $end
$var reg 1 ' CRC32_valid $end
$var reg 1 ( CRC32_error $end
$var reg 1 ) CRC32_correct $end
$var reg 48 * MAC_dest_addr [47:0] $end
$var reg 48 + MAC_source_addr [47:0] $end
$var reg 16 , ethernet_type [15:0] $end
$var reg 101 - payload [100:0] $end
$scope module dut $end
$var wire 1 . clk $end
$var wire 1 / reset $end
$var wire 8 0 rx_data [7:0] $end
$var wire 1 1 rx_valid $end
$var reg 1 ( CRC32_error $end
$var reg 1 ) CRC32_correct $end
$var reg 32 % CRC32_crc [31:0] $end
$var reg 48 * MAC_dest_addr [47:0] $end
$var reg 48 + MAC_source_addr [47:0] $end
$var reg 16 , ethernet_type [15:0] $end
$var reg 101 - payload [100:0] $end
$var reg 8 2 CRC32_data [7:0] $end
$var reg 1 3 CRC32_valid $end
$var reg 8 4 fifo_data [7:0] $end
$var reg 1 5 fifo_rd_en $end
$var reg 1 6 fifo_wr_en $end
$var reg 1 7 fifo_empty $end
$var reg 1 8 fifo_full $end
$var reg 8 9 fifo_used_memory [7:0] $end
$var reg 8 : length_payload_fcs [7:0] $end
$var reg 1 ; debug $end
$var reg 3 < cnt_preamble [2:0] $end
$var reg 3 = cnt_MAC_dest [2:0] $end
$var reg 3 > cnt_MAC_source [2:0] $end
$var reg 1 ? cnt_ethernet_type $end
$var reg 11 @ cnt_payload [10:0] $end
$var reg 6 A cnt_pad [5:0] $end
$var reg 2 B cnt_fcs [1:0] $end
$var reg 4 C cnt_ipg [3:0] $end
$var reg 32 D state $end
$var reg 32 E next_state $end
$scope module rx_fifo $end
$var wire 1 . clk $end
$var wire 1 / reset $end
$var wire 1 F push $end
$var wire 8 0 wr_data [7:0] $end
$var wire 1 G pop $end
$var reg 8 4 rd_data [7:0] $end
$var reg 1 8 fifo_full $end
$var reg 1 7 fifo_empty $end
$var reg 11 H fifo_used_memory [10:0] $end
$var reg 11 I wr_ptr [10:0] $end
$var reg 11 J rd_ptr [10:0] $end
$var reg 11 K wr_ptr_nxt [10:0] $end
$var reg 11 L rd_ptr_nxt [10:0] $end
$var reg 1 M write_enable $end
$var reg 8 N rd_data_raw [7:0] $end
$scope module fifo_ram $end
$var wire 1 . clk $end
$var wire 1 O we $end
$var wire 11 P wr_addr [10:0] $end
$var wire 8 0 wr_data [7:0] $end
$var wire 11 Q rd_addr [10:0] $end
$var reg 8 N rd_data [7:0] $end
$upscope $end
$upscope $end
$scope module CRC32_rx $end
$var wire 1 . clk $end
$var wire 1 / reset $end
$var wire 8 R data_in [7:0] $end
$var wire 1 S valid $end
$var wire 32 T crc_out [31:0] $end
$var reg 32 U crc [31:0] $end
$var reg 32 V crc_prev [31:0] $end
$var reg 32 W crc_next [31:0] $end
$var reg 4 X debug [3:0] $end
$scope begin Block41_11 $end
$var reg 32 Y i [31:0] $end
$scope begin Block43_12 $end
$var reg 32 Z j [31:0] $end
$upscope $end
$upscope $end
$upscope $end
$upscope $end
$scope task clk_gen $end
$upscope $end
$scope task apply_reset $end
$upscope $end
$upscope $end
$enddefinitions $end

#0
$dumpvars
0!
0"
bx #
0$
bx %
bx &
x'
0(
0)
bx *
bx +
bx ,
bx -
0.
0/
bx 0
01
bx 2
03
bx 4
05
06
x7
x8
bx 9
bx :
x;
bx <
bx =
bx >
x?
bx @
bx A
bx B
bx C
b0 D
b0 E
0F
0G
bx H
bx I
bx J
bx K
bx L
0M
bx N
0O
bx P
bx Q
bx R
0S
bx T
bx U
bx V
bx W
bx X
b1000 Y
b100000 Z
$end

#5000
1!
1"
b11111111111111111111111111111111 %
1.
1/
17
08
b0 9
b0 <
b0 =
b0 >
0?
b0 @
b0 A
b0 B
b0 C
b0 H
b0 I
b0 J
b1 K
b1 L
b0 P
b0 Q
b11111111111111111111111111111111 T
b11111111111111111111111111111111 U
bx V
bx W
b1000 Y
b100000 Z

#10000
0!
0.

#15000
1!
0"
1.
0/

#20000
0!
0.

#25000
1!
1.

#30000
0!
0.

#35000
1!
1.

#40000
0!
0.

#45000
1!
1.

#50000
0!
0.

#55000
1!
1.

#60000
0!
0.

#65000
1!
1.

#70000
0!
0.

#75000
1!
1.

#80000
0!
0.

#85000
1!
1.

#90000
0!
0.

#95000
1!
1$
1.
11
b1 E

#100000
0!
0.

#105000
1!
b10101010 #
1.
b10101010 0
b1 D

#110000
0!
0.

#115000
1!
1.
b1 <

#120000
0!
0.

#125000
1!
1.
b10 <

#130000
0!
0.

#135000
1!
1.
b11 <

#140000
0!
0.

#145000
1!
1.
b100 <

#150000
0!
0.

#155000
1!
1.
b101 <
b10 E

#160000
0!
0.

#165000
1!
1.
b110 <
b10 D
b10 E

#170000
0!
0.

#175000
1!
b11010101 #
1.
b11010101 0
b11 E

#180000
0!
0.

#185000
1!
b110101 #
b110101xxxxxxxxxxxxxxxxxxxxxxxxxxxxxxxxxxxxxxxx *
1.
b110101 0
b110101 2
13
b11 D
b110101 R
1S
b10001101111111111011100101001111 V
b10001101111111111011100101001111 W
b1000 Y
b100000 Z

#190000
0!
0.

#195000
1!
b110110 #
b10001101111111111011100101001111 %
b11010100110110xxxxxxxxxxxxxxxxxxxxxxxxxxxxxxxx *
1.
b110110 0
b110110 2
b1 =
b110110 R
b10001101111111111011100101001111 T
b10001101111111111011100101001111 U
b1101001110011000000100100011111 V
b1101001110011000000100100011111 W
b1000 Y
b100000 Z

#200000
0!
0.

#205000
1!
b110111 #
b1101001110011000000100100011111 %
b1101010011011000110111xxxxxxxxxxxxxxxxxxxxxxxx *
1.
b110111 0
b110111 2
b10 =
b110111 R
b1101001110011000000100100011111 T
b1101001110011000000100100011111 U
b10001000000100000001010000001101 V
b10001000000100000001010000001101 W
b1000 Y
b100000 Z

#210000
0!
0.

#215000
1!
b111000 #
b10001000000100000001010000001101 %
b110101001101100011011100111000xxxxxxxxxxxxxxxx *
1.
b111000 0
b111000 2
b11 =
b111000 R
b10001000000100000001010000001101 T
b10001000000100000001010000001101 U
b10101101001010101000000001111110 V
b10101101001010101000000001111110 W
b1000 Y
b100000 Z

#220000
0!
0.

#225000
1!
b111001 #
b10101101001010101000000001111110 %
b11010100110110001101110011100000111001xxxxxxxx *
1.
b111001 0
b111001 2
b100 =
b111001 R
b10101101001010101000000001111110 T
b10101101001010101000000001111110 U
b11100100110010011001101000010 V
b11100100110010011001101000010 W
b1000 Y
b100000 Z

#230000
0!
0.

#235000
1!
b1000000 #
b11100100110010011001101000010 %
b1101010011011000110111001110000011100101000000 *
1.
b1000000 0
b1000000 2
b101 =
b100 E
b1000000 R
b11100100110010011001101000010 T
b11100100110010011001101000010 U
b11010100101010000111001001100011 V
b11010100101010000111001001100011 W
b1000 Y
b100000 Z

#240000
0!
0.

#245000
1!
b10000110 #
b11010100101010000111001001100011 %
b10000110xxxxxxxxxxxxxxxxxxxxxxxxxxxxxxxxxxxxxxxx +
1.
b10000110 0
b10000110 2
b110 =
b100 D
b100 E
b10000110 R
b11010100101010000111001001100011 T
b11010100101010000111001001100011 U
b11011001011001111111001101101001 V
b11011001011001111111001101101001 W
b1000 Y
b100000 Z

#250000
0!
0.

#255000
1!
b11011001011001111111001101101001 %
b1000011010000110xxxxxxxxxxxxxxxxxxxxxxxxxxxxxxxx +
1.
b1 >
b11011001011001111111001101101001 T
b11011001011001111111001101101001 U
b100111001010110111111110111010 V
b100111001010110111111110111010 W
b1000 Y
b100000 Z

#260000
0!
0.

#265000
1!
b100111001010110111111110111010 %
b100001101000011010000110xxxxxxxxxxxxxxxxxxxxxxxx +
1.
b10 >
b100111001010110111111110111010 T
b100111001010110111111110111010 U
b11011110100100011111000110111001 V
b11011110100100011111000110111001 W
b1000 Y
b100000 Z

#270000
0!
0.

#275000
1!
b11011110100100011111000110111001 %
b10000110100001101000011010000110xxxxxxxxxxxxxxxx +
1.
b11 >
b11011110100100011111000110111001 T
b11011110100100011111000110111001 U
b11001111011011101111111110111111 V
b11001111011011101111111110111111 W
b1000 Y
b100000 Z

#280000
0!
0.

#285000
1!
b11001111011011101111111110111111 %
b1000011010000110100001101000011010000110xxxxxxxx +
1.
b100 >
b11001111011011101111111110111111 T
b11001111011011101111111110111111 U
b1111000101100000011111101111000 V
b1111000101100000011111101111000 W
b1000 Y
b100000 Z

#290000
0!
0.

#295000
1!
b1111000101100000011111101111000 %
b100001101000011010000110100001101000011010000110 +
1.
b101 >
b101 E
b1111000101100000011111101111000 T
b1111000101100000011111101111000 U
b101000010010010010100000011 V
b101000010010010010100000011 W
b1000 Y
b100000 Z

#300000
0!
0.

#305000
1!
b100111 #
b101000010010010010100000011 %
b100111xxxxxxxx ,
1.
b100111 0
b100111 2
b110 >
b101 D
b101 E
b100111 R
b101000010010010010100000011 T
b101000010010010010100000011 U
b10011000100001001000111010001110 V
b10011000100001001000111010001110 W
b1000 Y
b100000 Z

#310000
0!
0.

#315000
1!
b10011000100001001000111010001110 %
b10011100100111 ,
1.
1?
b110 E
b10011000100001001000111010001110 T
b10011000100001001000111010001110 U
b1111111111011111011000011 V
b1111111111011111011000011 W
b1000 Y
b100000 Z

#320000
0!
0.

#325000
1!
b1000010 #
b1111111111011111011000011 %
1.
b1000010 0
03
16
0?
b110 D
b110 E
1F
1M
1O
0S
b1111111111011111011000011 T
b1111111111011111011000011 U
b1111101000110110011100001010010 V
b1111101000110110011100001010010 W
b1000 Y
b100000 Z

#330000
0!
0.

#335000
1!
1.
07
b1 9
b1 H
b1 I
b10 K
b1 P

#340000
0!
0.

#345000
1!
1.
b1000010 4
b10 9
b10 H
b10 I
b11 K
b1000010 N
b10 P

#350000
0!
0.

#355000
1!
1.
b11 9
b11 H
b11 I
b100 K
b11 P

#360000
0!
0.

#365000
1!
1.
b100 9
b100 H
b100 I
b101 K
b100 P

#370000
0!
0.

#375000
1!
b11100111 #
1.
b11100111 0
b101 9
b101 H
b101 I
b110 K
b101 P

#380000
0!
0.

#385000
1!
b1100000 #
1.
b1100000 0
b110 9
b110 H
b110 I
b111 K
b110 P

#390000
0!
0.

#395000
1!
b1101 #
1.
b1101 0
b111 9
b111 H
b111 I
b1000 K
b111 P

#400000
0!
0.

#405000
1!
b10010111 #
0$
1.
b10010111 0
01
b1000 9
b111 E
b1000 H
b1000 I
b1001 K
b1000 P

#410000
0!
0.

#415000
1!
bx0100001001000010xxxxxxxxxxxxxxxxxxxxxxxx -
1.
15
06
b1001 9
b1001 :
b111 D
0F
1G
b1001 H
b1001 I
b1010 K
0M
0O
b1001 P

#420000
0!
0.

#425000
1!
1.
b1000010 2
13
b1000 9
b1000 :
b1 @
b1000 H
b1 J
b10 L
b1 Q
b1000010 R
1S
b11000110011110111001010110101110 V
b11000110011110111001010110101110 W
b1000 Y
b100000 Z

#430000
0!
0.

#435000
1!
b11000110011110111001010110101110 %
bx010000100100001001000010xxxxxxxxxxxxxxxx -
1.
b111 9
b111 :
b10 @
b111 H
b10 J
b11 L
b10 Q
b11000110011110111001010110101110 T
b11000110011110111001010110101110 U
b1100111010011100000110010 V
b1100111010011100000110010 W
b1000 Y
b100000 Z

#440000
0!
0.

#445000
1!
b1100111010011100000110010 %
bx01000010010000100100001001000010xxxxxxxx -
1.
b110 9
b110 :
b11 @
b110 H
b11 J
b100 L
b11 Q
b1100111010011100000110010 T
b1100111010011100000110010 U
b10100100111111010110010010101110 V
b10100100111111010110010010101110 W
b1000 Y
b100000 Z

#450000
0!
0.

#455000
1!
b10100100111111010110010010101110 %
bx0100001001000010010000100100001001000010 -
1.
b101 9
b101 :
b100 @
b1001 E
b101 H
b100 J
b101 L
b100 Q
b10100100111111010110010010101110 T
b10100100111111010110010010101110 U
b100010010010111100010111001011 V
b100010010010111100010111001011 W
b1000 Y
b100000 Z

#460000
0!
0.

#465000
1!
b100010010010111100010111001011 %
1.
b100 9
b100 :
b101 @
b1001 D
b100 H
b101 J
b110 L
b101 Q
b100010010010111100010111001011 T
b100010010010111100010111001011 U
b11100111011000000000110110010111 V
b11100111011000000000110110010111 W
b1000 Y
b100000 Z

#470000
0!
0.

#475000
1!
b11100111011000000000110110010111 %
1.
b11100111 2
b11100111 4
b11 9
b11 :
b1 B
b11 H
b110 J
b111 L
b11100111 N
b110 Q
b11100111 R
b11100111011000000000110110010111 T
b11100111011000000000110110010111 U
b1100000000011011001011100000000 V
b1100000000011011001011100000000 W
b1000 Y
b100000 Z

#480000
0!
0.

#485000
1!
b1100000000011011001011100000000 %
1.
b1100000 2
b1100000 4
b10 9
b10 :
b10 B
b10 H
b111 J
b1000 L
b1100000 N
b111 Q
b1100000 R
b1100000000011011001011100000000 T
b1100000000011011001011100000000 U
b1101100101110000000000000000 V
b1101100101110000000000000000 W
b1000 Y
b100000 Z

#490000
0!
0.

#495000
1!
b1101100101110000000000000000 %
1.
b1101 2
b1101 4
b1 9
b1 :
b11 B
b1 H
b1000 J
b1001 L
b1101 N
b1000 Q
b1101 R
b1101100101110000000000000000 T
b1101100101110000000000000000 U
b10010111000000000000000000000000 V
b10010111000000000000000000000000 W
b1000 Y
b100000 Z

#500000
0!
0.

#505000
1!
b10010111000000000000000000000000 %
1.
b10010111 2
b10010111 4
17
b0 9
b0 :
b0 B
b1010 E
b0 H
b1001 J
b1010 L
b10010111 N
b1001 Q
b10010111 R
b10010111000000000000000000000000 T
b10010111000000000000000000000000 U
b0 V
b0 W
b1000 Y
b100000 Z

#510000
0!
0.

#515000
1!
b0 %
1)
1.
03
bx 4
05
b1 B
b1010 D
b0 E
0G
bx N
0S
b0 T
b0 U
b111011010110100110101110011011 V
b111011010110100110101110011011 W
b1000 Y
b100000 Z

#520000
0!
0.

#525000
1!
0)
1.
b0 D

