code/frame_rx/sim/Ethernet_frame_rx.vcd
$date
   Thu Mar  5 14:05:42 2026
$end

$version
  2024.2.0
  $dumpfile ("Ethernet_frame_rx.vcd") 
$end

$timescale
  1ps
$end

$scope module Ethernet_frame_rx_tb $end
$var reg 1 ! clk $end
$var reg 1 " reset $end
$var reg 8 # rx_data [7:0] $end
$var reg 1 $ rx_valid $end
$var reg 32 % CRC32_crc [31:0] $end
$var reg 8 & CRC32_data [7:0] $end
$var reg 1 ' CRC32_valid $end
$var reg 1 ( CRC32_error $end
$var reg 1 ) CRC32_correct $end
$var reg 48 * MAC_dest_addr [47:0] $end
$var reg 48 + MAC_source_addr [47:0] $end
$var reg 16 , ethernet_type [15:0] $end
$var reg 201 - payload [200:0] $end
$scope module dut $end
$var wire 1 . clk $end
$var wire 1 / reset $end
$var wire 8 0 rx_data [7:0] $end
$var wire 1 1 rx_valid $end
$var reg 8 & CRC32_data [7:0] $end
$var reg 1 ' CRC32_valid $end
$var reg 1 ( CRC32_error $end
$var reg 1 ) CRC32_correct $end
$var reg 48 * MAC_dest_addr [47:0] $end
$var reg 48 + MAC_source_addr [47:0] $end
$var reg 16 , ethernet_type [15:0] $end
$var reg 201 - payload [200:0] $end
$var reg 32 2 CRC32_crc [31:0] $end
$var reg 8 3 fifo_data [7:0] $end
$var reg 1 4 fifo_rd_en $end
$var reg 1 5 fifo_wr_en $end
$var reg 1 6 fifo_empty $end
$var reg 1 7 fifo_full $end
$var reg 8 8 fifo_used_memory [7:0] $end
$var reg 8 9 length_payload_fcs [7:0] $end
$var reg 1 : debug $end
$var reg 3 ; cnt_preamble [2:0] $end
$var reg 3 < cnt_MAC_dest [2:0] $end
$var reg 3 = cnt_MAC_source [2:0] $end
$var reg 1 > cnt_ethernet_type $end
$var reg 11 ? cnt_payload [10:0] $end
$var reg 6 @ cnt_pad [5:0] $end
$var reg 2 A cnt_fcs [1:0] $end
$var reg 4 B cnt_ipg [3:0] $end
$var reg 32 C state $end
$var reg 32 D next_state $end
$scope module rx_fifo $end
$var wire 1 . clk $end
$var wire 1 / reset $end
$var wire 1 E push $end
$var wire 8 0 wr_data [7:0] $end
$var wire 1 F pop $end
$var reg 8 3 rd_data [7:0] $end
$var reg 1 7 fifo_full $end
$var reg 1 6 fifo_empty $end
$var reg 11 G fifo_used_memory [10:0] $end
$var reg 11 H wr_ptr [10:0] $end
$var reg 11 I rd_ptr [10:0] $end
$var reg 11 J wr_ptr_nxt [10:0] $end
$var reg 11 K rd_ptr_nxt [10:0] $end
$var reg 1 L write_enable $end
$var reg 8 M rd_data_raw [7:0] $end
$scope module fifo_ram $end
$var wire 1 . clk $end
$var wire 1 N we $end
$var wire 11 O wr_addr [10:0] $end
$var wire 8 0 wr_data [7:0] $end
$var wire 11 P rd_addr [10:0] $end
$var reg 8 M rd_data [7:0] $end
$upscope $end
$upscope $end
$scope module CRC32_rx $end
$var wire 1 . clk $end
$var wire 1 / reset $end
$var wire 8 & data_in [7:0] $end
$var wire 1 ' valid $end
$var wire 32 Q crc_out [31:0] $end
$var reg 32 R crc [31:0] $end
$var reg 32 S crc_prev [31:0] $end
$var reg 32 T crc_next [31:0] $end
$var reg 4 U debug [3:0] $end
$scope begin Block41_11 $end
$var reg 32 V i [31:0] $end
$scope begin Block43_12 $end
$var reg 32 W j [31:0] $end
$upscope $end
$upscope $end
$upscope $end
$upscope $end
$scope task clk_gen $end
$upscope $end
$scope task apply_reset $end
$upscope $end
$upscope $end
$enddefinitions $end

#0
$dumpvars
0!
0"
bx #
0$
bx %
bx &
0'
0(
0)
bx *
bx +
bx ,
bx -
0.
0/
bx 0
01
bx 2
bx 3
04
05
x6
x7
bx 8
bx 9
x:
bx ;
bx <
bx =
x>
bx ?
bx @
bx A
bx B
b0 C
b0 D
0E
0F
bx G
bx H
bx I
bx J
bx K
0L
bx M
0N
bx O
bx P
bx Q
bx R
bx S
bx T
bx U
b1000 V
b100000 W
$end

#5000
1!
1"
1.
1/
b11111111111111111111111111111111 2
16
07
b0 8
b0 ;
b0 <
b0 =
0>
b0 ?
b0 @
b0 A
b0 B
b0 G
b0 H
b0 I
b1 J
b1 K
b0 O
b0 P
b11111111111111111111111111111111 Q
b11111111111111111111111111111111 R
bx S
bx T
b1000 V
b100000 W

#10000
0!
0.

#15000
1!
0"
1.
0/

#20000
0!
0.

#25000
1!
1.

#30000
0!
0.

#35000
1!
1.

#40000
0!
0.

#45000
1!
1.

#50000
0!
0.

#55000
1!
1.

#60000
0!
0.

#65000
1!
1.

#70000
0!
0.

#75000
1!
1.

#80000
0!
0.

#85000
1!
1.

#90000
0!
0.

#95000
1!
1$
1.
11
b1 D

#100000
0!
0.

#105000
1!
b10101010 #
1.
b10101010 0
b1 C

#110000
0!
0.

#115000
1!
1.
b1 ;

#120000
0!
0.

#125000
1!
1.
b10 ;

#130000
0!
0.

#135000
1!
1.
b11 ;

#140000
0!
0.

#145000
1!
1.
b100 ;

#150000
0!
0.

#155000
1!
1.
b101 ;
b10 D

#160000
0!
0.

#165000
1!
1.
b110 ;
b10 C
b10 D

#170000
0!
0.

#175000
1!
b11010101 #
1.
b11010101 0
b11 D

#180000
0!
0.

#185000
1!
b100001 #
1.
b100001 0
b11 C

#190000
0!
0.

#195000
1!
b100001 &
1'
b100001xxxxxxxxxxxxxxxxxxxxxxxxxxxxxxxxxxxxxxxx *
1.
b1 <
b11010010111010100001010011100011 S
b11010010111010100001010011100011 T
b1000 V
b100000 W

#200000
0!
0.

#205000
1!
b10000100100001xxxxxxxxxxxxxxxxxxxxxxxxxxxxxxxx *
1.
b11010010111010100001010011100011 2
b10 <
b11010010111010100001010011100011 Q
b11010010111010100001010011100011 R
b1101110111011110011100011010000 S
b1101110111011110011100011010000 T
b1000 V
b100000 W

#210000
0!
0.

#215000
1!
b1000010010000100100001xxxxxxxxxxxxxxxxxxxxxxxx *
1.
b1101110111011110011100011010000 2
b11 <
b1101110111011110011100011010000 Q
b1101110111011110011100011010000 R
b11100011111100010001110111001010 S
b11100011111100010001110111001010 T
b1000 V
b100000 W

#220000
0!
0.

#225000
1!
b100001001000010010000100100001xxxxxxxxxxxxxxxx *
1.
b11100011111100010001110111001010 2
b100 <
b11100011111100010001110111001010 Q
b11100011111100010001110111001010 R
b10100101000101010110000111110111 S
b10100101000101010110000111110111 T
b1000 V
b100000 W

#230000
0!
0.

#235000
1!
b10000100100001001000010010000100100001xxxxxxxx *
1.
b10100101000101010110000111110111 2
b101 <
b100 D
b10100101000101010110000111110111 Q
b10100101000101010110000111110111 R
b1101111011010010110000100110010 S
b1101111011010010110000100110010 T
b1000 V
b100000 W

#240000
0!
0.

#245000
1!
b101001 #
b1000010010000100100001001000010010000100100001 *
1.
b101001 0
b1101111011010010110000100110010 2
b110 <
b100 C
b100 D
b1101111011010010110000100110010 Q
b1101111011010010110000100110010 R
b1100001011010011110001001111101 S
b1100001011010011110001001111101 T
b1000 V
b100000 W

#250000
0!
0.

#255000
1!
b101001 &
b101001xxxxxxxxxxxxxxxxxxxxxxxxxxxxxxxxxxxxxxxx +
1.
b1100001011010011110001001111101 2
b1 =
b1100001011010011110001001111101 Q
b1100001011010011110001001111101 R
b1111011011011001110000011001111 S
b1111011011011001110000011001111 T
b1000 V
b100000 W

#260000
0!
0.

#265000
1!
b10100100101001xxxxxxxxxxxxxxxxxxxxxxxxxxxxxxxx +
1.
b1111011011011001110000011001111 2
b10 =
b1111011011011001110000011001111 Q
b1111011011011001110000011001111 R
b11101111101010101111101101001 S
b11101111101010101111101101001 T
b1000 V
b100000 W

#270000
0!
0.

#275000
1!
b1010010010100100101001xxxxxxxxxxxxxxxxxxxxxxxx +
1.
b11101111101010101111101101001 2
b11 =
b11101111101010101111101101001 Q
b11101111101010101111101101001 R
b110010011010010111001001001100 S
b110010011010010111001001001100 T
b1000 V
b100000 W

#280000
0!
0.

#285000
1!
b101001001010010010100100101001xxxxxxxxxxxxxxxx +
1.
b110010011010010111001001001100 2
b100 =
b110010011010010111001001001100 Q
b110010011010010111001001001100 R
b1110001010000101110000010001 S
b1110001010000101110000010001 T
b1000 V
b100000 W

#290000
0!
0.

#295000
1!
b10100100101001001010010010100100101001xxxxxxxx +
1.
b1110001010000101110000010001 2
b101 =
b101 D
b1110001010000101110000010001 Q
b1110001010000101110000010001 R
b10101110001110001111011111100101 S
b10101110001110001111011111100101 T
b1000 V
b100000 W

#300000
0!
0.

#305000
1!
b110101 #
b1010010010100100101001001010010010100100101001 +
1.
b110101 0
b10101110001110001111011111100101 2
b110 =
b101 C
b101 D
b10101110001110001111011111100101 Q
b10101110001110001111011111100101 R
b1001111101111000101010111101011 S
b1001111101111000101010111101011 T
b1000 V
b100000 W

#310000
0!
0.

#315000
1!
b110101 &
b110101xxxxxxxx ,
1.
b1001111101111000101010111101011 2
1>
b110 D
b1001111101111000101010111101011 Q
b1001111101111000101010111101011 R
b1110011011010110010000000110001 S
b1110011011010110010000000110001 T
b1000 V
b100000 W

#320000
0!
0.

#325000
1!
b11100101 #
b11010100110101 ,
1.
b11100101 0
b1110011011010110010000000110001 2
0>
b110 C
b110 D
b1110011011010110010000000110001 Q
b1110011011010110010000000110001 R
b1000101001000000000110011000101 S
b1000101001000000000110011000101 T
b1000 V
b100000 W

#330000
0!
0.

#335000
1!
b11100110 #
1.
b11100110 0
b1000101001000000000110011000101 2
15
1E
1L
1N
b1000101001000000000110011000101 Q
b1000101001000000000110011000101 R
b11000000101110001101100011100111 S
b11000000101110001101100011100111 T
b1000 V
b100000 W

#340000
0!
0.

#345000
1!
b11100111 #
1.
b11100111 0
b11000000101110001101100011100111 2
06
b1 8
b1 G
b1 H
b10 J
b1 O
b11000000101110001101100011100111 Q
b11000000101110001101100011100111 R
b100110101001010111000101100010 S
b100110101001010111000101100010 T
b1000 V
b100000 W

#350000
0!
0.

#355000
1!
b11101000 #
1.
b11101000 0
b100110101001010111000101100010 2
b11100110 3
b10 8
b10 G
b10 H
b11 J
b11100110 M
b10 O
b100110101001010111000101100010 Q
b100110101001010111000101100010 R
b11100100001000111001111110101001 S
b11100100001000111001111110101001 T
b1000 V
b100000 W

#360000
0!
0.

#365000
1!
b11101001 #
1.
b11101001 0
b11100100001000111001111110101001 2
b11 8
b11 G
b11 H
b100 J
b11 O
b11100100001000111001111110101001 Q
b11100100001000111001111110101001 R
b110110110001011111111101011110 S
b110110110001011111111101011110 T
b1000 V
b100000 W

#370000
0!
0.

#375000
1!
b10000 #
1.
b10000 0
b110110110001011111111101011110 2
b100 8
b100 G
b100 H
b101 J
b100 O
b110110110001011111111101011110 Q
b110110110001011111111101011110 R
b11001000101111000111100011011001 S
b11001000101111000111100011011001 T
b1000 V
b100000 W

#380000
0!
0.

#385000
1!
b10001 #
1.
b10001 0
b11001000101111000111100011011001 2
b101 8
b101 G
b101 H
b110 J
b101 O
b11001000101111000111100011011001 Q
b11001000101111000111100011011001 R
b100000011011010001011011010 S
b100000011011010001011011010 T
b1000 V
b100000 W

#390000
0!
0.

#395000
1!
b10010 #
1.
b10010 0
b100000011011010001011011010 2
b110 8
b110 G
b110 H
b111 J
b110 O
b100000011011010001011011010 Q
b100000011011010001011011010 R
b11011101010100011010101000100111 S
b11011101010100011010101000100111 T
b1000 V
b100000 W

#400000
0!
0.

#405000
1!
b10011 #
1.
b10011 0
b11011101010100011010101000100111 2
b111 8
b111 G
b111 H
b1000 J
b111 O
b11011101010100011010101000100111 Q
b11011101010100011010101000100111 R
b10110010000010111110110011000001 S
b10110010000010111110110011000001 T
b1000 V
b100000 W

#410000
0!
0.

#415000
1!
b10100 #
1.
b10100 0
b10110010000010111110110011000001 2
b1000 8
b1000 G
b1000 H
b1001 J
b1000 O
b10110010000010111110110011000001 Q
b10110010000010111110110011000001 R
b1111100101001110111000111101011 S
b1111100101001110111000111101011 T
b1000 V
b100000 W

#420000
0!
0.

#425000
1!
1.
b1111100101001110111000111101011 2
b1001 8
b1001 G
b1001 H
b1010 J
b1001 O
b1111100101001110111000111101011 Q
b1111100101001110111000111101011 R
b10110001001111100110101101111000 S
b10110001001111100110101101111000 T
b1000 V
b100000 W

#430000
0!
0.

#435000
1!
b1100000 #
1.
b1100000 0
b10110001001111100110101101111000 2
b1010 8
b1010 G
b1010 H
b1011 J
b1010 O
b10110001001111100110101101111000 Q
b10110001001111100110101101111000 R
b1000100011000111110111000110010 S
b1000100011000111110111000110010 T
b1000 V
b100000 W

#440000
0!
0.

#445000
1!
b1110000 #
1.
b1110000 0
b1000100011000111110111000110010 2
b1011 8
b1011 G
b1011 H
b1100 J
b1011 O
b1000100011000111110111000110010 Q
b1000100011000111110111000110010 R
b10000111100110110011001001010000 S
b10000111100110110011001001010000 T
b1000 V
b100000 W

#450000
0!
0.

#455000
1!
b10000000 #
1.
b10000000 0
b10000111100110110011001001010000 2
b1100 8
b1100 G
b1100 H
b1101 J
b1100 O
b10000111100110110011001001010000 Q
b10000111100110110011001001010000 R
b101111100011101110011000010000 S
b101111100011101110011000010000 T
b1000 V
b100000 W

#460000
0!
0.

#465000
1!
b10010000 #
0$
1.
b10010000 0
01
b101111100011101110011000010000 2
b1101 8
b111 D
b1101 G
b1101 H
b1110 J
b1101 O
b101111100011101110011000010000 Q
b101111100011101110011000010000 R
b11101101011111010001110110100110 S
b11101101011111010001110110100110 T
b1000 V
b100000 W

#470000
0!
0.

#475000
1!
1.
b11101101011111010001110110100110 2
14
05
b1110 8
b111 C
0E
1F
b1110 G
b1110 H
b1111 J
0L
0N
b1110 O
b11101101011111010001110110100110 Q
b11101101011111010001110110100110 R
b1001010100011100000000001010001 S
b1001010100011100000000001010001 T
b1000 V
b100000 W

#480000
0!
0.

#485000
1!
b11100110 &
1.
b1001010100011100000000001010001 2
b1101 8
b1110 9
b1 ?
b1101 G
b1 I
b10 K
b1 P
b1001010100011100000000001010001 Q
b1001010100011100000000001010001 R
b1001010001000111001110001101010 S
b1001010001000111001110001101010 T
b1000 V
b100000 W

#490000
0!
0.

#495000
1!
bx11100110xxxxxxxxxxxxxxxxxxxxxxxxxxxxxxxxxxxxxxxxxxxxxxxxxxxxxxxxxxxxxxxx -
1.
b1001010001000111001110001101010 2
b11100111 3
b1100 8
b1101 9
b10 ?
b1100 G
b10 I
b11 K
b11100111 M
b10 P
b1001010001000111001110001101010 Q
b1001010001000111001110001101010 R
b11100111101111111010011101101010 S
b11100111101111111010011101101010 T
b1000 V
b100000 W

#500000
0!
0.

#505000
1!
b11100111 &
bx1110011011100111xxxxxxxxxxxxxxxxxxxxxxxxxxxxxxxxxxxxxxxxxxxxxxxxxxxxxxxx -
1.
b11100111101111111010011101101010 2
b11101000 3
b1011 8
b1100 9
b11 ?
b1011 G
b11 I
b100 K
b11101000 M
b11 P
b11100111101111111010011101101010 Q
b11100111101111111010011101101010 R
b10111111101001110110101000000000 S
b10111111101001110110101000000000 T
b1000 V
b100000 W

#510000
0!
0.

#515000
1!
b11101000 &
bx111001101110011111101000xxxxxxxxxxxxxxxxxxxxxxxxxxxxxxxxxxxxxxxxxxxxxxxx -
1.
b10111111101001110110101000000000 2
b11101001 3
b1010 8
b1011 9
b100 ?
b1010 G
b100 I
b101 K
b11101001 M
b100 P
b10111111101001110110101000000000 Q
b10111111101001110110101000000000 R
b11000001101110101111101100000010 S
b11000001101110101111101100000010 T
b1000 V
b100000 W

#520000
0!
0.

#525000
1!
b11101001 &
bx11100110111001111110100011101001xxxxxxxxxxxxxxxxxxxxxxxxxxxxxxxxxxxxxxxx -
1.
b11000001101110101111101100000010 2
b10000 3
b1001 8
b1010 9
b101 ?
b1001 G
b101 I
b110 K
b10000 M
b101 P
b11000001101110101111101100000010 Q
b11000001101110101111101100000010 R
b100110100000101100101011000 S
b100110100000101100101011000 T
b1000 V
b100000 W

#530000
0!
0.

#535000
1!
b10000 &
bx1110011011100111111010001110100100010000xxxxxxxxxxxxxxxxxxxxxxxxxxxxxxxx -
1.
b100110100000101100101011000 2
b10001 3
b1000 8
b1001 9
b110 ?
b1000 G
b110 I
b111 K
b10001 M
b110 P
b100110100000101100101011000 Q
b100110100000101100101011000 R
b10001111010011001111010110101100 S
b10001111010011001111010110101100 T
b1000 V
b100000 W

#540000
0!
0.

#545000
1!
b10001 &
bx111001101110011111101000111010010001000000010001xxxxxxxxxxxxxxxxxxxxxxxx -
1.
b10001111010011001111010110101100 2
b10010 3
b111 8
b1000 9
b111 ?
b111 G
b111 I
b1000 K
b10010 M
b111 P
b10001111010011001111010110101100 Q
b10001111010011001111010110101100 R
b1010101011001100011011110010100 S
b1010101011001100011011110010100 T
b1000 V
b100000 W

#550000
0!
0.

#555000
1!
b10010 &
bx11100110111001111110100011101001000100000001000100010010xxxxxxxxxxxxxxxx -
1.
b1010101011001100011011110010100 2
b10011 3
b110 8
b111 9
b1000 ?
b110 G
b1000 I
b1001 K
b10011 M
b1000 P
b1010101011001100011011110010100 Q
b1010101011001100011011110010100 R
b1001100111101101011010001110010 S
b1001100111101101011010001110010 T
b1000 V
b100000 W

#560000
0!
0.

#565000
1!
b10011 &
bx1110011011100111111010001110100100010000000100010001001000010011xxxxxxxx -
1.
b1001100111101101011010001110010 2
b10100 3
b101 8
b110 9
b1001 ?
b101 G
b1001 I
b1010 K
b10100 M
b1001 P
b1001100111101101011010001110010 Q
b1001100111101101011010001110010 R
b10110110011011000110010010111010 S
b10110110011011000110010010111010 T
b1000 V
b100000 W

#570000
0!
0.

#575000
1!
b10100 &
bx111001101110011111101000111010010001000000010001000100100001001100010100 -
1.
b10110110011011000110010010111010 2
b100 8
b101 9
b1010 ?
b1001 D
b100 G
b1010 I
b1011 K
b1010 P
b10110110011011000110010010111010 Q
b10110110011011000110010010111010 R
b10010100110010011101011101100000 S
b10010100110010011101011101100000 T
b1000 V
b100000 W

#580000
0!
0.

#585000
1!
1.
b10010100110010011101011101100000 2
b1100000 3
b11 8
b100 9
b1011 ?
b1001 C
b11 G
b1011 I
b1100 K
b1100000 M
b1011 P
b10010100110010011101011101100000 Q
b10010100110010011101011101100000 R
b10100000110110111000000011101110 S
b10100000110110111000000011101110 T
b1000 V
b100000 W

#590000
0!
0.

#595000
1!
b1100000 &
1.
b10100000110110111000000011101110 2
b1110000 3
b10 8
b11 9
b1 A
b10 G
b1100 I
b1101 K
b1110000 M
b1100 P
b10100000110110111000000011101110 Q
b10100000110110111000000011101110 R
b10000110000010100111111010011001 S
b10000110000010100111111010011001 T
b1000 V
b100000 W

#600000
0!
0.

#605000
1!
b1110000 &
1.
b10000110000010100111111010011001 2
b10000000 3
b1 8
b10 9
b10 A
b1 G
b1101 I
b1110 K
b10000000 M
b1101 P
b10000110000010100111111010011001 Q
b10000110000010100111111010011001 R
b10011001010000000010100110111011 S
b10011001010000000010100110111011 T
b1000 V
b100000 W

#610000
0!
0.

#615000
1!
b10000000 &
1.
b10011001010000000010100110111011 2
b10010000 3
16
b0 8
b1 9
b11 A
b1010 D
b0 G
b1110 I
b1111 K
b10010000 M
b1110 P
b10011001010000000010100110111011 Q
b10011001010000000010100110111011 R
b101110111100011001000001111111 S
b101110111100011001000001111111 T
b1000 V
b100000 W

#620000
0!
0.

#625000
1!
b10010000 &
1(
1.
b101110111100011001000001111111 2
bx 3
b0 9
b0 A
b1010 C
b0 D
bx M
b101110111100011001000001111111 Q
b101110111100011001000001111111 R
b1110000001000000101001001110100 S
b1110000001000000101001001110100 T
b1000 V
b100000 W

#630000
0!
0.

#635000
1!
0'
0(
1.
b1110000001000000101001001110100 2
04
b0 C
0F
b1110000001000000101001001110100 Q
b1110000001000000101001001110100 R
b11100101111110110101001001111001 S
b11100101111110110101001001111001 T
b1000 V
b100000 W

