code/crc32/sim/CRC_Gen.vcd
$date
   Tue Feb 24 14:13:22 2026
$end

$version
  2024.2.0
  $dumpfile ("CRC_Gen.vcd") 
$end

$timescale
  1ps
$end

$scope module CRC32_tb $end
$var reg 1 ! clk $end
$var reg 1 " rst $end
$var reg 1 # crc_en $end
$var reg 8 $ data [7:0] $end
$var reg 32 % crc [31:0] $end
$scope module DUT $end
$var wire 1 & clk $end
$var wire 1 ' reset $end
$var wire 8 ( data_in [7:0] $end
$var wire 1 ) valid $end
$var wire 32 * crc_out [31:0] $end
$var reg 32 + crc [31:0] $end
$var reg 32 , crc_prev [31:0] $end
$var reg 32 - crc_next [31:0] $end
$var reg 4 . debug [3:0] $end
$scope begin Block41_3 $end
$var reg 32 / i [31:0] $end
$scope begin Block43_4 $end
$var reg 32 0 j [31:0] $end
$upscope $end
$upscope $end
$upscope $end
$scope task clk_gen $end
$upscope $end
$scope task apply_reset $end
$upscope $end
$upscope $end
$enddefinitions $end

#0
$dumpvars
0!
0"
0#
b0 $
bx %
0&
0'
b0 (
0)
bx *
bx +
bx ,
bx -
bx .
b1000 /
b100000 0
$end

#5000
1!
1"
b11111111111111111111111111111111 %
1&
1'
b11111111111111111111111111111111 *
b11111111111111111111111111111111 +
b1001110000010001011111110110100 ,
b1001110000010001011111110110100 -
b1000 /
b100000 0

#10000
0!
0&

#15000
1!
0"
1&
0'

#20000
0!
0&

#25000
1!
1&

#30000
0!
0&

#35000
1!
1&

#40000
0!
0&

#45000
1!
1&

#50000
0!
0&

#55000
1!
1&

#60000
0!
0&

#65000
1!
1&

#70000
0!
0&

#75000
1!
1&

#80000
0!
0&

#85000
1!
1&

#90000
0!
0&

#95000
1!
1#
b110001 $
1&
b110001 (
1)
b10011110111110111100111110010011 ,
b10011110111110111100111110010011 -
b1000 /
b100000 0

#100000
0!
0&

#105000
1!
b110010 $
b10011110111110111100111110010011 %
1&
b110010 (
b10011110111110111100111110010011 *
b10011110111110111100111110010011 +
b111111111011000101111001101010 ,
b111111111011000101111001101010 -
b1000 /
b100000 0

#110000
0!
0&

#115000
1!
b110011 $
b111111111011000101111001101010 %
1&
b110011 (
b111111111011000101111001101010 *
b111111111011000101111001101010 +
b11011001010100101111000101100100 ,
b11011001010100101111000101100100 -
b1000 /
b100000 0

#120000
0!
0&

#125000
1!
b110100 $
b11011001010100101111000101100100 %
1&
b110100 (
b11011001010100101111000101100100 *
b11011001010100101111000101100100 +
b10100110100101011100010010101010 ,
b10100110100101011100010010101010 -
b1000 /
b100000 0

#130000
0!
0&

#135000
1!
b110101 $
b10100110100101011100010010101010 %
1&
b110101 (
b10100110100101011100010010101010 *
b10100110100101011100010010101010 +
b10111101100110101011011101000111 ,
b10111101100110101011011101000111 -
b1000 /
b100000 0

#140000
0!
0&

#145000
1!
b110110 $
b10111101100110101011011101000111 %
1&
b110110 (
b10111101100110101011011101000111 *
b10111101100110101011011101000111 +
b11011000111100000110110010001111 ,
b11011000111100000110110010001111 -
b1000 /
b100000 0

#150000
0!
0&

#155000
1!
b110111 $
b11011000111100000110110010001111 %
1&
b110111 (
b11011000111100000110110010001111 *
b11011000111100000110110010001111 +
b1101100010100001010011000100 ,
b1101100010100001010011000100 -
b1000 /
b100000 0

#160000
0!
0&

#165000
1!
b111000 $
b1101100010100001010011000100 %
1&
b111000 (
b1101100010100001010011000100 *
b1101100010100001010011000100 +
b1001001111000111100001011111011 ,
b1001001111000111100001011111011 -
b1000 /
b100000 0

#170000
0!
0&

#175000
1!
b111001 $
b1001001111000111100001011111011 %
1&
b111001 (
b1001001111000111100001011111011 *
b1001001111000111100001011111011 +
b11011101101110011011100111 ,
b11011101101110011011100111 -
b1000 /
b100000 0

#180000
0!
0&

#185000
1!
0#
b0 $
b11011101101110011011100111 %
1&
b0 (
0)
b11011101101110011011100111 *
b11011101101110011011100111 +
b1111011101001011100000111011001 ,
b1111011101001011100000111011001 -
b1000 /
b100000 0

