code/crc/sim/CRC_Gen.vcd
$date
   Thu Mar 26 09:46:33 2026
$end

$version
  2024.2.0
  $dumpfile ("CRC_Gen.vcd") 
$end

$timescale
  1ps
$end

$scope module tb $end
$scope module m_clk_if $end
$var reg 1 ! tb_clk $end
$upscope $end
$scope module m_crc_if $end
$var reg 1 " rstn $end
$var reg 8 # data_in [7:0] $end
$var reg 1 $ valid $end
$var reg 32 % crc_out [31:0] $end
$upscope $end
$scope module u0 $end
$var reg 32 & crc [31:0] $end
$var reg 32 ' crc_prev [31:0] $end
$var reg 32 ( crc_next [31:0] $end
$scope module _if $end
$var reg 1 " rstn $end
$var reg 8 # data_in [7:0] $end
$var reg 1 $ valid $end
$var reg 32 % crc_out [31:0] $end
$upscope $end
$scope module _if_clk $end
$var reg 1 ! tb_clk $end
$upscope $end
$scope begin Block33_14 $end
$var reg 32 ) i [31:0] $end
$scope begin Block35_15 $end
$var reg 32 * j [31:0] $end
$upscope $end
$upscope $end
$upscope $end
$scope begin Block16_18 $end
$var reg 32 + t0 $end
$upscope $end
$upscope $end
$enddefinitions $end

#0
$dumpvars
0!
x"
bx #
x$
bx %
bx &
bx '
bx (
b1000 )
b100000 *
b11011010010001010zzzzz00z0xx100z +
$end

#10000
1!
0"
b11110010 #
1$
b1000 )
b100000 *

#20000
0!

#30000
1!
b11001110 #
b1000 )
b100000 *

#40000
0!

#50000
1!
1"
b11000101 #
b1000 )
b100000 *

#60000
0!

#70000
1!
b1001 #
b11111111111111111111111111111111 %
b11111111111111111111111111111111 &
b1101100110000010100111110111011 '
b1101100110000010100111110111011 (
b1000 )
b100000 *

#80000
0!

#90000
1!
b1100000 #
b11100010101011010111100100100011 '
b11100010101011010111100100100011 (
b1000 )
b100000 *

#100000
0!

#110000
1!
b1001001 #
b1011000010001110011111111001100 '
b1011000010001110011111111001100 (
b1000 )
b100000 *

#120000
0!

#130000
1!
0"
b10001001 #
b101110011011010111101010101 '
b101110011011010111101010101 (
b1000 )
b100000 *

#140000
0!

#150000
1!
1"
b10101101 #
b101110011011010111101010101 %
b101110011011010111101010101 &
b11010100010001110111010110110 '
b11010100010001110111010110110 (
b1000 )
b100000 *

#160000
0!

#170000
1!
0"
b11101011 #
b11111111111111111111111111111111 %
b11111111111111111111111111111111 &
b10100000111010100101001010101100 '
b10100000111010100101001010101100 (
b1000 )
b100000 *

#180000
0!

#190000
1!
1"
b1001011 #
b10100000111010100101001010101100 %
b10100000111010100101001010101100 &
b100101100000100000100011000 '
b100101100000100000100011000 (
b1000 )
b100000 *

#200000
0!

#210000
1!
0"
b10110 #
b11111111111111111111111111111111 %
b11111111111111111111111111111111 &
b11000100111110010100101110110 '
b11000100111110010100101110110 (
b1000 )
b100000 *

#220000
0!

#230000
1!
1"
b10010100 #
b11000100111110010100101110110 %
b11000100111110010100101110110 &
b11000011001010010000110110001010 '
b11000011001010010000110110001010 (
b1000 )
b100000 *

#240000
0!

#250000
1!
0"
b11101110 #
b11111111111111111111111111111111 %
b11111111111111111111111111111111 &
b10110111001011110011100111000111 '
b10110111001011110011100111000111 (
b1000 )
b100000 *

#260000
0!

#270000
1!
b10011100 #
b10110111001011110011100111000111 %
b10110111001011110011100111000111 &
b10011100010100011011101010000001 '
b10011100010100011011101010000001 (
b1000 )
b100000 *

#280000
0!

#290000
1!
b10100010 #
b10011100010100011011101010000001 %
b10011100010100011011101010000001 &
b10111001000001100100110010011010 '
b10111001000001100100110010011010 (
b1000 )
b100000 *

#300000
0!

#310000
1!
1"
b11000100 #
b10111001000001100100110010011010 %
b10111001000001100100110010011010 &
b11010111001101010000000100110100 '
b11010111001101010000000100110100 (
b1000 )
b100000 *

#320000
0!

#330000
1!
0"
b1100111 #
b11111111111111111111111111111111 %
b11111111111111111111111111111111 &
b11111100111010100010100100100110 '
b11111100111010100010100100100110 (
b1000 )
b100000 *

#340000
0!

#350000
1!
b10100101 #
b11111100111010100010100100100110 %
b11111100111010100010100100100110 &
b10110000011101110111110100001000 '
b10110000011101110111110100001000 (
b1000 )
b100000 *

#360000
0!

#370000
1!
1"
b11000011 #
b10110000011101110111110100001000 %
b10110000011101110111110100001000 &
b10011010100010100011001100111110 '
b10011010100010100011001100111110 (
b1000 )
b100000 *

#380000
0!

#390000
1!
b10101111 #
b11111111111111111111111111111111 %
b11111111111111111111111111111111 &
b10000111011010000101010000000111 '
b10000111011010000101010000000111 (
b1000 )
b100000 *

#400000
0!

#410000
1!
b1010100 #
b100101100110110110001001101111 '
b100101100110110110001001101111 (
b1000 )
b100000 *

#420000
0!

#430000
1!
0"
b10111011 #
b11011000011111011111100110101011 '
b11011000011111011111100110101011 (
b1000 )
b100000 *

#440000
0!

#450000
1!
1"
b11110000 #
b11011000011111011111100110101011 %
b11011000011111011111100110101011 &
b11000011110100101111000001011000 '
b11000011110100101111000001011000 (
b1000 )
b100000 *

#460000
0!

#470000
1!
0"
b11010110 #
b11111111111111111111111111111111 %
b11111111111111111111111111111111 &
b1000101000101011011100111101111 '
b1000101000101011011100111101111 (
b1000 )
b100000 *

#480000
0!

#490000
1!
1"
b110111 #
b1000101000101011011100111101111 %
b1000101000101011011100111101111 &
b11111100100011111100100110001001 '
b11111100100011111100100110001001 (
b1000 )
b100000 *

#500000
0!

#510000
1!
0"
b11111100 #
b11111111111111111111111111111111 %
b11111111111111111111111111111111 &
b11110010101111001101100111011001 '
b11110010101111001101100111011001 (
b1000 )
b100000 *

#520000
0!

#530000
1!
1"
b111011 #
b11110010101111001101100111011001 %
b11110010101111001101100111011001 &
b11000011100110101011100110010110 '
b11000011100110101011100110010110 (
b1000 )
b100000 *

#540000
0!

#550000
1!
b10111000 #
b11111111111111111111111111111111 %
b11111111111111111111111111111111 &
b11010101001111101101111101110010 '
b11010101001111101101111101110010 (
b1000 )
b100000 *

#560000
0!

#570000
1!
0"
b10001001 #
b101110011011010111101010101 '
b101110011011010111101010101 (
b1000 )
b100000 *

#580000
0!

#590000
1!
1"
b10010001 #
b101110011011010111101010101 %
b101110011011010111101010101 &
b11111011101101100001100001000010 '
b11111011101101100001100001000010 (
b1000 )
b100000 *

#600000
0!

#610000
1!
0"
b11011100 #
b11111111111111111111111111111111 %
b11111111111111111111111111111111 &
b1101010100111110110111100111001 '
b1101010100111110110111100111001 (
b1000 )
b100000 *

#620000
0!

#630000
1!
1"
b1111110 #
b1101010100111110110111100111001 %
b1101010100111110110111100111001 &
b11000000011110101001010010101100 '
b11000000011110101001010010101100 (
b1000 )
b100000 *

#640000
0!

#650000
1!
0"
b11010110 #
b11111111111111111111111111111111 %
b11111111111111111111111111111111 &
b1000101000101011011100111101111 '
b1000101000101011011100111101111 (
b1000 )
b100000 *

#660000
0!

#670000
1!
1"
b1101010 #
b1000101000101011011100111101111 %
b1000101000101011011100111101111 &
b10110101110101011110010001011101 '
b10110101110101011110010001011101 (
b1000 )
b100000 *

#680000
0!

#690000
1!
b10010000 #
b11111111111111111111111111111111 %
b11111111111111111111111111111111 &
b1101011000101011000010000101010 '
b1101011000101011000010000101010 (
b1000 )
b100000 *

#700000
0!

#710000
1!
b11001010 #
b111100000010001111100111111011 '
b111100000010001111100111111011 (
b1000 )
b100000 *

#720000
0!

#730000
1!
b101011 #
b11111101011000001100001000110101 '
b11111101011000001100001000110101 (
b1000 )
b100000 *

#740000
0!

#750000
1!
0"
b10010101 #
b1111100110100001110111101000001 '
b1111100110100001110111101000001 (
b1000 )
b100000 *

#760000
0!

#770000
1!
b10000001 #
b1111100110100001110111101000001 %
b1111100110100001110111101000001 &
b1101000100110100011101011011010 '
b1101000100110100011101011011010 (
b1000 )
b100000 *

#780000
0!

#790000
1!
1"
b10010111 #
b1101000100110100011101011011010 %
b1101000100110100011101011011010 &
b101011110011011001101010110100 '
b101011110011011001101010110100 (
b1000 )
b100000 *

#800000
0!

#810000
1!
b1001000 #
b11111111111111111111111111111111 %
b11111111111111111111111111111111 &
b1011100100001100010001001111011 '
b1011100100001100010001001111011 (
b1000 )
b100000 *

#820000
0!

#830000
1!
b10000001 #
b100011110001010100001011101101 '
b100011110001010100001011101101 (
b1000 )
b100000 *

#840000
0!

#850000
1!
0"
b10001101 #
b10110110010011101100110001001 '
b10110110010011101100110001001 (
b1000 )
b100000 *

#860000
0!

#870000
1!
1"
b10000011 #
b10110110010011101100110001001 %
b10110110010011101100110001001 &
b11111011000000011101100111110101 '
b11111011000000011101100111110101 (
b1000 )
b100000 *

#880000
0!

#890000
1!
0"
b11101001 #
b11111111111111111111111111111111 %
b11111111111111111111111111111111 &
b10101001011010000110100111000010 '
b10101001011010000110100111000010 (
b1000 )
b100000 *

#900000
0!

#910000
1!
b1111110 #
b10101001011010000110100111000010 %
b10101001011010000110100111000010 &
b1100111101101011101100111101100 '
b1100111101101011101100111101100 (
b1000 )
b100000 *

#920000
0!

#930000
1!
b10100011 #
b1100111101101011101100111101100 %
b1100111101101011101100111101100 &
b11111011010101110000101001000101 '
b11111011010101110000101001000101 (
b1000 )
b100000 *

#940000
0!

#950000
1!
b10001 #
b11111011010101110000101001000101 %
b11111011010101110000101001000101 &
b10111101001010011011010110101111 '
b10111101001010011011010110101111 (
b1000 )
b100000 *

#960000
0!

#970000
1!
b11001000 #
b10111101001010011011010110101111 %
b10111101001010011011010110101111 &
b11011110110001001101100110001100 '
b11011110110001001101100110001100 (
b1000 )
b100000 *

#980000
0!

#990000
1!
b101101 #
b11011110110001001101100110001100 %
b11011110110001001101100110001100 &
b1000000001000100101011111010000 '
b1000000001000100101011111010000 (
b1000 )
b100000 *

#1000000
0!

#1010000
1!
b1000000001000100101011111010000 %
b1000000001000100101011111010000 &
b10111111001111111001000001000100 '
b10111111001111111001000001000100 (
b1000 )
b100000 *

#1020000
0!

#1030000
1!
b10111111001111111001000001000100 %
b10111111001111111001000001000100 &
b10011000011110100010011110000 '
b10011000011110100010011110000 (
b1000 )
b100000 *
